%!PS-Adobe-2.0 
%%Creator: MATLAB, The Mathworks, Inc.
%%Title: eof.ps
%%CreationDate: 01/29/99  12:19:51
%%DocumentNeededFonts: Helvetica
%%DocumentProcessColors: Cyan Magenta Yellow Black
%%Extensions: CMYK
%%Pages: (atend)
%%BoundingBox: (atend)
%%EndComments

%%BeginProlog

% MathWorks dictionary
/MathWorks 160 dict begin

% definition operators
/bdef {bind def} bind def
/ldef {load def} bind def
/xdef {exch def} bdef
/xstore {exch store} bdef

% operator abbreviations
/c  /clip ldef
/cc /concat ldef
/cp /closepath ldef
/gr /grestore ldef
/gs /gsave ldef
/mt /moveto ldef
/np /newpath ldef
/cm /currentmatrix ldef
/sm /setmatrix ldef
/rc {rectclip} bdef
/rf {rectfill} bdef
/rm /rmoveto ldef
/rl /rlineto ldef
/s /show ldef
/sc {setcmykcolor} bdef
/sr /setrgbcolor ldef
/sg /setgray ldef
/w /setlinewidth ldef
/j /setlinejoin ldef
/cap /setlinecap ldef

% page state control
/pgsv () def
/bpage {/pgsv save def} bdef
/epage {pgsv restore} bdef
/bplot /gsave ldef
/eplot {stroke grestore} bdef

% orientation switch
/portraitMode 	0 def
/landscapeMode 	1 def

% coordinate system mappings
/dpi2point 0 def

% font control
/FontSize 0 def
/FMS {
	/FontSize xstore		%save size off stack
	findfont
	[FontSize 0 0 FontSize neg 0 0]
	makefont
	setfont
	}bdef

/reencode {
exch dup where
{pop load} {pop StandardEncoding} ifelse
exch
dup 3 1 roll
findfont dup length dict begin
  { 1 index /FID ne {def}{pop pop} ifelse } forall
  /Encoding exch def
  currentdict
end
definefont pop
} bdef

/isroman {
findfont /CharStrings get
/Agrave known
} bdef

/FMSR {
3 1 roll 1 index
dup isroman
{reencode} {pop pop} ifelse
exch FMS
} bdef

/csm {
	1 dpi2point div -1 dpi2point div scale
	neg translate
	landscapeMode eq {90 rotate} if
	} bdef

% line types: solid, dotted, dashed, dotdash
/SO { [] 0 setdash } bdef
/DO { [.5 dpi2point mul 4 dpi2point mul] 0 setdash } bdef
/DA { [6 dpi2point mul] 0 setdash } bdef
/DD { [.5 dpi2point mul 4 dpi2point mul 6 dpi2point mul 4 dpi2point mul] 0 setdash } bdef

% macros for lines and objects
/L {
	lineto
	stroke
	} bdef
/MP {
	3 1 roll moveto
	1 sub {rlineto} repeat
	} bdef
/AP {
	{rlineto} repeat
	} bdef
/PP {
	closepath eofill
	} bdef
/DP {
	closepath stroke
	} bdef
/MR {
	4 -2 roll moveto
	dup  0 exch rlineto
	exch 0 rlineto
	neg  0 exch rlineto
	closepath
	} bdef
/FR {
	MR stroke
	} bdef
/PR {
	MR fill
	} bdef
/L1i {
	{ currentfile picstr readhexstring pop } image
	} bdef

/tMatrix matrix def
/MakeOval {
	newpath
	tMatrix currentmatrix pop
	translate scale
	0 0 1 0 360 arc
	tMatrix setmatrix
	} bdef
/FO {
	MakeOval
	stroke
	} bdef
/PO {
	MakeOval
	fill
	} bdef

/PD {
	currentlinecap 1 setlinecap 3 1 roll 2 copy moveto lineto stroke setlinecap
	} bdef

/FA {
	newpath
	tMatrix currentmatrix pop
	translate scale
	0 0 1 5 -2 roll arc
	tMatrix setmatrix
	stroke
	} bdef
/PA {
	newpath
	tMatrix currentmatrix pop
	translate 0 0 moveto scale
	0 0 1 5 -2 roll arc
	closepath
	tMatrix setmatrix
	fill
	} bdef

/FAn {
	newpath
	tMatrix currentmatrix pop
	translate scale
	0 0 1 5 -2 roll arcn
	tMatrix setmatrix
	stroke
	} bdef
/PAn {
	newpath
	tMatrix currentmatrix pop
	translate 0 0 moveto scale
	0 0 1 5 -2 roll arcn
	closepath
	tMatrix setmatrix
	fill
	} bdef

/MRR {
	/vradius xdef
	/hradius xdef
	/lry xdef
	/lrx xdef
	/uly xdef
	/ulx xdef
	newpath
	tMatrix currentmatrix pop
	ulx hradius add uly vradius add translate
	hradius vradius scale
	0 0 1 180 270 arc 
	tMatrix setmatrix
	lrx hradius sub uly vradius add translate
	hradius vradius scale
	0 0 1 270 360 arc
	tMatrix setmatrix
	lrx hradius sub lry vradius sub translate
	hradius vradius scale
	0 0 1 0 90 arc
	tMatrix setmatrix
	ulx hradius add lry vradius sub translate
	hradius vradius scale
	0 0 1 90 180 arc
	tMatrix setmatrix
	closepath
	} bdef
/FRR {
	MRR stroke } bdef
/PRR {
	MRR fill } bdef

/MlrRR {
	/lry xdef
	/lrx xdef
	/uly xdef
	/ulx xdef
	/rad lry uly sub 2 div def
	newpath
	tMatrix currentmatrix pop
	ulx rad add uly rad add translate
	rad rad scale
	0 0 1 90 270 arc
	tMatrix setmatrix
	lrx rad sub lry rad sub translate
	rad rad scale
	0 0 1 270 90 arc
	tMatrix setmatrix
	closepath
	} bdef
/FlrRR {
	MlrRR stroke } bdef
/PlrRR {
	MlrRR fill } bdef

/MtbRR {
	/lry xdef
	/lrx xdef
	/uly xdef
	/ulx xdef
	/rad lrx ulx sub 2 div def
	newpath
	tMatrix currentmatrix pop
	ulx rad add uly rad add translate
	rad rad scale
	0 0 1 180 360 arc
	tMatrix setmatrix
	lrx rad sub lry rad sub translate
	rad rad scale
	0 0 1 0 180 arc
	tMatrix setmatrix
	closepath
	} bdef
/FtbRR {
	MtbRR stroke } bdef
/PtbRR {
	MtbRR fill } bdef

currentdict end def
%%EndProlog

%%BeginSetup
MathWorks begin

0 cap

end
%%EndSetup

%%Page: 1 1
%%BeginPageSetup
%%PageBoundingBox:    58   201   553   600
MathWorks begin
bpage
%%EndPageSetup

%%BeginObject: obj1
bplot

/dpi2point 12 def
portraitMode 0216 7344 csm

  490   134  5933  4797 MR c np
88 dict begin %Colortable dictionary
/c0 { 0 0 0 sr} bdef
/c1 { 1 1 1 sr} bdef
/c2 { 1 0 0 sr} bdef
/c3 { 0 1 0 sr} bdef
/c4 { 0 0 1 sr} bdef
/c5 { 1 1 0 sr} bdef
/c6 { 1 0 1 sr} bdef
/c7 { 0 1 1 sr} bdef
1 j
1 sg
   0    0 6917 5186 PR
6 w
0 4225 2260 0 0 -4225 899 4613 4 MP
PP
-2260 0 0 4225 2260 0 0 -4225 899 4613 5 MP stroke
4 w
DO
0 sg
 899 4613 mt  899  388 L
 899  388 mt  899  388 L
1464 4613 mt 1464  388 L
1464  388 mt 1464  388 L
2029 4613 mt 2029  388 L
2029  388 mt 2029  388 L
2594 4613 mt 2594  388 L
2594  388 mt 2594  388 L
3159 4613 mt 3159  388 L
3159  388 mt 3159  388 L
 899 4613 mt 3159 4613 L
3159 4613 mt 3159 4613 L
 899 4191 mt 3159 4191 L
3159 4191 mt 3159 4191 L
 899 3768 mt 3159 3768 L
3159 3768 mt 3159 3768 L
 899 3346 mt 3159 3346 L
3159 3346 mt 3159 3346 L
 899 2923 mt 3159 2923 L
3159 2923 mt 3159 2923 L
 899 2501 mt 3159 2501 L
3159 2501 mt 3159 2501 L
 899 2078 mt 3159 2078 L
3159 2078 mt 3159 2078 L
 899 1656 mt 3159 1656 L
3159 1656 mt 3159 1656 L
 899 1233 mt 3159 1233 L
3159 1233 mt 3159 1233 L
 899  811 mt 3159  811 L
3159  811 mt 3159  811 L
 899  388 mt 3159  388 L
3159  388 mt 3159  388 L
SO
6 w
 899 4613 mt 3159 4613 L
 899  388 mt 3159  388 L
3159 4613 mt 3159  388 L
 899 4613 mt  899  388 L
 899 4613 mt 3159 4613 L
 899 4613 mt  899  388 L
 899 4613 mt  899 4571 L
 899  388 mt  899  430 L
%%IncludeResource: font Helvetica
/Helvetica /ISOLatin1Encoding 120 FMSR

 713 4759 mt 
(-0.05) s
1464 4613 mt 1464 4571 L
1464  388 mt 1464  430 L
1431 4759 mt 
(0) s
2029 4613 mt 2029 4571 L
2029  388 mt 2029  430 L
1913 4759 mt 
(0.05) s
2594 4613 mt 2594 4571 L
2594  388 mt 2594  430 L
2511 4759 mt 
(0.1) s
3159 4613 mt 3159 4571 L
3159  388 mt 3159  430 L
3043 4759 mt 
(0.15) s
 899 4613 mt  941 4613 L
3159 4613 mt 3117 4613 L
 661 4657 mt 
(-24) s
 899 4191 mt  941 4191 L
3159 4191 mt 3117 4191 L
 661 4235 mt 
(-22) s
 899 3768 mt  941 3768 L
3159 3768 mt 3117 3768 L
 661 3812 mt 
(-20) s
 899 3346 mt  941 3346 L
3159 3346 mt 3117 3346 L
 661 3390 mt 
(-18) s
 899 2923 mt  941 2923 L
3159 2923 mt 3117 2923 L
 661 2967 mt 
(-16) s
 899 2501 mt  941 2501 L
3159 2501 mt 3117 2501 L
 661 2545 mt 
(-14) s
 899 2078 mt  941 2078 L
3159 2078 mt 3117 2078 L
 661 2122 mt 
(-12) s
 899 1656 mt  941 1656 L
3159 1656 mt 3117 1656 L
 661 1700 mt 
(-10) s
 899 1233 mt  941 1233 L
3159 1233 mt 3117 1233 L
 728 1277 mt 
(-8) s
 899  811 mt  941  811 L
3159  811 mt 3117  811 L
 728  855 mt 
(-6) s
 899  388 mt  941  388 L
3159  388 mt 3117  388 L
 728  432 mt 
(-4) s
 899  388 mt 3159  388 L
 899 4613 mt 3159 4613 L
 899 4613 mt  899  388 L
3159 4613 mt 3159  388 L
gs 899 388 2261 4226 MR c np
/c8 { 0.000000 0.000000 1.000000 sr} bdef
c8
-12 211 -11 212 -12 211 -11 211 -12 211 -14 212 -16 211 -22 211 
-27 211 -63 212 -98 211 -99 211 -119 211 -132 212 -123 211 -62 211 
-93 211 -23 212 -47 211 2552 388 20 MP stroke
/c9 { 0.000000 0.500000 0.000000 sr} bdef
c9
5 211 8 212 12 211 11 211 12 211 3 212 -1 211 -3 211 
1 211 2 212 -33 211 -55 211 -72 211 -84 212 -37 211 -34 211 
39 211 74 212 54 211 1560 388 20 MP stroke
/c10 { 1.000000 0.000000 0.000000 sr} bdef
c10
-4 211 -1 212 1 211 2 211 0 211 -1 212 -4 211 4 211 
13 211 26 212 52 211 73 211 34 211 -23 212 -49 211 -11 211 
-51 211 -100 212 -74 211 1627 388 20 MP stroke

gr 
c10
0 sg
1485  293 mt 
(Zonal Velocity EOFs) s
1463 4902 mt 
(EOF amplitude  \(m/s\)) s
 606 2782 mt  -90 rotate
(Depth  \(m\)) s
90 rotate
1 sg
0 553 1238 0 0 -553 1783 4509 4 MP
PP
-1238 0 0 553 1238 0 0 -553 1783 4509 5 MP stroke
4 w
DO
SO
6 w
0 sg
1783 4509 mt 3021 4509 L
1783 3956 mt 3021 3956 L
3021 4509 mt 3021 3956 L
1783 4509 mt 1783 3956 L
1783 4509 mt 3021 4509 L
1783 4509 mt 1783 3956 L
1783 3956 mt 3021 3956 L
1783 4509 mt 3021 4509 L
1783 4509 mt 1783 3956 L
3021 4509 mt 3021 3956 L
%%IncludeResource: font Helvetica
/Helvetica /ISOLatin1Encoding 144 FMSR

2122 4145 mt 
(EOF 1: 81.1%) s
gs 1783 3956 1239 554 MR c np
c8
181 0 1828 4094 2 MP stroke

gr 
c8
0 sg
2122 4284 mt 
(EOF 2: 12.9%) s
gs 1783 3956 1239 554 MR c np
c9
181 0 1828 4233 2 MP stroke

gr 
c9
0 sg
2122 4422 mt 
(EOF 3:   3.6%) s
gs 1783 3956 1239 554 MR c np
c10
181 0 1828 4371 2 MP stroke

gr 
c10
1 sg
0 4225 2260 0 0 -4225 3997 4613 4 MP
PP
-2260 0 0 4225 2260 0 0 -4225 3997 4613 5 MP stroke
4 w
DO
0 sg
3997 4613 mt 3997  388 L
3997  388 mt 3997  388 L
4449 4613 mt 4449  388 L
4449  388 mt 4449  388 L
4901 4613 mt 4901  388 L
4901  388 mt 4901  388 L
5353 4613 mt 5353  388 L
5353  388 mt 5353  388 L
5805 4613 mt 5805  388 L
5805  388 mt 5805  388 L
6257 4613 mt 6257  388 L
6257  388 mt 6257  388 L
3997 4613 mt 6257 4613 L
6257 4613 mt 6257 4613 L
3997 4191 mt 6257 4191 L
6257 4191 mt 6257 4191 L
3997 3768 mt 6257 3768 L
6257 3768 mt 6257 3768 L
3997 3346 mt 6257 3346 L
6257 3346 mt 6257 3346 L
3997 2923 mt 6257 2923 L
6257 2923 mt 6257 2923 L
3997 2501 mt 6257 2501 L
6257 2501 mt 6257 2501 L
3997 2078 mt 6257 2078 L
6257 2078 mt 6257 2078 L
3997 1656 mt 6257 1656 L
6257 1656 mt 6257 1656 L
3997 1233 mt 6257 1233 L
6257 1233 mt 6257 1233 L
3997  811 mt 6257  811 L
6257  811 mt 6257  811 L
3997  388 mt 6257  388 L
6257  388 mt 6257  388 L
SO
6 w
3997 4613 mt 6257 4613 L
3997  388 mt 6257  388 L
6257 4613 mt 6257  388 L
3997 4613 mt 3997  388 L
3997 4613 mt 6257 4613 L
3997 4613 mt 3997  388 L
3997 4613 mt 3997 4571 L
3997  388 mt 3997  430 L
%%IncludeResource: font Helvetica
/Helvetica /ISOLatin1Encoding 120 FMSR

3811 4759 mt 
(-0.04) s
4449 4613 mt 4449 4571 L
4449  388 mt 4449  430 L
4263 4759 mt 
(-0.02) s
4901 4613 mt 4901 4571 L
4901  388 mt 4901  430 L
4868 4759 mt 
(0) s
5353 4613 mt 5353 4571 L
5353  388 mt 5353  430 L
5237 4759 mt 
(0.02) s
5805 4613 mt 5805 4571 L
5805  388 mt 5805  430 L
5689 4759 mt 
(0.04) s
6257 4613 mt 6257 4571 L
6257  388 mt 6257  430 L
6141 4759 mt 
(0.06) s
3997 4613 mt 4039 4613 L
6257 4613 mt 6215 4613 L
3759 4657 mt 
(-24) s
3997 4191 mt 4039 4191 L
6257 4191 mt 6215 4191 L
3759 4235 mt 
(-22) s
3997 3768 mt 4039 3768 L
6257 3768 mt 6215 3768 L
3759 3812 mt 
(-20) s
3997 3346 mt 4039 3346 L
6257 3346 mt 6215 3346 L
3759 3390 mt 
(-18) s
3997 2923 mt 4039 2923 L
6257 2923 mt 6215 2923 L
3759 2967 mt 
(-16) s
3997 2501 mt 4039 2501 L
6257 2501 mt 6215 2501 L
3759 2545 mt 
(-14) s
3997 2078 mt 4039 2078 L
6257 2078 mt 6215 2078 L
3759 2122 mt 
(-12) s
3997 1656 mt 4039 1656 L
6257 1656 mt 6215 1656 L
3759 1700 mt 
(-10) s
3997 1233 mt 4039 1233 L
6257 1233 mt 6215 1233 L
3826 1277 mt 
(-8) s
3997  811 mt 4039  811 L
6257  811 mt 6215  811 L
3826  855 mt 
(-6) s
3997  388 mt 4039  388 L
6257  388 mt 6215  388 L
3826  432 mt 
(-4) s
3997  388 mt 6257  388 L
3997 4613 mt 6257 4613 L
3997 4613 mt 3997  388 L
6257 4613 mt 6257  388 L
gs 3997 388 2261 4226 MR c np
c8
-50 211 -32 212 -22 211 -16 211 -9 211 -7 212 -11 211 -21 211 
-61 211 -79 212 -45 211 11 211 106 211 147 212 109 211 115 211 
-140 211 -111 212 -97 211 5726 388 20 MP stroke
c9
41 211 27 212 18 211 7 211 2 211 2 212 0 211 3 211 
6 211 -33 212 -98 211 -135 211 -170 211 -196 212 -159 211 -183 211 
5 211 -120 212 -72 211 5459 388 20 MP stroke
c10
0 211 -2 212 -2 211 -5 211 -5 211 -4 212 -18 211 -25 211 
5 211 49 212 143 211 214 211 118 211 -52 212 -115 211 -111 211 
-118 211 -384 212 -364 211 5620 388 20 MP stroke

gr 
c10
0 sg
4458  293 mt 
(Meridional Velocity EOFs) s
4561 4902 mt 
(EOF amplitude  \(m/s\)) s
3704 2782 mt  -90 rotate
(Depth  \(m\)) s
90 rotate

end

eplot
%%EndObject

epage
end

showpage

%%Page: 2 2
%%BeginPageSetup
%%PageBoundingBox:    58   201   549   600
MathWorks begin
bpage
%%EndPageSetup

%%BeginObject: obj1
bplot

/dpi2point 12 def
portraitMode 0216 7344 csm

  490   134  5883  4797 MR c np
88 dict begin %Colortable dictionary
/c0 { 0 0 0 sr} bdef
/c1 { 1 1 1 sr} bdef
/c2 { 1 0 0 sr} bdef
/c3 { 0 1 0 sr} bdef
/c4 { 0 0 1 sr} bdef
/c5 { 1 1 0 sr} bdef
/c6 { 1 0 1 sr} bdef
/c7 { 0 1 1 sr} bdef
1 j
1 sg
   0    0 6917 5186 PR
6 w
0 4225 2260 0 0 -4225 899 4613 4 MP
PP
-2260 0 0 4225 2260 0 0 -4225 899 4613 5 MP stroke
4 w
DO
0 sg
 899 4613 mt  899  388 L
 899  388 mt  899  388 L
1351 4613 mt 1351  388 L
1351  388 mt 1351  388 L
1803 4613 mt 1803  388 L
1803  388 mt 1803  388 L
2255 4613 mt 2255  388 L
2255  388 mt 2255  388 L
2707 4613 mt 2707  388 L
2707  388 mt 2707  388 L
3159 4613 mt 3159  388 L
3159  388 mt 3159  388 L
 899 4613 mt 3159 4613 L
3159 4613 mt 3159 4613 L
 899 4191 mt 3159 4191 L
3159 4191 mt 3159 4191 L
 899 3768 mt 3159 3768 L
3159 3768 mt 3159 3768 L
 899 3346 mt 3159 3346 L
3159 3346 mt 3159 3346 L
 899 2923 mt 3159 2923 L
3159 2923 mt 3159 2923 L
 899 2501 mt 3159 2501 L
3159 2501 mt 3159 2501 L
 899 2078 mt 3159 2078 L
3159 2078 mt 3159 2078 L
 899 1656 mt 3159 1656 L
3159 1656 mt 3159 1656 L
 899 1233 mt 3159 1233 L
3159 1233 mt 3159 1233 L
 899  811 mt 3159  811 L
3159  811 mt 3159  811 L
 899  388 mt 3159  388 L
3159  388 mt 3159  388 L
SO
6 w
 899 4613 mt 3159 4613 L
 899  388 mt 3159  388 L
3159 4613 mt 3159  388 L
 899 4613 mt  899  388 L
 899 4613 mt 3159 4613 L
 899 4613 mt  899  388 L
 899 4613 mt  899 4571 L
 899  388 mt  899  430 L
%%IncludeResource: font Helvetica
/Helvetica /ISOLatin1Encoding 120 FMSR

 783 4759 mt 
(0.02) s
1351 4613 mt 1351 4571 L
1351  388 mt 1351  430 L
1235 4759 mt 
(0.04) s
1803 4613 mt 1803 4571 L
1803  388 mt 1803  430 L
1687 4759 mt 
(0.06) s
2255 4613 mt 2255 4571 L
2255  388 mt 2255  430 L
2139 4759 mt 
(0.08) s
2707 4613 mt 2707 4571 L
2707  388 mt 2707  430 L
2624 4759 mt 
(0.1) s
3159 4613 mt 3159 4571 L
3159  388 mt 3159  430 L
3043 4759 mt 
(0.12) s
 899 4613 mt  941 4613 L
3159 4613 mt 3117 4613 L
 661 4657 mt 
(-24) s
 899 4191 mt  941 4191 L
3159 4191 mt 3117 4191 L
 661 4235 mt 
(-22) s
 899 3768 mt  941 3768 L
3159 3768 mt 3117 3768 L
 661 3812 mt 
(-20) s
 899 3346 mt  941 3346 L
3159 3346 mt 3117 3346 L
 661 3390 mt 
(-18) s
 899 2923 mt  941 2923 L
3159 2923 mt 3117 2923 L
 661 2967 mt 
(-16) s
 899 2501 mt  941 2501 L
3159 2501 mt 3117 2501 L
 661 2545 mt 
(-14) s
 899 2078 mt  941 2078 L
3159 2078 mt 3117 2078 L
 661 2122 mt 
(-12) s
 899 1656 mt  941 1656 L
3159 1656 mt 3117 1656 L
 661 1700 mt 
(-10) s
 899 1233 mt  941 1233 L
3159 1233 mt 3117 1233 L
 728 1277 mt 
(-8) s
 899  811 mt  941  811 L
3159  811 mt 3117  811 L
 728  855 mt 
(-6) s
 899  388 mt  941  388 L
3159  388 mt 3117  388 L
 728  432 mt 
(-4) s
 899  388 mt 3159  388 L
 899 4613 mt 3159 4613 L
 899 4613 mt  899  388 L
3159 4613 mt 3159  388 L
gs 899 388 2261 4226 MR c np
/c8 { 0.000000 0.000000 1.000000 sr} bdef
c8
-55 211 -37 212 -29 211 -22 211 -18 211 -17 212 -23 211 -38 211 
-80 211 -131 212 -152 211 -125 211 -116 211 -156 212 -187 211 -86 211 
-217 211 -77 212 -122 211 2774 388 20 MP stroke

gr 
c8
0 sg
1320  293 mt 
(EOF 1: Velocity Magnitude) s
1893 4902 mt 
(\(m/s\)) s
 606 2782 mt  -90 rotate
(Depth  \(m\)) s
90 rotate
1 sg
0 4225 2260 0 0 -4225 3997 4613 4 MP
PP
-2260 0 0 4225 2260 0 0 -4225 3997 4613 5 MP stroke
4 w
DO
0 sg
3997 4613 mt 3997  388 L
3997  388 mt 3997  388 L
4562 4613 mt 4562  388 L
4562  388 mt 4562  388 L
5127 4613 mt 5127  388 L
5127  388 mt 5127  388 L
5692 4613 mt 5692  388 L
5692  388 mt 5692  388 L
6257 4613 mt 6257  388 L
6257  388 mt 6257  388 L
3997 4613 mt 6257 4613 L
6257 4613 mt 6257 4613 L
3997 4191 mt 6257 4191 L
6257 4191 mt 6257 4191 L
3997 3768 mt 6257 3768 L
6257 3768 mt 6257 3768 L
3997 3346 mt 6257 3346 L
6257 3346 mt 6257 3346 L
3997 2923 mt 6257 2923 L
6257 2923 mt 6257 2923 L
3997 2501 mt 6257 2501 L
6257 2501 mt 6257 2501 L
3997 2078 mt 6257 2078 L
6257 2078 mt 6257 2078 L
3997 1656 mt 6257 1656 L
6257 1656 mt 6257 1656 L
3997 1233 mt 6257 1233 L
6257 1233 mt 6257 1233 L
3997  811 mt 6257  811 L
6257  811 mt 6257  811 L
3997  388 mt 6257  388 L
6257  388 mt 6257  388 L
SO
6 w
3997 4613 mt 6257 4613 L
3997  388 mt 6257  388 L
6257 4613 mt 6257  388 L
3997 4613 mt 3997  388 L
3997 4613 mt 6257 4613 L
3997 4613 mt 3997  388 L
3997 4613 mt 3997 4571 L
3997  388 mt 3997  430 L
3964 4759 mt 
(0) s
4562 4613 mt 4562 4571 L
4562  388 mt 4562  430 L
4496 4759 mt 
(20) s
5127 4613 mt 5127 4571 L
5127  388 mt 5127  430 L
5061 4759 mt 
(40) s
5692 4613 mt 5692 4571 L
5692  388 mt 5692  430 L
5626 4759 mt 
(60) s
6257 4613 mt 6257 4571 L
6257  388 mt 6257  430 L
6191 4759 mt 
(80) s
3997 4613 mt 4039 4613 L
6257 4613 mt 6215 4613 L
3759 4657 mt 
(-24) s
3997 4191 mt 4039 4191 L
6257 4191 mt 6215 4191 L
3759 4235 mt 
(-22) s
3997 3768 mt 4039 3768 L
6257 3768 mt 6215 3768 L
3759 3812 mt 
(-20) s
3997 3346 mt 4039 3346 L
6257 3346 mt 6215 3346 L
3759 3390 mt 
(-18) s
3997 2923 mt 4039 2923 L
6257 2923 mt 6215 2923 L
3759 2967 mt 
(-16) s
3997 2501 mt 4039 2501 L
6257 2501 mt 6215 2501 L
3759 2545 mt 
(-14) s
3997 2078 mt 4039 2078 L
6257 2078 mt 6215 2078 L
3759 2122 mt 
(-12) s
3997 1656 mt 4039 1656 L
6257 1656 mt 6215 1656 L
3759 1700 mt 
(-10) s
3997 1233 mt 4039 1233 L
6257 1233 mt 6215 1233 L
3826 1277 mt 
(-8) s
3997  811 mt 4039  811 L
6257  811 mt 6215  811 L
3826  855 mt 
(-6) s
3997  388 mt 4039  388 L
6257  388 mt 6215  388 L
3826  432 mt 
(-4) s
3997  388 mt 6257  388 L
3997 4613 mt 6257 4613 L
3997 4613 mt 3997  388 L
6257 4613 mt 6257  388 L
gs 3997 388 2261 4226 MR c np
c8
-22 211 -27 212 -31 211 -33 211 -41 211 -44 212 -47 211 -60 211 
-34 211 -105 212 -186 211 -192 211 -265 211 -270 212 -181 211 -126 211 
68 211 68 212 42 211 5953 388 20 MP stroke

gr 
c8
0 sg
4461  293 mt 
(EOF 1: Velocity Direction) s
4872 4902 mt 
(\(degrees\)) s
3704 2782 mt  -90 rotate
(Depth  \(m\)) s
90 rotate

end

eplot
%%EndObject

epage
end

showpage

%%Page: 3 3
%%BeginPageSetup
%%PageBoundingBox:    58   201   285   600
MathWorks begin
bpage
%%EndPageSetup

%%BeginObject: obj1
bplot

/dpi2point 12 def
portraitMode 0216 7344 csm

  490   134  2719  4797 MR c np
88 dict begin %Colortable dictionary
/c0 { 0 0 0 sr} bdef
/c1 { 1 1 1 sr} bdef
/c2 { 1 0 0 sr} bdef
/c3 { 0 1 0 sr} bdef
/c4 { 0 0 1 sr} bdef
/c5 { 1 1 0 sr} bdef
/c6 { 1 0 1 sr} bdef
/c7 { 0 1 1 sr} bdef
1 j
1 sg
   0    0 6917 5186 PR
6 w
0 4225 2260 0 0 -4225 899 4613 4 MP
PP
-2260 0 0 4225 2260 0 0 -4225 899 4613 5 MP stroke
4 w
DO
0 sg
1222 4613 mt 1222  388 L
1222  388 mt 1222  388 L
2029 4613 mt 2029  388 L
2029  388 mt 2029  388 L
2836 4613 mt 2836  388 L
2836  388 mt 2836  388 L
 899 4613 mt 3159 4613 L
3159 4613 mt 3159 4613 L
 899 3768 mt 3159 3768 L
3159 3768 mt 3159 3768 L
 899 2923 mt 3159 2923 L
3159 2923 mt 3159 2923 L
 899 2078 mt 3159 2078 L
3159 2078 mt 3159 2078 L
 899 1233 mt 3159 1233 L
3159 1233 mt 3159 1233 L
 899  388 mt 3159  388 L
3159  388 mt 3159  388 L
SO
6 w
 899 4613 mt 3159 4613 L
 899  388 mt 3159  388 L
3159 4613 mt 3159  388 L
 899 4613 mt  899  388 L
 899 4613 mt 3159 4613 L
 899 4613 mt  899  388 L
1222 4613 mt 1222 4571 L
1222  388 mt 1222  430 L
%%IncludeResource: font Helvetica
/Helvetica /ISOLatin1Encoding 120 FMSR

1189 4759 mt 
(0) s
2029 4613 mt 2029 4571 L
2029  388 mt 2029  430 L
1946 4759 mt 
(0.5) s
2836 4613 mt 2836 4571 L
2836  388 mt 2836  430 L
2803 4759 mt 
(1) s
 899 4613 mt  941 4613 L
3159 4613 mt 3117 4613 L
 661 4657 mt 
(-25) s
 899 3768 mt  941 3768 L
3159 3768 mt 3117 3768 L
 661 3812 mt 
(-20) s
 899 2923 mt  941 2923 L
3159 2923 mt 3117 2923 L
 661 2967 mt 
(-15) s
 899 2078 mt  941 2078 L
3159 2078 mt 3117 2078 L
 661 2122 mt 
(-10) s
 899 1233 mt  941 1233 L
3159 1233 mt 3117 1233 L
 728 1277 mt 
(-5) s
 899  388 mt  941  388 L
3159  388 mt 3117  388 L
 798  432 mt 
(0) s
 899  388 mt 3159  388 L
 899 4613 mt 3159 4613 L
 899 4613 mt  899  388 L
3159 4613 mt 3159  388 L
gs 899 388 2261 4226 MR c np
/c8 { 1.000000 0.000000 0.000000 sr} bdef
c8
79 -17 74 -17 72 -17 67 -17 65 -17 61 -16 59 -17 55 -17 
53 -17 50 -17 48 -17 45 -17 43 -17 42 -17 39 -17 37 -16 
35 -17 34 -17 32 -17 30 -17 29 -17 28 -17 26 -17 25 -17 
24 -17 22 -16 22 -17 20 -17 19 -17 19 -17 18 -17 16 -17 
16 -17 15 -17 15 -17 13 -16 13 -17 13 -17 11 -17 12 -17 
10 -17 10 -17 10 -17 9 -17 9 -17 8 -16 8 -17 8 -17 
7 -17 7 -17 6 -17 6 -17 6 -17 6 -17 5 -17 5 -16 
5 -17 4 -17 5 -17 4 -17 4 -17 3 -17 4 -17 3 -17 
4 -17 3 -16 3 -17 2 -17 3 -17 2 -17 3 -17 2 -17 
2 -17 2 -17 2 -17 2 -16 2 -17 1 -17 2 -17 2 -17 
1 -17 1 -17 2 -17 1 -17 1 -17 1 -16 1 -17 1 -17 
1 -17 1 -17 1 -17 1 -17 1 -17 0 -17 1 -17 1 -16 
1 -17 0 -17 1 -17 1233 2061 100 MP stroke
0 -17 1 -17 0 -17 1 -17 0 -17 1 -17 0 -16 0 -17 
1 -17 0 -17 1 -17 0 -17 0 -17 0 -17 1 -17 0 -17 
0 -16 0 -17 1 -17 0 -17 0 -17 0 -17 1 -17 0 -17 
0 -17 0 -17 0 -16 0 -17 0 -17 1 -17 0 -17 0 -17 
0 -17 0 -17 0 -17 0 -17 0 -16 0 -17 1 -17 0 -17 
0 -17 0 -17 0 -17 0 -17 0 -17 0 -17 0 -16 0 -17 
0 -17 0 -17 0 -17 0 -17 0 -17 0 -17 0 -17 0 -17 
0 -16 1 -17 0 -17 0 -17 0 -17 0 -17 0 -17 0 -17 
0 -17 0 -17 0 -16 0 -17 0 -17 0 -17 0 -17 0 -17 
0 -17 0 -17 0 -17 0 -17 0 -16 0 -17 0 -17 0 -17 
0 -17 0 -17 0 -17 0 -17 0 -17 0 -17 0 -16 0 -17 
0 -17 0 -17 0 -17 0 -17 0 -17 0 -17 0 -17 0 -17 
0 -16 0 -17 0 -17 1222 3734 100 MP stroke
0 -17 0 -17 0 -17 0 -17 0 -17 0 -17 0 -17 0 -16 
0 -17 0 -17 0 -17 0 -17 0 -17 0 -17 0 -17 0 -17 
0 -17 0 -16 0 -17 0 -17 0 -17 0 -17 0 -17 0 -17 
0 -17 0 -17 0 -17 0 -16 0 -17 0 -17 0 -17 0 -17 
0 -17 0 -17 0 -17 0 -17 0 -17 0 -16 0 -17 0 -17 
0 -17 0 -17 1222 4444 43 MP stroke

gr 
c8
0 sg
1152  293 mt 
(Extended Velocity Error Variance) s
1639 4902 mt 
(\(nondimsional\)) s
 606 2782 mt  -90 rotate
(Depth  \(m\)) s
90 rotate

end

eplot
%%EndObject

epage
end

showpage

%%Trailer
%%BoundingBox:    58   201   553   600
%%Pages: 003
%%EOF
