   1.0  31.645   4.649
   2.0  32.144   4.261
   3.0  32.663   3.867
   4.0  33.258   3.592
   5.0  33.613   3.498
   6.0  33.740   3.572
   7.0  33.794   3.540
   8.0  33.898   3.740
   9.0  34.175   4.134
  10.0  34.296   4.319
  11.0  34.383   4.507
  12.0  34.514   4.436
  13.0  34.584   4.401
  14.0  34.626   4.371
  15.0  34.660   4.202
  16.0  34.685   4.028
  17.0  34.705   3.945
  18.0  34.724   3.771
  19.0  34.750   3.675
  20.0  34.803   3.748
  21.0  34.813   3.617
  22.0  34.822   3.564
  23.0  34.814   3.445
  24.0  34.817   3.182
  25.0  34.824   3.078
  26.0  34.825   3.060
  27.0  34.828   3.054
  28.0  34.826   3.014
  29.0  34.833   3.021
  30.0  34.849   3.004
  31.0  34.848   3.002
  32.0  34.848   2.998
  33.0  34.837   2.922
  34.0  34.811   2.631
  35.0  34.803   2.533
  36.0  34.805   2.495
  37.0  34.805   2.479
  38.0  34.805   2.461
  39.0  34.806   2.426
  40.0  34.805   2.382
  41.0  34.809   2.390
  42.0  34.813   2.396
  43.0  34.815   2.341
  44.0  34.809   2.231
  45.0  34.804   2.121
  46.0  34.809   2.068
  47.0  34.810   2.041
  48.0  34.811   2.022
  49.0  34.811   2.010
  50.0  34.813   1.996
  51.0  34.816   1.987
  52.0  34.817   1.988
  53.0  34.817   1.987
  54.0  34.817   1.986
  55.0  34.818   1.984
  56.0  34.819   1.973
  57.0  34.820   1.960
  58.0  34.822   1.948
  59.0  34.832   1.966
  60.0  34.844   2.006
  61.0  34.854   2.026
  62.0  34.870   2.052
  63.0  34.878   2.062
  64.0  34.880   2.067
  65.0  34.882   2.076
  66.0  34.885   2.086
  67.0  34.894   2.113
  68.0  34.893   2.115
  69.0  34.929   2.259
  70.0  34.923   2.231
  71.0  34.937   2.293
