   1.0  32.514   3.449
   2.0  32.897   3.428
   3.0  33.081   3.494
   4.0  33.128   3.516
   5.0  33.269   3.373
   6.0  33.429   3.305
   7.0  33.553   3.290
   8.0  33.635   3.277
   9.0  33.661   3.267
  10.0  33.680   3.256
  11.0  33.725   3.263
  12.0  33.764   3.208
  13.0  33.784   3.176
  14.0  33.818   3.043
  15.0  33.902   2.845
  16.0  33.981   2.762
  17.0  34.276   2.800
  18.0  34.496   3.307
  19.0  34.532   3.355
  20.0  34.539   3.332
  21.0  34.542   3.317
  22.0  34.550   3.302
  23.0  34.586   3.369
  24.0  34.618   3.443
  25.0  34.631   3.351
  26.0  34.637   3.348
  27.0  34.639   3.333
  28.0  34.648   3.326
  29.0  34.647   3.223
  30.0  34.659   3.247
  31.0  34.663   3.210
  32.0  34.669   3.195
  33.0  34.676   3.189
  34.0  34.680   3.179
  35.0  34.683   3.170
  36.0  34.687   3.173
  37.0  34.687   3.134
  38.0  34.690   3.067
  39.0  34.697   2.879
  40.0  34.725   2.431
  41.0  34.756   2.139
  42.0  34.775   2.033
  43.0  34.782   2.009
