   5.0  33.006   3.593
   6.0  32.949   3.508
   7.0  32.915   3.388
   8.0  32.926   3.431
   9.0  32.964   3.487
  10.0  33.015   3.607
  11.0  33.020   3.605
  12.0  33.121   3.765
  13.0  33.190   3.882
  14.0  33.203   3.905
  15.0  33.233   3.946
  16.0  33.306   4.054
  17.0  33.426   4.233
  18.0  33.518   4.373
  19.0  33.607   4.503
  20.0  33.697   4.573
  21.0  33.822   4.728
  22.0  33.877   4.781
  23.0  34.000   4.912
  24.0  34.098   5.141
  25.0  34.108   5.197
  26.0  34.120   5.184
  27.0  34.149   5.073
  28.0  34.168   5.092
  29.0  34.193   5.097
  30.0  34.242   5.170
  31.0  34.281   5.273
  32.0  34.294   5.293
  33.0  34.302   5.237
  34.0  34.351   5.307
  35.0  34.360   5.325
  36.0  34.367   5.276
  37.0  34.367   5.167
  38.0  34.349   4.993
  39.0  34.359   4.867
  40.0  34.422   4.954
  41.0  34.490   5.229
  42.0  34.490   5.235
  43.0  34.521   5.288
  44.0  34.533   5.287
  45.0  34.562   5.279
  46.0  34.583   5.359
  47.0  34.582   5.271
  48.0  34.606   5.321
  49.0  34.602   5.266
  50.0  34.590   5.121
  51.0  34.588   5.064
  52.0  34.600   5.053
  53.0  34.610   5.051
  54.0  34.611   4.987
  55.0  34.628   4.987
  56.0  34.632   4.986
  57.0  34.624   4.880
  58.0  34.631   4.858
  59.0  34.649   4.913
  60.0  34.660   4.958
  61.0  34.631   4.825
  62.0  34.596   4.409
  63.0  34.621   4.398
  64.0  34.676   4.839
  65.0  34.724   4.934
  66.0  34.764   5.235
  67.0  34.771   5.286
  68.0  34.771   5.253
  69.0  34.768   5.237
  70.0  34.758   5.181
  71.0  34.746   5.081
  72.0  34.741   5.013
  73.0  34.729   4.918
  74.0  34.720   4.816
  75.0  34.730   4.825
  76.0  34.751   4.930
  77.0  34.790   5.110
  78.0  34.808   5.228
  79.0  34.798   5.150
  80.0  34.801   5.124
  81.0  34.784   5.003
  82.0  34.750   4.679
  83.0  34.749   4.554
  84.0  34.752   4.560
  85.0  34.753   4.562
  86.0  34.753   4.562
  87.0  34.753   4.560
  88.0  34.750   4.527
  89.0  34.766   4.559
  90.0  34.792   4.660
  91.0  34.809   4.750
  92.0  34.812   4.770
  93.0  34.813   4.766
  94.0  34.813   4.756
  95.0  34.812   4.719
  96.0  34.814   4.709
  97.0  34.809   4.688
  98.0  34.804   4.584
  99.0  34.808   4.579
 100.0  34.808   4.581
 101.0  34.808   4.583
 102.0  34.803   4.559
 103.0  34.804   4.518
 104.0  34.779   4.367
 105.0  34.772   4.233
 106.0  34.768   4.178
 107.0  34.767   4.146
 108.0  34.766   4.137
 109.0  34.757   4.054
 110.0  34.754   3.971
 111.0  34.753   3.955
 112.0  34.754   3.954
 113.0  34.760   3.970
 114.0  34.762   3.978
 115.0  34.762   3.949
 116.0  34.771   3.976
 117.0  34.771   3.953
 118.0  34.766   3.902
 119.0  34.768   3.858
 120.0  34.767   3.831
 121.0  34.770   3.818
 122.0  34.768   3.795
 123.0  34.765   3.735
 124.0  34.769   3.708
 125.0  34.773   3.719
 126.0  34.782   3.747
 127.0  34.782   3.750
 128.0  34.779   3.702
 129.0  34.777   3.672
 130.0  34.765   3.571
 131.0  34.765   3.498
 132.0  34.766   3.469
 133.0  34.767   3.471
 134.0  34.770   3.437
 135.0  34.766   3.421
 136.0  34.760   3.338
 137.0  34.748   3.262
 138.0  34.742   3.107
 139.0  34.740   3.096
 140.0  34.735   3.063
 141.0  34.733   3.022
 142.0  34.731   3.001
 143.0  34.732   2.996
 144.0  34.731   2.989
 145.0  34.750   3.036
 146.0  34.768   3.216
 147.0  34.797   3.340
 148.0  34.806   3.456
 149.0  34.807   3.454
 150.0  34.808   3.448
 151.0  34.809   3.442
 152.0  34.807   3.413
 153.0  34.808   3.374
 154.0  34.801   3.314
 155.0  34.816   3.307
 156.0  34.815   3.313
 157.0  34.813   3.289
 158.0  34.811   3.247
 159.0  34.813   3.240
 160.0  34.810   3.197
 161.0  34.805   3.155
 162.0  34.801   3.084
 163.0  34.795   3.040
 164.0  34.791   2.947
 165.0  34.785   2.903
 166.0  34.781   2.851
 167.0  34.777   2.808
 168.0  34.768   2.721
 169.0  34.765   2.629
 170.0  34.765   2.610
 171.0  34.766   2.606
 172.0  34.766   2.589
 173.0  34.763   2.558
 174.0  34.761   2.524
 175.0  34.763   2.512
 176.0  34.769   2.528
 177.0  34.781   2.590
 178.0  34.787   2.642
 179.0  34.790   2.659
 180.0  34.790   2.657
 181.0  34.792   2.655
 182.0  34.793   2.658
 183.0  34.796   2.669
 184.0  34.798   2.672
 185.0  34.800   2.676
 186.0  34.803   2.683
 187.0  34.806   2.687
 188.0  34.809   2.691
 189.0  34.810   2.687
 190.0  34.813   2.690
 191.0  34.816   2.696
 192.0  34.818   2.703
 193.0  34.822   2.711
 194.0  34.823   2.713
 195.0  34.825   2.715
 196.0  34.830   2.716
 197.0  34.831   2.715
 198.0  34.832   2.704
 199.0  34.831   2.679
 200.0  34.831   2.657
