   1.0  31.860   4.495
   2.0  32.340   4.094
   3.0  32.836   3.800
   4.0  33.417   3.542
   5.0  33.675   3.525
   6.0  33.735   3.579
   7.0  33.774   3.574
   8.0  33.902   3.847
   9.0  34.151   4.171
  10.0  34.308   4.356
  11.0  34.541   4.390
  12.0  34.583   4.372
  13.0  34.607   4.297
  14.0  34.624   4.198
  15.0  34.656   4.090
  16.0  34.684   4.008
  17.0  34.704   3.954
  18.0  34.711   3.812
  19.0  34.733   3.759
  20.0  34.741   3.680
  21.0  34.739   3.594
  22.0  34.721   3.481
  23.0  34.785   3.657
  24.0  34.818   3.681
  25.0  34.819   3.643
  26.0  34.826   3.522
  27.0  34.818   3.370
  28.0  34.828   3.341
  29.0  34.863   3.410
  30.0  34.830   3.014
  31.0  34.819   2.899
  32.0  34.805   2.752
  33.0  34.803   2.653
  34.0  34.805   2.605
  35.0  34.806   2.558
  36.0  34.805   2.503
  37.0  34.805   2.443
  38.0  34.805   2.363
  39.0  34.810   2.291
  40.0  34.812   2.137
  41.0  34.812   2.040
  42.0  34.811   1.977
  43.0  34.815   1.976
  44.0  34.817   1.973
  45.0  34.819   1.940
  46.0  34.821   1.932
  47.0  34.825   1.924
  48.0  34.829   1.918
  49.0  34.828   1.916
  50.0  34.839   1.954
  51.0  34.853   2.006
  52.0  34.856   2.007
  53.0  34.862   2.017
  54.0  34.870   2.036
  55.0  34.872   2.038
  56.0  34.875   2.045
  57.0  34.878   2.055
  58.0  34.880   2.058
  59.0  34.880   2.059
  60.0  34.881   2.063
  61.0  34.881   2.065
  62.0  34.882   2.067
  63.0  34.883   2.073
  64.0  34.884   2.076
  65.0  34.886   2.079
  66.0  34.887   2.082
  67.0  34.888   2.087
  68.0  34.888   2.091
  69.0  34.887   2.087
  70.0  34.888   2.091
  71.0  34.890   2.102
  72.0  34.891   2.104
  73.0  34.890   2.101
  74.0  34.891   2.106
  75.0  34.893   2.114
  76.0  34.901   2.125
  77.0  34.905   2.131
  78.0  34.903   2.123
  79.0  34.906   2.141
  80.0  34.919   2.190
