   1.0  32.148   4.187
   2.0  32.457   4.024
   3.0  32.994   3.848
   4.0  33.294   3.794
   5.0  33.563   4.031
   6.0  33.874   4.305
   7.0  34.075   4.598
   8.0  34.291   4.781
   9.0  34.455   4.684
  10.0  34.596   4.529
  11.0  34.626   4.425
  12.0  34.640   4.317
  13.0  34.647   4.188
  14.0  34.667   4.115
  15.0  34.708   3.994
  16.0  34.717   3.749
  17.0  34.734   3.628
  18.0  34.756   3.579
  19.0  34.769   3.536
  20.0  34.772   3.517
  21.0  34.775   3.499
  22.0  34.780   3.474
  23.0  34.792   3.470
  24.0  34.809   3.477
  25.0  34.817   3.406
  26.0  34.842   3.481
  27.0  34.846   3.432
  28.0  34.840   3.329
  29.0  34.839   3.271
  30.0  34.857   3.321
  31.0  34.878   3.416
  32.0  34.914   3.539
  33.0  34.903   3.328
  34.0  34.890   3.096
  35.0  34.900   3.069
  36.0  34.885   2.808
  37.0  34.843   2.484
  38.0  34.827   2.345
  39.0  34.816   2.251
  40.0  34.822   2.288
  41.0  34.824   2.289
  42.0  34.818   2.227
  43.0  34.807   2.090
  44.0  34.808   2.101
  45.0  34.830   2.240
  46.0  34.833   2.208
  47.0  34.833   2.185
  48.0  34.847   2.272
  49.0  34.878   2.470
  50.0  34.894   2.559
  51.0  34.891   2.527
  52.0  34.888   2.476
  53.0  34.881   2.403
  54.0  34.879   2.385
  55.0  34.885   2.403
  56.0  34.891   2.440
  57.0  34.899   2.486
  58.0  34.894   2.402
  59.0  34.902   2.477
  60.0  34.920   2.606
  61.0  34.935   2.681
  62.0  34.936   2.691
  63.0  34.942   2.732
  64.0  34.949   2.768
  65.0  34.951   2.733
  66.0  34.934   2.608
  67.0  34.938   2.627
  68.0  34.957   2.744
  69.0  35.000   3.091
  70.0  35.019   3.143
  71.0  35.018   3.129
  72.0  35.008   3.003
  73.0  34.992   2.904
  74.0  34.978   2.775
  75.0  34.970   2.750
  76.0  34.992   2.896
  77.0  35.006   2.990
  78.0  35.011   3.023
  79.0  35.023   3.112
  80.0  35.027   3.132
  81.0  35.027   3.138
  82.0  35.030   3.171
  83.0  35.053   3.322
  84.0  35.076   3.474
  85.0  35.084   3.516
  86.0  35.083   3.505
  87.0  35.080   3.476
  88.0  35.080   3.472
  89.0  35.080   3.466
  90.0  35.073   3.406
  91.0  35.067   3.365
  92.0  35.067   3.367
  93.0  35.073   3.397
  94.0  35.070   3.388
  95.0  35.078   3.446
  96.0  35.090   3.522
  97.0  35.094   3.543
  98.0  35.099   3.583
  99.0  35.102   3.591
 100.0  35.099   3.570
 101.0  35.103   3.598
 102.0  35.114   3.671
 103.0  35.130   3.761
 104.0  35.131   3.757
 105.0  35.126   3.722
 106.0  35.123   3.703
 107.0  35.130   3.754
 108.0  35.147   3.848
 109.0  35.152   3.878
 110.0  35.156   3.902
 111.0  35.158   3.897
 112.0  35.152   3.841
 113.0  35.140   3.741
 114.0  35.121   3.600
 115.0  35.102   3.447
 116.0  35.092   3.386
 117.0  35.092   3.389
 118.0  35.101   3.447
 119.0  35.113   3.529
 120.0  35.121   3.566
 121.0  35.118   3.496
 122.0  35.107   3.426
 123.0  35.104   3.388
 124.0  35.096   3.280
 125.0  35.075   3.144
 126.0  35.067   3.094
 127.0  35.063   3.047
 128.0  35.056   2.995
 129.0  35.051   2.956
 130.0  35.055   2.985
 131.0  35.063   3.022
 132.0  35.055   2.958
 133.0  35.052   2.938
 134.0  35.053   2.948
 135.0  35.057   2.974
 136.0  35.065   3.028
 137.0  35.071   3.067
 138.0  35.075   3.095
 139.0  35.077   3.109
 140.0  35.077   3.115
 141.0  35.078   3.110
 142.0  35.077   3.102
 143.0  35.076   3.093
 144.0  35.074   3.077
 145.0  35.072   3.061
 146.0  35.072   3.057
 147.0  35.072   3.060
 148.0  35.072   3.059
 149.0  35.071   3.043
 150.0  35.070   3.031
 151.0  35.071   3.049
 152.0  35.075   3.063
 153.0  35.074   3.064
 154.0  35.074   3.064
 155.0  35.074   3.060
 156.0  35.074   3.055
 157.0  35.073   3.043
 158.0  35.071   3.023
 159.0  35.070   3.017
 160.0  35.070   3.015
 161.0  35.070   3.012
 162.0  35.070   3.003
 163.0  35.070   3.000
 164.0  35.070   3.005
 165.0  35.072   3.011
 166.0  35.072   3.010
 167.0  35.072   3.002
 168.0  35.070   2.982
 169.0  35.069   2.971
 170.0  35.069   2.961
 171.0  35.067   2.936
 172.0  35.066   2.913
 173.0  35.065   2.897
 174.0  35.065   2.890
 175.0  35.064   2.880
 176.0  35.064   2.872
 177.0  35.063   2.853
 178.0  35.061   2.837
 179.0  35.061   2.825
 180.0  35.060   2.809
 181.0  35.057   2.779
 182.0  35.051   2.734
 183.0  35.049   2.698
 184.0  35.048   2.698
