   1.0  32.297   3.640
   2.0  32.188   3.606
   3.0  32.470   3.515
   4.0  32.773   3.419
   5.0  32.926   3.376
   6.0  33.009   3.328
   7.0  33.134   3.341
   8.0  33.270   3.418
   9.0  33.528   3.443
  10.0  33.532   3.401
  11.0  33.618   3.370
  12.0  33.794   3.417
  13.0  33.893   3.510
  14.0  34.006   3.606
  15.0  34.134   3.714
  16.0  34.221   3.779
  17.0  34.271   3.814
  18.0  34.305   3.797
  19.0  34.340   3.774
  20.0  34.427   3.756
  21.0  34.489   3.724
  22.0  34.506   3.689
  23.0  34.524   3.655
  24.0  34.525   3.665
  25.0  34.531   3.650
  26.0  34.540   3.632
  27.0  34.577   3.650
  28.0  34.641   3.775
  29.0  34.677   3.879
  30.0  34.693   3.837
  31.0  34.710   3.730
  32.0  34.716   3.695
  33.0  34.719   3.663
  34.0  34.722   3.648
  35.0  34.727   3.618
  36.0  34.726   3.603
  37.0  34.726   3.511
  38.0  34.726   3.481
  39.0  34.725   3.366
  40.0  34.729   3.269
  41.0  34.736   3.194
  42.0  34.737   3.155
  43.0  34.744   3.076
  44.0  34.749   3.069
  45.0  34.754   3.071
  46.0  34.754   3.050
  47.0  34.754   3.028
  48.0  34.755   2.994
  49.0  34.756   2.952
  50.0  34.749   2.864
  51.0  34.739   2.673
  52.0  34.741   2.520
  53.0  34.744   2.488
  54.0  34.756   2.285
  55.0  34.796   1.963
  56.0  34.809   1.900
  57.0  34.817   1.861
