   5.0  33.708   4.690
   6.0  33.710   4.690
   7.0  33.712   4.694
   8.0  33.713   4.695
   9.0  33.712   4.696
  10.0  33.710   4.695
  11.0  33.710   4.697
  12.0  33.728   4.713
  13.0  33.723   4.715
  14.0  33.725   4.715
  15.0  33.729   4.721
  16.0  33.725   4.713
  17.0  33.728   4.718
  18.0  33.735   4.726
  19.0  33.749   4.749
  20.0  33.740   4.733
  21.0  33.780   4.782
  22.0  33.875   4.925
  23.0  33.884   4.936
  24.0  33.853   4.885
  25.0  33.917   4.963
  26.0  33.944   4.985
  27.0  33.954   4.986
  28.0  33.963   4.996
  29.0  33.974   5.019
  30.0  33.976   5.026
  31.0  33.977   5.028
  32.0  34.009   5.077
  33.0  34.120   5.245
  34.0  34.292   5.527
  35.0  34.319   5.584
  36.0  34.353   5.633
  37.0  34.384   5.703
  38.0  34.404   5.735
  39.0  34.424   5.747
  40.0  34.442   5.771
  41.0  34.461   5.751
  42.0  34.496   5.716
  43.0  34.553   5.798
  44.0  34.577   5.819
  45.0  34.595   5.859
  46.0  34.593   5.814
  47.0  34.600   5.790
  48.0  34.617   5.822
  49.0  34.617   5.784
  50.0  34.608   5.576
  51.0  34.612   5.473
  52.0  34.626   5.396
  53.0  34.647   5.368
  54.0  34.661   5.377
  55.0  34.665   5.363
  56.0  34.681   5.392
  57.0  34.691   5.409
  58.0  34.711   5.424
  59.0  34.718   5.417
  60.0  34.737   5.473
  61.0  34.728   5.403
  62.0  34.742   5.445
  63.0  34.757   5.507
  64.0  34.747   5.406
  65.0  34.731   5.203
  66.0  34.731   5.150
  67.0  34.747   5.190
  68.0  34.760   5.207
  69.0  34.771   5.223
  70.0  34.774   5.214
  71.0  34.783   5.169
  72.0  34.790   5.120
  73.0  34.799   5.123
  74.0  34.792   5.059
  75.0  34.792   4.987
  76.0  34.791   4.923
  77.0  34.790   4.906
  78.0  34.792   4.896
  79.0  34.798   4.900
  80.0  34.803   4.884
  81.0  34.799   4.801
  82.0  34.802   4.773
  83.0  34.805   4.755
  84.0  34.807   4.749
  85.0  34.808   4.731
  86.0  34.809   4.730
  87.0  34.818   4.734
  88.0  34.825   4.773
  89.0  34.822   4.743
  90.0  34.819   4.615
  91.0  34.827   4.619
  92.0  34.826   4.604
  93.0  34.827   4.577
  94.0  34.827   4.540
  95.0  34.826   4.511
  96.0  34.827   4.500
  97.0  34.832   4.459
  98.0  34.835   4.443
  99.0  34.835   4.431
 100.0  34.837   4.417
 101.0  34.838   4.409
 102.0  34.838   4.383
 103.0  34.836   4.352
 104.0  34.836   4.329
 105.0  34.835   4.308
 106.0  34.836   4.289
 107.0  34.838   4.258
 108.0  34.840   4.234
 109.0  34.840   4.186
 110.0  34.835   4.111
 111.0  34.839   4.077
 112.0  34.840   4.065
 113.0  34.842   4.041
 114.0  34.844   4.002
 115.0  34.845   3.964
 116.0  34.845   3.931
 117.0  34.846   3.913
 118.0  34.849   3.902
 119.0  34.850   3.886
 120.0  34.852   3.879
 121.0  34.853   3.872
 122.0  34.856   3.867
 123.0  34.856   3.866
 124.0  34.857   3.855
 125.0  34.859   3.832
 126.0  34.859   3.793
 127.0  34.859   3.757
 128.0  34.859   3.737
 129.0  34.858   3.720
 130.0  34.864   3.708
 131.0  34.866   3.694
 132.0  34.868   3.688
 133.0  34.870   3.672
 134.0  34.871   3.667
 135.0  34.870   3.654
 136.0  34.870   3.632
 137.0  34.871   3.621
 138.0  34.869   3.609
 139.0  34.870   3.599
 140.0  34.870   3.586
 141.0  34.872   3.571
 142.0  34.873   3.559
 143.0  34.874   3.557
 144.0  34.875   3.552
 145.0  34.876   3.542
 146.0  34.877   3.537
 147.0  34.877   3.530
 148.0  34.878   3.518
 149.0  34.879   3.505
 150.0  34.879   3.502
 151.0  34.879   3.498
 152.0  34.880   3.494
 153.0  34.880   3.481
 154.0  34.882   3.473
 155.0  34.882   3.457
 156.0  34.882   3.450
 157.0  34.882   3.447
 158.0  34.882   3.445
 159.0  34.886   3.450
 160.0  34.887   3.449
 161.0  34.883   3.409
 162.0  34.883   3.368
 163.0  34.884   3.350
 164.0  34.884   3.329
 165.0  34.885   3.317
 166.0  34.885   3.310
 167.0  34.885   3.296
 168.0  34.885   3.271
 169.0  34.887   3.244
 170.0  34.887   3.233
 171.0  34.888   3.223
 172.0  34.891   3.219
 173.0  34.893   3.219
 174.0  34.893   3.213
 175.0  34.891   3.195
 176.0  34.891   3.177
 177.0  34.892   3.164
 178.0  34.893   3.159
 179.0  34.893   3.158
 180.0  34.894   3.158
 181.0  34.897   3.167
 182.0  34.901   3.188
 183.0  34.904   3.210
 184.0  34.900   3.189
 185.0  34.896   3.139
 186.0  34.896   3.121
 187.0  34.897   3.120
 188.0  34.897   3.119
 189.0  34.897   3.120
 190.0  34.897   3.118
 191.0  34.898   3.112
 192.0  34.900   3.109
 193.0  34.902   3.108
 194.0  34.905   3.121
 195.0  34.907   3.133
 196.0  34.912   3.152
 197.0  34.912   3.165
 198.0  34.913   3.148
 199.0  34.913   3.138
 200.0  34.914   3.132
 201.0  34.914   3.136
 202.0  34.913   3.129
 203.0  34.913   3.126
 204.0  34.914   3.124
 205.0  34.914   3.123
 206.0  34.913   3.119
 207.0  34.915   3.122
 208.0  34.915   3.125
 209.0  34.915   3.120
 210.0  34.915   3.118
 211.0  34.915   3.113
 212.0  34.913   3.098
 213.0  34.914   3.090
 214.0  34.913   3.074
 215.0  34.914   3.036
 216.0  34.915   3.028
 217.0  34.916   3.020
 218.0  34.917   3.011
 219.0  34.916   2.998
 220.0  34.918   2.993
 221.0  34.918   2.994
 222.0  34.919   2.992
 223.0  34.921   2.972
 224.0  34.922   2.959
 225.0  34.922   2.943
 226.0  34.923   2.932
 227.0  34.924   2.923
 228.0  34.925   2.910
 229.0  34.925   2.900
 230.0  34.925   2.893
 231.0  34.923   2.869
 232.0  34.925   2.816
 233.0  34.925   2.792
 234.0  34.927   2.757
 235.0  34.928   2.754
 236.0  34.928   2.758
 237.0  34.928   2.754
 238.0  34.931   2.707
 239.0  34.934   2.676
 240.0  34.935   2.658
 241.0  34.934   2.604
 242.0  34.940   2.514
 243.0  34.944   2.466
 244.0  34.946   2.426
 245.0  34.948   2.403
 246.0  34.949   2.380
 247.0  34.949   2.368
 248.0  34.947   2.309
 249.0  34.960   2.172
 250.0  34.963   2.136
 251.0  34.965   2.122
 252.0  34.965   2.114
 253.0  34.967   2.109
 254.0  34.967   2.103
 255.0  34.968   2.098
 256.0  34.968   2.098
 257.0  34.969   2.096
 258.0  34.969   2.093
 259.0  34.969   2.092
 260.0  34.970   2.088
 261.0  34.971   2.076
 262.0  34.972   2.070
 263.0  34.971   2.070
 264.0  34.972   2.068
 265.0  34.972   2.067
 266.0  34.973   2.064
 267.0  34.972   2.062
 268.0  34.972   2.063
