   1.0  32.727   5.581
   2.0  33.141   5.376
   3.0  33.765   5.016
   4.0  33.939   4.887
   5.0  33.966   4.864
   6.0  34.035   4.814
   7.0  34.185   4.721
   8.0  34.416   4.682
   9.0  34.443   4.704
  10.0  34.452   4.690
  11.0  34.483   4.693
  12.0  34.514   4.685
  13.0  34.561   4.641
  14.0  34.653   4.608
  15.0  34.691   4.624
  16.0  34.703   4.625
  17.0  34.718   4.606
  18.0  34.745   4.559
  19.0  34.761   4.547
  20.0  34.824   4.620
  21.0  34.879   4.722
  22.0  34.876   4.713
  23.0  34.865   4.568
  24.0  34.871   4.428
  25.0  34.868   4.338
  26.0  34.860   4.262
  27.0  34.852   4.160
  28.0  34.846   4.053
  29.0  34.845   3.933
  30.0  34.843   3.831
  31.0  34.837   3.648
  32.0  34.834   3.592
  33.0  34.826   3.453
  34.0  34.821   3.254
  35.0  34.821   3.190
  36.0  34.821   3.166
  37.0  34.821   3.148
  38.0  34.829   3.137
  39.0  34.849   3.233
  40.0  34.867   3.299
  41.0  34.882   3.437
  42.0  34.905   3.495
  43.0  34.935   3.596
  44.0  34.954   3.657
  45.0  34.956   3.630
  46.0  34.957   3.596
  47.0  34.958   3.576
  48.0  34.956   3.554
  49.0  34.959   3.520
  50.0  34.959   3.514
  51.0  34.965   3.497
  52.0  34.972   3.486
  53.0  34.975   3.481
  54.0  34.976   3.474
  55.0  34.980   3.455
  56.0  34.981   3.437
  57.0  34.983   3.424
  58.0  34.981   3.414
  59.0  34.982   3.391
  60.0  34.977   3.354
  61.0  34.977   3.280
  62.0  34.972   3.201
  63.0  34.973   3.135
  64.0  34.972   3.131
  65.0  34.973   3.115
  66.0  34.974   3.105
  67.0  34.977   3.089
  68.0  34.980   3.081
  69.0  34.983   3.078
  70.0  34.984   3.079
  71.0  34.986   3.082
  72.0  34.989   3.090
  73.0  34.995   3.109
  74.0  34.998   3.121
  75.0  35.002   3.134
  76.0  35.006   3.148
  77.0  35.007   3.147
  78.0  35.008   3.147
  79.0  35.009   3.146
  80.0  35.009   3.143
  81.0  35.009   3.141
  82.0  35.008   3.126
  83.0  35.008   3.119
  84.0  35.008   3.108
  85.0  35.006   3.094
  86.0  35.005   3.080
  87.0  35.002   3.076
  88.0  35.001   3.038
  89.0  35.001   3.017
  90.0  35.001   3.002
  91.0  35.001   2.997
  92.0  35.000   2.989
  93.0  35.000   2.985
  94.0  35.002   2.979
  95.0  35.003   2.976
  96.0  35.004   2.976
  97.0  35.005   2.978
  98.0  35.005   2.979
  99.0  35.005   2.979
 100.0  35.008   2.982
 101.0  35.011   2.992
 102.0  35.013   2.999
 103.0  35.014   3.004
 104.0  35.016   3.007
 105.0  35.017   3.011
 106.0  35.019   3.016
 107.0  35.020   3.021
 108.0  35.023   3.035
 109.0  35.025   3.038
 110.0  35.027   3.044
 111.0  35.028   3.048
 112.0  35.029   3.052
 113.0  35.032   3.065
 114.0  35.033   3.069
 115.0  35.034   3.074
 116.0  35.035   3.076
 117.0  35.036   3.080
 118.0  35.037   3.086
 119.0  35.039   3.093
 120.0  35.040   3.098
 121.0  35.041   3.101
 122.0  35.041   3.103
 123.0  35.043   3.105
 124.0  35.043   3.107
 125.0  35.044   3.109
 126.0  35.044   3.110
 127.0  35.045   3.111
 128.0  35.045   3.112
 129.0  35.047   3.112
 130.0  35.049   3.111
 131.0  35.050   3.110
 132.0  35.051   3.109
 133.0  35.051   3.108
 134.0  35.052   3.104
 135.0  35.056   3.090
 136.0  35.064   3.066
 137.0  35.066   3.059
 138.0  35.069   3.050
 139.0  35.069   3.051
 140.0  35.069   3.048
 141.0  35.071   3.041
 142.0  35.072   3.035
 143.0  35.075   3.030
 144.0  35.075   3.027
 145.0  35.075   3.025
 146.0  35.076   3.022
 147.0  35.077   3.020
 148.0  35.078   3.018
 149.0  35.079   3.015
 150.0  35.080   3.014
 151.0  35.082   3.012
 152.0  35.084   3.010
 153.0  35.086   3.009
 154.0  35.089   3.009
 155.0  35.090   3.009
 156.0  35.090   3.009
 157.0  35.091   3.009
 158.0  35.092   3.009
 159.0  35.093   3.010
 160.0  35.094   3.013
 161.0  35.095   3.015
 162.0  35.096   3.017
 163.0  35.096   3.019
 164.0  35.097   3.021
 165.0  35.098   3.023
 166.0  35.099   3.026
 167.0  35.099   3.027
 168.0  35.099   3.028
 169.0  35.099   3.029
 170.0  35.099   3.031
 171.0  35.100   3.031
 172.0  35.099   3.032
 173.0  35.100   3.033
 174.0  35.100   3.034
 175.0  35.101   3.035
 176.0  35.101   3.035
 177.0  35.101   3.035
 178.0  35.103   3.032
 179.0  35.104   3.030
 180.0  35.105   3.027
 181.0  35.105   3.026
 182.0  35.105   3.024
 183.0  35.106   3.019
 184.0  35.105   3.010
 185.0  35.106   3.000
 186.0  35.106   2.995
 187.0  35.105   2.986
 188.0  35.105   2.982
 189.0  35.104   2.977
 190.0  35.103   2.973
 191.0  35.105   2.967
 192.0  35.105   2.966
 193.0  35.105   2.964
 194.0  35.105   2.962
 195.0  35.106   2.961
 196.0  35.106   2.960
 197.0  35.107   2.957
 198.0  35.107   2.948
 199.0  35.107   2.945
 200.0  35.106   2.932
 201.0  35.109   2.903
 202.0  35.107   2.877
 203.0  35.106   2.877
 204.0  35.105   2.872
 205.0  35.106   2.861
 206.0  35.108   2.849
 207.0  35.104   2.838
 208.0  35.106   2.815
 209.0  35.103   2.807
 210.0  35.102   2.793
 211.0  35.102   2.783
 212.0  35.103   2.779
 213.0  35.102   2.772
 214.0  35.103   2.761
 215.0  35.103   2.761
 216.0  35.102   2.753
 217.0  35.101   2.737
 218.0  35.101   2.733
 219.0  35.100   2.731
 220.0  35.101   2.724
 221.0  35.101   2.724
 222.0  35.102   2.721
 223.0  35.101   2.723
 224.0  35.102   2.725
 225.0  35.102   2.725
 226.0  35.103   2.726
 227.0  35.103   2.726
 228.0  35.104   2.724
 229.0  35.104   2.715
 230.0  35.104   2.712
 231.0  35.104   2.694
 232.0  35.105   2.677
 233.0  35.104   2.679
 234.0  35.107   2.668
 235.0  35.106   2.653
 236.0  35.105   2.616
 237.0  35.106   2.595
 238.0  35.108   2.582
 239.0  35.106   2.555
 240.0  35.107   2.537
 241.0  35.108   2.519
 242.0  35.108   2.514
 243.0  35.108   2.512
 244.0  35.109   2.507
 245.0  35.110   2.499
