   5.0  33.169   3.947
   6.0  33.173   3.955
   7.0  33.178   3.966
   8.0  33.191   3.989
   9.0  33.191   3.987
  10.0  33.200   4.001
  11.0  33.237   4.052
  12.0  33.332   4.178
  13.0  33.412   4.266
  14.0  33.463   4.329
  15.0  33.500   4.370
  16.0  33.565   4.435
  17.0  33.611   4.492
  18.0  33.656   4.556
  19.0  33.674   4.569
  20.0  33.686   4.579
  21.0  33.693   4.592
  22.0  33.696   4.606
  23.0  33.710   4.639
  24.0  33.749   4.711
  25.0  33.779   4.761
  26.0  33.835   4.821
  27.0  33.862   4.856
  28.0  33.899   4.896
  29.0  33.974   4.979
  30.0  34.033   5.039
  31.0  34.051   5.059
  32.0  34.054   5.061
  33.0  34.053   5.060
  34.0  34.052   5.061
  35.0  34.053   5.060
  36.0  34.078   5.120
  37.0  34.157   5.369
  38.0  34.195   5.410
  39.0  34.250   5.452
  40.0  34.278   5.485
  41.0  34.282   5.490
  42.0  34.292   5.497
  43.0  34.310   5.495
  44.0  34.354   5.598
  45.0  34.389   5.671
  46.0  34.395   5.577
  47.0  34.406   5.521
  48.0  34.426   5.512
  49.0  34.452   5.504
  50.0  34.460   5.507
  51.0  34.464   5.511
  52.0  34.475   5.515
  53.0  34.487   5.519
  54.0  34.498   5.525
  55.0  34.511   5.537
  56.0  34.529   5.560
  57.0  34.575   5.584
  58.0  34.618   5.668
  59.0  34.648   5.743
  60.0  34.620   5.549
  61.0  34.623   5.493
  62.0  34.629   5.500
  63.0  34.645   5.514
  64.0  34.661   5.516
  65.0  34.672   5.503
  66.0  34.693   5.503
  67.0  34.711   5.478
  68.0  34.750   5.577
  69.0  34.790   5.720
  70.0  34.777   5.618
  71.0  34.783   5.514
  72.0  34.788   5.457
  73.0  34.817   5.511
  74.0  34.821   5.534
  75.0  34.828   5.564
  76.0  34.836   5.599
  77.0  34.850   5.656
  78.0  34.856   5.674
  79.0  34.855   5.648
  80.0  34.870   5.677
  81.0  34.867   5.690
  82.0  34.853   5.581
  83.0  34.833   5.441
  84.0  34.848   5.408
  85.0  34.900   5.642
  86.0  34.959   6.020
  87.0  34.924   5.736
  88.0  34.888   5.490
  89.0  34.855   5.253
  90.0  34.846   5.063
  91.0  34.848   5.062
  92.0  34.853   5.057
  93.0  34.857   5.076
  94.0  34.862   5.089
  95.0  34.872   5.120
  96.0  34.866   5.083
  97.0  34.845   4.907
  98.0  34.851   4.891
  99.0  34.864   4.941
 100.0  34.876   4.973
 101.0  34.878   4.958
 102.0  34.877   4.919
 103.0  34.881   4.896
 104.0  34.882   4.879
 105.0  34.884   4.856
 106.0  34.884   4.825
 107.0  34.884   4.801
 108.0  34.875   4.694
 109.0  34.867   4.609
 110.0  34.854   4.498
 111.0  34.819   4.248
 112.0  34.816   4.144
 113.0  34.811   4.108
 114.0  34.801   4.049
 115.0  34.784   3.862
 116.0  34.782   3.791
 117.0  34.777   3.743
 118.0  34.779   3.721
 119.0  34.782   3.723
 120.0  34.791   3.759
 121.0  34.795   3.754
 122.0  34.790   3.727
 123.0  34.791   3.671
 124.0  34.789   3.653
 125.0  34.788   3.630
 126.0  34.786   3.591
 127.0  34.785   3.546
 128.0  34.781   3.499
 129.0  34.782   3.457
 130.0  34.785   3.457
 131.0  34.783   3.445
 132.0  34.781   3.413
 133.0  34.783   3.402
 134.0  34.784   3.397
 135.0  34.782   3.380
 136.0  34.777   3.314
 137.0  34.777   3.277
 138.0  34.775   3.249
 139.0  34.773   3.216
 140.0  34.777   3.205
 141.0  34.778   3.204
 142.0  34.771   3.166
 143.0  34.768   3.079
 144.0  34.765   3.041
 145.0  34.761   2.994
 146.0  34.754   2.921
 147.0  34.752   2.866
 148.0  34.752   2.843
 149.0  34.756   2.848
 150.0  34.757   2.849
 151.0  34.755   2.831
 152.0  34.756   2.804
 153.0  34.760   2.804
 154.0  34.762   2.812
 155.0  34.761   2.801
 156.0  34.757   2.774
 157.0  34.754   2.723
 158.0  34.748   2.663
 159.0  34.748   2.630
 160.0  34.742   2.593
 161.0  34.739   2.518
 162.0  34.736   2.474
 163.0  34.737   2.450
 164.0  34.734   2.432
 165.0  34.734   2.420
 166.0  34.734   2.419
 167.0  34.735   2.417
 168.0  34.735   2.412
 169.0  34.735   2.410
 170.0  34.736   2.411
 171.0  34.743   2.440
 172.0  34.743   2.443
 173.0  34.743   2.443
 174.0  34.743   2.441
 175.0  34.743   2.432
 176.0  34.743   2.432
 177.0  34.758   2.472
 178.0  34.772   2.585
 179.0  34.779   2.641
 180.0  34.776   2.633
 181.0  34.781   2.617
 182.0  34.783   2.611
 183.0  34.793   2.639
 184.0  34.794   2.659
 185.0  34.793   2.654
 186.0  34.791   2.628
 187.0  34.791   2.611
 188.0  34.789   2.597
 189.0  34.789   2.587
 190.0  34.788   2.571
 191.0  34.787   2.555
 192.0  34.784   2.526
 193.0  34.782   2.499
 194.0  34.781   2.478
 195.0  34.783   2.481
 196.0  34.783   2.483
 197.0  34.783   2.481
 198.0  34.782   2.469
 199.0  34.785   2.467
 200.0  34.781   2.440
 201.0  34.779   2.384
 202.0  34.779   2.373
 203.0  34.779   2.370
 204.0  34.778   2.357
 205.0  34.779   2.348
 206.0  34.781   2.352
 207.0  34.788   2.401
 208.0  34.789   2.417
 209.0  34.786   2.406
 210.0  34.783   2.356
 211.0  34.783   2.343
 212.0  34.784   2.344
 213.0  34.785   2.346
 214.0  34.788   2.359
 215.0  34.791   2.378
 216.0  34.799   2.415
 217.0  34.805   2.445
 218.0  34.821   2.534
 219.0  34.830   2.598
 220.0  34.834   2.627
 221.0  34.835   2.630
 222.0  34.834   2.623
 223.0  34.837   2.608
 224.0  34.836   2.606
 225.0  34.836   2.607
 226.0  34.834   2.594
 227.0  34.839   2.599
 228.0  34.839   2.596
 229.0  34.840   2.590
 230.0  34.841   2.591
 231.0  34.841   2.589
 232.0  34.844   2.585
 233.0  34.845   2.595
 234.0  34.845   2.581
 235.0  34.846   2.576
 236.0  34.848   2.560
 237.0  34.851   2.569
 238.0  34.853   2.581
 239.0  34.855   2.587
 240.0  34.855   2.588
 241.0  34.856   2.591
 242.0  34.856   2.591
 243.0  34.857   2.578
 244.0  34.857   2.566
 245.0  34.857   2.525
 246.0  34.861   2.535
