   1.0  33.916   5.132
   2.0  34.048   4.955
   3.0  34.158   4.735
   4.0  34.274   4.494
   5.0  34.399   4.340
   6.0  34.482   4.417
   7.0  34.580   4.525
   8.0  34.616   4.561
   9.0  34.662   4.614
  10.0  34.691   4.599
  11.0  34.709   4.557
  12.0  34.721   4.468
  13.0  34.745   4.404
  14.0  34.798   4.384
  15.0  34.832   4.343
  16.0  34.849   4.229
  17.0  34.891   4.381
  18.0  34.942   4.639
  19.0  34.988   4.850
  20.0  35.005   4.940
  21.0  35.015   4.987
  22.0  35.022   5.012
  23.0  35.032   5.040
  24.0  35.050   5.070
  25.0  35.057   5.021
  26.0  35.054   4.974
  27.0  35.069   5.025
  28.0  35.084   5.073
  29.0  35.093   5.094
  30.0  35.099   5.081
  31.0  35.101   5.013
  32.0  35.098   4.916
  33.0  35.088   4.708
  34.0  35.074   4.508
  35.0  35.051   4.163
  36.0  34.998   3.568
  37.0  34.916   2.990
  38.0  34.883   2.811
  39.0  34.884   2.807
  40.0  34.886   2.798
  41.0  34.884   2.759
  42.0  34.874   2.634
  43.0  34.852   2.413
  44.0  34.833   2.229
  45.0  34.818   2.082
  46.0  34.817   2.046
  47.0  34.817   2.030
  48.0  34.817   2.013
  49.0  34.816   1.990
  50.0  34.818   1.968
  51.0  34.817   1.936
  52.0  34.817   1.911
  53.0  34.818   1.889
  54.0  34.818   1.891
  55.0  34.819   1.893
  56.0  34.821   1.895
  57.0  34.823   1.899
  58.0  34.825   1.905
  59.0  34.826   1.908
  60.0  34.828   1.915
  61.0  34.830   1.917
  62.0  34.831   1.917
  63.0  34.832   1.917
  64.0  34.834   1.921
  65.0  34.838   1.931
  66.0  34.840   1.940
  67.0  34.843   1.946
  68.0  34.846   1.952
  69.0  34.848   1.949
  70.0  34.851   1.951
  71.0  34.854   1.960
  72.0  34.858   1.970
  73.0  34.860   1.979
  74.0  34.865   1.991
  75.0  34.867   1.999
  76.0  34.873   2.023
  77.0  34.878   2.038
  78.0  34.881   2.051
  79.0  34.884   2.062
  80.0  34.886   2.067
  81.0  34.891   2.091
  82.0  34.900   2.127
  83.0  34.903   2.139
  84.0  34.906   2.147
  85.0  34.908   2.153
  86.0  34.909   2.156
  87.0  34.911   2.158
  88.0  34.913   2.164
  89.0  34.918   2.189
  90.0  34.923   2.215
  91.0  34.925   2.225
  92.0  34.926   2.223
  93.0  34.927   2.229
  94.0  34.931   2.250
  95.0  34.929   2.229
  96.0  34.928   2.220
  97.0  34.930   2.246
  98.0  34.941   2.316
  99.0  34.945   2.318
 100.0  34.947   2.314
 101.0  34.946   2.287
 102.0  34.942   2.253
 103.0  34.942   2.243
 104.0  34.947   2.283
 105.0  34.952   2.315
 106.0  34.957   2.357
 107.0  34.974   2.476
 108.0  34.974   2.452
 109.0  34.971   2.434
 110.0  34.972   2.437
 111.0  34.978   2.491
 112.0  34.992   2.571
 113.0  34.991   2.542
 114.0  34.985   2.491
 115.0  34.975   2.418
 116.0  34.975   2.416
 117.0  34.976   2.425
 118.0  34.980   2.439
 119.0  34.983   2.458
 120.0  34.988   2.488
 121.0  34.989   2.489
 122.0  34.989   2.481
 123.0  34.987   2.467
 124.0  34.984   2.428
 125.0  34.980   2.414
 126.0  34.991   2.490
 127.0  35.000   2.550
 128.0  35.011   2.623
 129.0  35.015   2.635
 130.0  35.013   2.610
 131.0  35.007   2.540
 132.0  34.990   2.428
 133.0  34.986   2.401
 134.0  34.986   2.402
 135.0  34.988   2.399
 136.0  34.988   2.390
 137.0  34.988   2.387
 138.0  34.990   2.396
 139.0  34.994   2.418
 140.0  34.992   2.403
 141.0  34.992   2.403
 142.0  34.994   2.414
 143.0  34.993   2.408
 144.0  34.992   2.389
 145.0  34.991   2.384
 146.0  34.992   2.386
 147.0  34.995   2.394
 148.0  34.995   2.392
 149.0  34.996   2.392
 150.0  34.997   2.393
 151.0  34.996   2.393
 152.0  34.997   2.396
 153.0  35.001   2.410
 154.0  35.003   2.419
 155.0  35.004   2.427
 156.0  35.007   2.442
 157.0  35.014   2.491
 158.0  35.026   2.553
 159.0  35.026   2.543
 160.0  35.022   2.508
 161.0  35.020   2.472
 162.0  35.019   2.460
 163.0  35.020   2.459
 164.0  35.020   2.457
 165.0  35.021   2.449
 166.0  35.021   2.446
 167.0  35.022   2.441
 168.0  35.024   2.435
 169.0  35.024   2.430
 170.0  35.024   2.423
 171.0  35.024   2.416
 172.0  35.024   2.415
 173.0  35.025   2.415
 174.0  35.025   2.416
 175.0  35.026   2.416
 176.0  35.026   2.415
 177.0  35.026   2.414
 178.0  35.027   2.413
 179.0  35.027   2.412
 180.0  35.027   2.410
 181.0  35.027   2.409
 182.0  35.027   2.408
 183.0  35.028   2.407
 184.0  35.029   2.405
 185.0  35.029   2.402
 186.0  35.029   2.396
 187.0  35.029   2.394
 188.0  35.029   2.393
 189.0  35.029   2.390
 190.0  35.030   2.387
 191.0  35.031   2.387
 192.0  35.033   2.393
 193.0  35.037   2.406
 194.0  35.036   2.390
 195.0  35.036   2.392
 196.0  35.039   2.399
 197.0  35.040   2.395
 198.0  35.040   2.386
 199.0  35.041   2.383
 200.0  35.042   2.383
 201.0  35.043   2.384
 202.0  35.043   2.384
 203.0  35.043   2.384
 204.0  35.044   2.384
 205.0  35.045   2.383
 206.0  35.046   2.383
 207.0  35.046   2.383
 208.0  35.047   2.383
 209.0  35.049   2.380
 210.0  35.050   2.377
 211.0  35.051   2.376
 212.0  35.052   2.375
 213.0  35.053   2.375
 214.0  35.054   2.374
 215.0  35.055   2.375
 216.0  35.057   2.379
 217.0  35.059   2.382
 218.0  35.061   2.387
 219.0  35.064   2.395
 220.0  35.065   2.398
 221.0  35.066   2.398
 222.0  35.067   2.399
 223.0  35.068   2.401
 224.0  35.070   2.401
 225.0  35.070   2.399
 226.0  35.070   2.392
 227.0  35.070   2.385
 228.0  35.071   2.385
 229.0  35.073   2.391
 230.0  35.076   2.396
 231.0  35.079   2.395
 232.0  35.082   2.375
 233.0  35.086   2.342
 234.0  35.094   2.297
 235.0  35.098   2.279
 236.0  35.103   2.247
 237.0  35.108   2.210
 238.0  35.111   2.196
 239.0  35.116   2.171
 240.0  35.120   2.149
 241.0  35.124   2.114
 242.0  35.126   2.086
 243.0  35.128   2.064
 244.0  35.129   2.055
 245.0  35.130   2.046
 246.0  35.132   2.034
 247.0  35.133   2.019
 248.0  35.133   2.013
 249.0  35.135   2.006
 250.0  35.136   1.992
 251.0  35.137   1.979
 252.0  35.139   1.964
 253.0  35.140   1.938
 254.0  35.142   1.915
 255.0  35.144   1.895
 256.0  35.144   1.883
 257.0  35.145   1.879
 258.0  35.145   1.876
 259.0  35.145   1.874
 260.0  35.145   1.871
 261.0  35.146   1.864
 262.0  35.146   1.859
 263.0  35.147   1.852
 264.0  35.148   1.845
 265.0  35.147   1.839
 266.0  35.148   1.833
 267.0  35.149   1.829
 268.0  35.149   1.826
 269.0  35.150   1.825
 270.0  35.149   1.822
 271.0  35.150   1.819
 272.0  35.150   1.813
 273.0  35.151   1.804
 274.0  35.152   1.798
 275.0  35.152   1.793
 276.0  35.152   1.786
 277.0  35.152   1.777
 278.0  35.153   1.771
 279.0  35.153   1.766
 280.0  35.153   1.761
 281.0  35.153   1.753
