   5.0  33.506   4.676
   6.0  33.470   4.444
   7.0  33.444   4.266
   8.0  33.424   4.114
   9.0  33.468   4.393
  10.0  33.452   4.312
  11.0  33.447   4.210
  12.0  33.464   4.221
  13.0  33.517   4.305
  14.0  33.776   4.646
  15.0  33.875   4.801
  16.0  33.973   4.896
  17.0  34.035   4.975
  18.0  34.088   5.058
  19.0  34.124   5.138
  20.0  34.133   5.124
  21.0  34.155   5.168
  22.0  34.170   5.186
  23.0  34.177   5.198
  24.0  34.205   5.232
  25.0  34.261   5.298
  26.0  34.265   5.297
  27.0  34.269   5.290
  28.0  34.298   5.293
  29.0  34.313   5.279
  30.0  34.298   5.157
  31.0  34.324   5.168
  32.0  34.359   5.238
  33.0  34.384   5.289
  34.0  34.394   5.279
  35.0  34.417   5.250
  36.0  34.401   5.042
  37.0  34.398   4.930
  38.0  34.414   4.829
  39.0  34.431   4.877
  40.0  34.479   4.994
  41.0  34.490   5.083
  42.0  34.500   4.928
  43.0  34.520   4.903
  44.0  34.527   4.933
  45.0  34.524   4.916
  46.0  34.539   4.912
  47.0  34.575   5.089
  48.0  34.616   5.255
  49.0  34.643   5.371
  50.0  34.646   5.383
  51.0  34.654   5.416
  52.0  34.671   5.484
  53.0  34.686   5.555
  54.0  34.713   5.652
  55.0  34.723   5.668
  56.0  34.731   5.665
  57.0  34.736   5.658
  58.0  34.727   5.618
  59.0  34.722   5.496
  60.0  34.725   5.471
  61.0  34.724   5.463
  62.0  34.709   5.318
  63.0  34.700   5.213
  64.0  34.688   5.074
  65.0  34.698   5.043
  66.0  34.700   5.020
  67.0  34.699   4.944
  68.0  34.696   4.868
  69.0  34.691   4.825
  70.0  34.689   4.772
  71.0  34.689   4.725
  72.0  34.697   4.725
  73.0  34.701   4.715
  74.0  34.702   4.698
  75.0  34.704   4.702
  76.0  34.707   4.715
  77.0  34.720   4.753
  78.0  34.736   4.845
  79.0  34.736   4.822
  80.0  34.740   4.821
  81.0  34.739   4.792
  82.0  34.741   4.778
  83.0  34.735   4.712
  84.0  34.724   4.603
  85.0  34.722   4.561
  86.0  34.723   4.559
  87.0  34.724   4.555
  88.0  34.725   4.554
  89.0  34.726   4.552
  90.0  34.730   4.519
  91.0  34.736   4.470
  92.0  34.735   4.462
  93.0  34.736   4.397
  94.0  34.739   4.314
  95.0  34.740   4.270
  96.0  34.740   4.236
  97.0  34.743   4.232
  98.0  34.745   4.221
  99.0  34.747   4.212
 100.0  34.745   4.179
 101.0  34.747   4.139
 102.0  34.748   4.124
 103.0  34.748   4.113
 104.0  34.750   4.106
 105.0  34.747   4.082
 106.0  34.745   4.042
 107.0  34.746   4.035
 108.0  34.749   4.024
 109.0  34.764   4.057
 110.0  34.763   4.043
 111.0  34.757   3.959
 112.0  34.754   3.885
 113.0  34.757   3.863
 114.0  34.762   3.839
 115.0  34.768   3.842
 116.0  34.773   3.845
 117.0  34.770   3.819
 118.0  34.771   3.774
 119.0  34.771   3.750
 120.0  34.765   3.700
 121.0  34.760   3.618
 122.0  34.754   3.545
 123.0  34.749   3.465
 124.0  34.746   3.416
 125.0  34.744   3.371
 126.0  34.742   3.336
 127.0  34.740   3.297
 128.0  34.739   3.268
 129.0  34.738   3.238
 130.0  34.739   3.228
 131.0  34.736   3.205
 132.0  34.735   3.141
 133.0  34.735   3.111
 134.0  34.733   3.093
 135.0  34.732   3.046
 136.0  34.730   2.997
 137.0  34.726   2.923
 138.0  34.724   2.858
 139.0  34.721   2.797
 140.0  34.721   2.760
 141.0  34.721   2.743
 142.0  34.721   2.716
 143.0  34.720   2.687
 144.0  34.721   2.650
 145.0  34.724   2.593
 146.0  34.725   2.570
 147.0  34.726   2.547
 148.0  34.728   2.542
 149.0  34.729   2.542
 150.0  34.730   2.535
 151.0  34.730   2.511
