   5.0  32.888   2.277
   6.0  32.989   2.689
   7.0  33.100   2.718
   8.0  33.402   3.353
   9.0  33.620   4.080
  10.0  33.724   4.015
  11.0  33.788   4.025
  12.0  33.834   3.257
  13.0  33.886   3.306
  14.0  33.974   3.391
  15.0  34.018   3.339
  16.0  34.070   3.510
  17.0  34.141   3.711
  18.0  34.165   3.755
  19.0  34.168   3.708
  20.0  34.171   3.600
  21.0  34.198   3.639
  22.0  34.225   3.748
  23.0  34.237   3.807
  24.0  34.241   3.829
  25.0  34.245   3.842
  26.0  34.247   3.853
  27.0  34.251   3.852
  28.0  34.263   3.909
  29.0  34.276   3.939
  30.0  34.295   4.030
  31.0  34.370   4.254
  32.0  34.418   4.465
  33.0  34.486   4.738
  34.0  34.517   4.880
  35.0  34.532   4.899
  36.0  34.550   4.920
  37.0  34.572   4.944
  38.0  34.590   4.974
  39.0  34.598   4.974
  40.0  34.606   4.993
  41.0  34.604   4.969
  42.0  34.612   4.972
  43.0  34.620   4.912
  44.0  34.624   4.876
  45.0  34.628   4.847
  46.0  34.637   4.825
  47.0  34.643   4.776
  48.0  34.656   4.767
  49.0  34.660   4.742
  50.0  34.670   4.652
  51.0  34.669   4.514
  52.0  34.677   4.449
  53.0  34.683   4.361
  54.0  34.688   4.270
  55.0  34.694   4.249
  56.0  34.692   4.218
  57.0  34.704   4.152
  58.0  34.706   4.088
  59.0  34.709   4.035
  60.0  34.711   3.982
  61.0  34.711   3.926
  62.0  34.713   3.856
  63.0  34.715   3.771
  64.0  34.717   3.658
  65.0  34.716   3.610
  66.0  34.719   3.496
  67.0  34.719   3.358
