   2.0  32.685   5.108
   3.0  33.065   4.995
   4.0  34.090   5.043
   5.0  34.388   4.994
   6.0  34.413   4.619
   7.0  34.464   4.686
   8.0  34.469   4.594
   9.0  34.480   4.534
  10.0  34.507   4.540
  11.0  34.517   4.485
  12.0  34.566   4.578
  13.0  34.589   4.568
  14.0  34.587   4.483
  15.0  34.581   4.334
  16.0  34.591   4.338
  17.0  34.639   4.482
  18.0  34.675   4.434
  19.0  34.702   4.303
  20.0  34.713   4.178
  21.0  34.718   3.924
  22.0  34.723   3.862
  23.0  34.737   3.881
  24.0  34.746   3.834
  25.0  34.757   3.728
  26.0  34.772   3.706
  27.0  34.775   3.665
  28.0  34.784   3.654
  29.0  34.792   3.651
  30.0  34.807   3.609
  31.0  34.801   3.378
  32.0  34.798   3.284
  33.0  34.793   3.159
  34.0  34.782   2.892
  35.0  34.783   2.869
  36.0  34.796   2.929
  37.0  34.804   2.923
  38.0  34.813   2.896
  39.0  34.812   2.800
  40.0  34.809   2.677
  41.0  34.828   2.735
  42.0  34.828   2.593
  43.0  34.813   2.391
  44.0  34.808   2.291
  45.0  34.804   2.221
  46.0  34.802   2.151
  47.0  34.782   1.930
  48.0  34.781   1.912
  49.0  34.784   1.904
  50.0  34.786   1.897
  51.0  34.788   1.894
  52.0  34.791   1.889
  53.0  34.796   1.881
  54.0  34.799   1.873
  55.0  34.800   1.870
  56.0  34.802   1.866
  57.0  34.804   1.857
  58.0  34.806   1.834
  59.0  34.808   1.833
  60.0  34.813   1.849
  61.0  34.815   1.856
  62.0  34.816   1.859
  63.0  34.819   1.865
  64.0  34.821   1.874
  65.0  34.829   1.909
  66.0  34.838   1.941
  67.0  34.841   1.956
  68.0  34.843   1.958
  69.0  34.849   1.954
  70.0  34.856   1.978
  71.0  34.861   1.996
  72.0  34.862   2.002
  73.0  34.866   2.019
  74.0  34.872   2.041
  75.0  34.875   2.049
  76.0  34.877   2.054
  77.0  34.881   2.057
  78.0  34.884   2.054
  79.0  34.885   2.055
  80.0  34.885   2.057
  81.0  34.886   2.054
  82.0  34.886   2.038
  83.0  34.889   2.040
  84.0  34.890   2.027
  85.0  34.889   2.014
  86.0  34.892   2.033
  87.0  34.897   2.055
  88.0  34.898   2.056
  89.0  34.899   2.052
  90.0  34.898   2.049
  91.0  34.899   2.050
  92.0  34.902   2.057
  93.0  34.905   2.063
  94.0  34.907   2.067
  95.0  34.908   2.072
  96.0  34.913   2.099
  97.0  34.921   2.135
  98.0  34.924   2.151
  99.0  34.927   2.164
 100.0  34.929   2.172
 101.0  34.929   2.173
 102.0  34.928   2.160
 103.0  34.927   2.144
 104.0  34.929   2.159
 105.0  34.938   2.219
 106.0  34.942   2.232
 107.0  34.944   2.238
 108.0  34.947   2.252
 109.0  34.949   2.259
 110.0  34.951   2.268
 111.0  34.953   2.280
 112.0  34.955   2.287
 113.0  34.956   2.290
 114.0  34.957   2.293
 115.0  34.962   2.313
 116.0  34.971   2.369
 117.0  34.975   2.377
 118.0  34.972   2.348
 119.0  34.971   2.344
 120.0  34.972   2.350
 121.0  34.969   2.323
 122.0  34.964   2.284
 123.0  34.966   2.290
 124.0  34.970   2.305
 125.0  34.971   2.308
 126.0  34.973   2.319
 127.0  34.976   2.338
 128.0  34.981   2.356
 129.0  34.982   2.324
 130.0  34.981   2.311
 131.0  34.983   2.323
 132.0  34.984   2.330
 133.0  34.984   2.331
 134.0  34.985   2.335
 135.0  34.986   2.340
 136.0  34.987   2.348
 137.0  34.987   2.350
 138.0  34.989   2.367
 139.0  34.989   2.379
 140.0  34.989   2.390
 141.0  34.989   2.403
 142.0  34.990   2.412
 143.0  34.991   2.426
 144.0  35.000   2.511
 145.0  35.021   2.671
 146.0  35.047   2.861
 147.0  35.064   2.945
 148.0  35.069   2.972
 149.0  35.075   2.987
 150.0  35.074   2.961
 151.0  35.066   2.864
 152.0  35.048   2.733
 153.0  35.044   2.707
 154.0  35.042   2.705
 155.0  35.047   2.732
 156.0  35.056   2.821
 157.0  35.080   2.982
 158.0  35.096   3.037
 159.0  35.098   3.046
 160.0  35.101   3.051
 161.0  35.103   3.040
 162.0  35.102   2.998
 163.0  35.096   2.932
 164.0  35.088   2.850
 165.0  35.072   2.713
 166.0  35.055   2.539
 167.0  35.033   2.444
 168.0  35.028   2.421
 169.0  35.025   2.403
 170.0  35.025   2.397
 171.0  35.025   2.393
 172.0  35.026   2.389
 173.0  35.027   2.388
 174.0  35.029   2.392
 175.0  35.031   2.395
 176.0  35.033   2.399
 177.0  35.034   2.400
 178.0  35.034   2.400
 179.0  35.034   2.398
 180.0  35.034   2.397
 181.0  35.034   2.397
 182.0  35.034   2.397
 183.0  35.034   2.398
 184.0  35.035   2.398
 185.0  35.035   2.397
 186.0  35.035   2.397
 187.0  35.037   2.393
 188.0  35.037   2.389
 189.0  35.037   2.385
 190.0  35.037   2.384
 191.0  35.037   2.382
 192.0  35.038   2.379
 193.0  35.039   2.374
 194.0  35.040   2.371
 195.0  35.040   2.372
 196.0  35.042   2.375
 197.0  35.042   2.377
 198.0  35.043   2.381
 199.0  35.044   2.382
 200.0  35.045   2.381
 201.0  35.045   2.380
 202.0  35.045   2.379
 203.0  35.044   2.379
 204.0  35.045   2.378
 205.0  35.045   2.378
 206.0  35.046   2.378
 207.0  35.046   2.378
 208.0  35.046   2.377
 209.0  35.046   2.376
 210.0  35.047   2.376
 211.0  35.048   2.376
 212.0  35.049   2.377
 213.0  35.050   2.377
 214.0  35.051   2.378
 215.0  35.053   2.378
 216.0  35.054   2.379
 217.0  35.055   2.379
 218.0  35.056   2.380
 219.0  35.056   2.380
