   1.0  33.712   4.213
   2.0  33.738   4.185
   3.0  33.783   4.154
   4.0  34.096   4.524
   5.0  34.313   4.708
   6.0  34.385   4.595
   7.0  34.461   4.454
   8.0  34.489   4.316
   9.0  34.516   4.336
  10.0  34.554   4.291
  11.0  34.582   4.257
  12.0  34.640   4.128
  13.0  34.661   4.066
  14.0  34.681   4.093
  15.0  34.714   4.155
  16.0  34.726   4.144
  17.0  34.734   4.120
  18.0  34.745   3.963
  19.0  34.755   3.816
  20.0  34.758   3.673
  21.0  34.756   3.582
  22.0  34.759   3.566
  23.0  34.761   3.498
  24.0  34.763   3.397
  25.0  34.770   3.354
  26.0  34.768   3.322
  27.0  34.767   3.324
  28.0  34.769   3.322
  29.0  34.775   3.291
  30.0  34.782   3.249
  31.0  34.780   3.122
  32.0  34.780   3.097
  33.0  34.781   3.061
  34.0  34.781   3.006
  35.0  34.782   2.937
  36.0  34.784   2.859
  37.0  34.800   2.816
  38.0  34.825   2.733
  39.0  34.846   2.744
  40.0  34.857   2.766
  41.0  34.865   2.760
  42.0  34.864   2.644
  43.0  34.849   2.513
  44.0  34.844   2.432
  45.0  34.837   2.310
  46.0  34.832   2.250
  47.0  34.830   2.222
  48.0  34.830   2.220
  49.0  34.830   2.209
  50.0  34.832   2.195
  51.0  34.838   2.198
  52.0  34.843   2.201
  53.0  34.844   2.186
  54.0  34.845   2.172
  55.0  34.838   2.065
  56.0  34.833   2.015
  57.0  34.834   1.978
  58.0  34.836   1.981
  59.0  34.837   1.993
  60.0  34.841   2.026
  61.0  34.860   2.114
  62.0  34.866   2.153
  63.0  34.875   2.210
  64.0  34.880   2.235
  65.0  34.883   2.243
  66.0  34.892   2.244
  67.0  34.901   2.279
  68.0  34.906   2.288
  69.0  34.905   2.267
  70.0  34.902   2.216
  71.0  34.900   2.199
  72.0  34.900   2.194
  73.0  34.900   2.186
  74.0  34.901   2.180
  75.0  34.901   2.133
  76.0  34.904   2.165
  77.0  34.902   2.137
  78.0  34.898   2.112
  79.0  34.896   2.108
  80.0  34.896   2.122
  81.0  34.899   2.159
  82.0  34.916   2.267
  83.0  34.928   2.350
  84.0  34.945   2.461
  85.0  34.953   2.548
  86.0  34.986   2.724
  87.0  34.991   2.752
  88.0  35.013   2.880
  89.0  35.020   2.905
  90.0  35.019   2.900
  91.0  35.019   2.893
  92.0  35.018   2.883
  93.0  35.016   2.861
  94.0  35.014   2.845
  95.0  35.013   2.835
  96.0  35.014   2.836
  97.0  35.016   2.846
  98.0  35.017   2.852
  99.0  35.021   2.872
 100.0  35.024   2.877
 101.0  35.023   2.861
 102.0  35.021   2.852
 103.0  35.018   2.829
 104.0  35.013   2.790
 105.0  35.009   2.767
 106.0  35.008   2.777
 107.0  35.018   2.868
 108.0  35.046   3.034
 109.0  35.067   3.166
 110.0  35.062   3.112
 111.0  35.057   3.091
 112.0  35.060   3.112
 113.0  35.060   3.118
 114.0  35.062   3.131
 115.0  35.064   3.147
 116.0  35.068   3.175
 117.0  35.075   3.214
 118.0  35.079   3.235
 119.0  35.082   3.257
 120.0  35.085   3.275
 121.0  35.087   3.280
 122.0  35.088   3.283
 123.0  35.090   3.287
 124.0  35.093   3.289
 125.0  35.089   3.236
 126.0  35.085   3.188
 127.0  35.084   3.178
 128.0  35.085   3.171
 129.0  35.084   3.150
 130.0  35.081   3.099
 131.0  35.055   2.875
 132.0  35.031   2.706
 133.0  35.030   2.704
 134.0  35.029   2.689
 135.0  35.026   2.676
 136.0  35.027   2.678
 137.0  35.026   2.678
 138.0  35.027   2.683
 139.0  35.028   2.687
 140.0  35.026   2.684
 141.0  35.027   2.686
 142.0  35.027   2.677
 143.0  35.025   2.671
 144.0  35.026   2.678
 145.0  35.027   2.680
 146.0  35.025   2.671
 147.0  35.025   2.672
 148.0  35.026   2.675
 149.0  35.026   2.680
 150.0  35.026   2.682
 151.0  35.028   2.688
 152.0  35.027   2.688
 153.0  35.028   2.692
 154.0  35.028   2.694
 155.0  35.028   2.696
 156.0  35.028   2.698
 157.0  35.028   2.700
 158.0  35.029   2.707
 159.0  35.029   2.714
 160.0  35.030   2.718
 161.0  35.029   2.714
 162.0  35.029   2.716
 163.0  35.036   2.775
 164.0  35.044   2.812
 165.0  35.045   2.820
 166.0  35.046   2.822
 167.0  35.045   2.807
 168.0  35.042   2.784
 169.0  35.042   2.792
 170.0  35.043   2.796
 171.0  35.042   2.786
 172.0  35.041   2.776
 173.0  35.039   2.764
 174.0  35.038   2.760
 175.0  35.036   2.729
 176.0  35.031   2.701
 177.0  35.029   2.690
 178.0  35.029   2.691
 179.0  35.034   2.735
 180.0  35.038   2.751
 181.0  35.039   2.758
 182.0  35.040   2.771
 183.0  35.042   2.777
 184.0  35.042   2.780
 185.0  35.044   2.789
 186.0  35.046   2.797
 187.0  35.047   2.806
 188.0  35.049   2.813
 189.0  35.049   2.808
 190.0  35.049   2.776
 191.0  35.043   2.728
 192.0  35.038   2.689
 193.0  35.036   2.667
 194.0  35.034   2.646
 195.0  35.033   2.613
 196.0  35.029   2.571
 197.0  35.029   2.542
 198.0  35.029   2.503
