   5.0  33.549   3.575
   6.0  33.552   3.584
   7.0  33.561   3.629
   8.0  33.567   3.659
   9.0  33.565   3.647
  10.0  33.563   3.611
  11.0  33.570   3.627
  12.0  33.595   3.769
  13.0  33.615   3.894
  14.0  33.651   4.091
  15.0  33.675   4.228
  16.0  33.697   4.341
  17.0  33.731   4.442
  18.0  33.761   4.368
  19.0  33.872   4.807
  20.0  33.870   4.808
  21.0  33.893   4.622
  22.0  33.953   4.670
  23.0  34.042   4.638
  24.0  34.189   4.893
  25.0  34.285   5.054
  26.0  34.343   5.125
  27.0  34.412   5.243
  28.0  34.447   5.290
  29.0  34.478   5.339
  30.0  34.524   5.409
  31.0  34.555   5.472
  32.0  34.573   5.507
  33.0  34.587   5.520
  34.0  34.606   5.546
  35.0  34.636   5.610
  36.0  34.658   5.676
  37.0  34.662   5.655
  38.0  34.661   5.517
  39.0  34.666   5.500
  40.0  34.666   5.501
  41.0  34.664   5.461
  42.0  34.688   5.435
  43.0  34.703   5.480
  44.0  34.707   5.405
  45.0  34.703   5.331
  46.0  34.708   5.296
  47.0  34.730   5.287
  48.0  34.744   5.327
  49.0  34.764   5.399
  50.0  34.780   5.424
  51.0  34.805   5.497
  52.0  34.810   5.490
  53.0  34.822   5.475
  54.0  34.828   5.474
  55.0  34.826   5.403
  56.0  34.828   5.310
  57.0  34.825   5.218
  58.0  34.828   5.184
  59.0  34.829   5.145
  60.0  34.824   5.112
  61.0  34.817   4.986
  62.0  34.816   4.957
  63.0  34.815   4.925
  64.0  34.817   4.895
  65.0  34.839   4.973
  66.0  34.841   4.937
  67.0  34.825   4.795
  68.0  34.835   4.757
  69.0  34.831   4.641
  70.0  34.832   4.613
  71.0  34.833   4.608
  72.0  34.835   4.608
  73.0  34.838   4.611
  74.0  34.840   4.603
  75.0  34.839   4.573
  76.0  34.837   4.526
  77.0  34.836   4.493
  78.0  34.839   4.480
  79.0  34.838   4.463
  80.0  34.837   4.433
  81.0  34.838   4.418
  82.0  34.838   4.407
  83.0  34.838   4.398
  84.0  34.839   4.377
  85.0  34.844   4.359
  86.0  34.850   4.338
  87.0  34.851   4.333
  88.0  34.851   4.330
  89.0  34.847   4.299
  90.0  34.846   4.243
  91.0  34.846   4.222
  92.0  34.849   4.222
  93.0  34.853   4.235
  94.0  34.859   4.254
  95.0  34.859   4.258
  96.0  34.858   4.247
  97.0  34.855   4.215
  98.0  34.848   4.143
  99.0  34.847   4.096
 100.0  34.851   4.098
 101.0  34.852   4.098
 102.0  34.852   4.081
 103.0  34.850   4.045
 104.0  34.848   4.010
 105.0  34.843   3.946
 106.0  34.837   3.897
 107.0  34.832   3.792
 108.0  34.832   3.777
 109.0  34.832   3.777
 110.0  34.831   3.768
 111.0  34.828   3.734
 112.0  34.835   3.733
 113.0  34.850   3.803
 114.0  34.857   3.827
 115.0  34.859   3.837
 116.0  34.860   3.836
 117.0  34.861   3.831
 118.0  34.857   3.815
 119.0  34.851   3.740
 120.0  34.843   3.692
 121.0  34.827   3.555
 122.0  34.816   3.422
 123.0  34.815   3.402
 124.0  34.824   3.427
 125.0  34.843   3.558
 126.0  34.877   3.758
 127.0  34.885   3.835
 128.0  34.889   3.861
 129.0  34.898   3.902
 130.0  34.905   3.957
 131.0  34.905   3.960
 132.0  34.903   3.936
 133.0  34.901   3.916
 134.0  34.901   3.911
 135.0  34.907   3.930
 136.0  34.909   3.937
 137.0  34.910   3.928
 138.0  34.907   3.899
 139.0  34.906   3.886
 140.0  34.910   3.902
 141.0  34.916   3.917
 142.0  34.920   3.935
 143.0  34.920   3.920
 144.0  34.921   3.903
 145.0  34.919   3.888
 146.0  34.916   3.849
 147.0  34.917   3.842
 148.0  34.917   3.839
 149.0  34.916   3.831
 150.0  34.916   3.825
 151.0  34.916   3.822
 152.0  34.916   3.819
 153.0  34.916   3.819
 154.0  34.915   3.811
 155.0  34.916   3.806
 156.0  34.917   3.809
 157.0  34.917   3.806
 158.0  34.916   3.794
 159.0  34.915   3.785
 160.0  34.916   3.781
 161.0  34.918   3.784
 162.0  34.921   3.798
 163.0  34.922   3.809
 164.0  34.924   3.816
 165.0  34.925   3.816
 166.0  34.925   3.813
 167.0  34.926   3.809
 168.0  34.927   3.810
 169.0  34.926   3.807
 170.0  34.925   3.794
 171.0  34.925   3.785
 172.0  34.926   3.778
 173.0  34.927   3.777
 174.0  34.925   3.757
 175.0  34.920   3.721
 176.0  34.923   3.692
 177.0  34.925   3.703
 178.0  34.916   3.647
 179.0  34.912   3.589
 180.0  34.909   3.561
 181.0  34.904   3.522
 182.0  34.901   3.494
 183.0  34.901   3.483
 184.0  34.898   3.466
 185.0  34.898   3.455
 186.0  34.895   3.444
 187.0  34.893   3.413
 188.0  34.891   3.404
 189.0  34.890   3.386
 190.0  34.890   3.386
 191.0  34.888   3.368
 192.0  34.887   3.357
 193.0  34.888   3.355
 194.0  34.885   3.331
 195.0  34.886   3.321
 196.0  34.886   3.320
 197.0  34.886   3.320
 198.0  34.888   3.322
 199.0  34.887   3.314
 200.0  34.888   3.307
 201.0  34.889   3.309
 202.0  34.891   3.315
 203.0  34.893   3.330
 204.0  34.892   3.324
 205.0  34.892   3.311
 206.0  34.890   3.281
 207.0  34.889   3.254
 208.0  34.888   3.244
 209.0  34.888   3.238
 210.0  34.888   3.235
 211.0  34.888   3.228
 212.0  34.888   3.224
 213.0  34.889   3.214
 214.0  34.889   3.200
 215.0  34.890   3.183
 216.0  34.891   3.178
 217.0  34.893   3.155
 218.0  34.894   3.146
 219.0  34.894   3.136
 220.0  34.895   3.126
 221.0  34.894   3.116
 222.0  34.894   3.106
 223.0  34.895   3.104
 224.0  34.895   3.101
 225.0  34.895   3.095
 226.0  34.896   3.090
 227.0  34.896   3.087
 228.0  34.897   3.083
 229.0  34.898   3.075
 230.0  34.898   3.069
 231.0  34.905   3.042
 232.0  34.912   3.036
 233.0  34.913   3.036
 234.0  34.914   3.041
 235.0  34.914   3.041
 236.0  34.914   3.042
 237.0  34.916   3.000
 238.0  34.920   2.943
 239.0  34.921   2.901
 240.0  34.923   2.865
 241.0  34.924   2.860
 242.0  34.924   2.851
 243.0  34.925   2.836
 244.0  34.925   2.824
 245.0  34.926   2.816
 246.0  34.927   2.811
 247.0  34.926   2.785
 248.0  34.927   2.687
 249.0  34.928   2.643
 250.0  34.927   2.589
 251.0  34.933   2.497
 252.0  34.935   2.470
 253.0  34.937   2.429
 254.0  34.939   2.389
 255.0  34.943   2.356
 256.0  34.945   2.322
 257.0  34.947   2.301
 258.0  34.949   2.287
 259.0  34.950   2.284
 260.0  34.950   2.282
 261.0  34.951   2.280
 262.0  34.951   2.274
 263.0  34.952   2.269
 264.0  34.952   2.264
 265.0  34.953   2.255
 266.0  34.954   2.250
 267.0  34.954   2.245
 268.0  34.955   2.238
 269.0  34.955   2.231
 270.0  34.956   2.227
 271.0  34.956   2.227
 272.0  34.956   2.225
 273.0  34.956   2.217
 274.0  34.956   2.191
 275.0  34.958   2.169
 276.0  34.958   2.164
 277.0  34.959   2.152
 278.0  34.960   2.136
 279.0  34.961   2.129
 280.0  34.961   2.124
 281.0  34.962   2.118
 282.0  34.962   2.102
 283.0  34.964   2.086
 284.0  34.965   2.074
 285.0  34.965   2.066
 286.0  34.966   2.064
 287.0  34.965   2.063
 288.0  34.966   2.059
 289.0  34.967   2.053
 290.0  34.967   2.046
 291.0  34.968   2.043
