   5.0  33.352   4.148
   6.0  33.367   4.168
   7.0  33.398   4.217
   8.0  33.409   4.250
   9.0  33.411   4.258
  10.0  33.412   4.259
  11.0  33.428   4.278
  12.0  33.467   4.325
  13.0  33.549   4.503
  14.0  33.585   4.510
  15.0  33.587   4.428
  16.0  33.595   4.413
  17.0  33.600   4.403
  18.0  33.612   4.408
  19.0  33.624   4.441
  20.0  33.628   4.439
  21.0  33.636   4.455
  22.0  33.731   4.628
  23.0  33.815   4.703
  24.0  33.873   4.830
  25.0  33.940   5.019
  26.0  33.993   5.032
  27.0  34.022   5.050
  28.0  34.059   5.079
  29.0  34.092   5.135
  30.0  34.138   5.214
  31.0  34.182   5.269
  32.0  34.226   5.297
  33.0  34.259   5.358
  34.0  34.307   5.458
  35.0  34.325   5.490
  36.0  34.344   5.479
  37.0  34.379   5.543
  38.0  34.405   5.563
  39.0  34.415   5.596
  40.0  34.440   5.676
  41.0  34.457   5.713
  42.0  34.471   5.745
  43.0  34.485   5.778
  44.0  34.503   5.812
  45.0  34.517   5.832
  46.0  34.529   5.809
  47.0  34.527   5.710
  48.0  34.531   5.670
  49.0  34.544   5.662
  50.0  34.581   5.728
  51.0  34.639   5.883
  52.0  34.652   5.864
  53.0  34.682   5.906
  54.0  34.683   5.809
  55.0  34.709   5.815
  56.0  34.732   5.840
  57.0  34.739   5.842
  58.0  34.722   5.643
  59.0  34.740   5.580
  60.0  34.777   5.714
  61.0  34.806   5.859
  62.0  34.807   5.775
  63.0  34.827   5.826
  64.0  34.822   5.788
  65.0  34.821   5.763
  66.0  34.817   5.717
  67.0  34.813   5.674
  68.0  34.791   5.476
  69.0  34.802   5.438
  70.0  34.836   5.562
  71.0  34.857   5.645
  72.0  34.858   5.656
  73.0  34.873   5.656
  74.0  34.902   5.786
  75.0  34.949   5.937
  76.0  34.965   6.035
  77.0  34.967   6.042
  78.0  34.966   6.033
  79.0  34.942   5.920
  80.0  34.933   5.782
  81.0  34.927   5.748
  82.0  34.898   5.547
  83.0  34.869   5.331
  84.0  34.850   5.095
  85.0  34.850   5.018
  86.0  34.853   5.004
  87.0  34.864   5.033
  88.0  34.887   5.130
  89.0  34.905   5.184
  90.0  34.933   5.328
  91.0  34.933   5.327
  92.0  34.930   5.314
  93.0  34.911   5.211
  94.0  34.907   5.093
  95.0  34.904   5.065
  96.0  34.900   5.032
  97.0  34.893   4.980
  98.0  34.892   4.950
  99.0  34.891   4.921
 100.0  34.893   4.897
 101.0  34.868   4.699
 102.0  34.883   4.643
 103.0  34.907   4.814
 104.0  34.906   4.814
 105.0  34.908   4.819
 106.0  34.911   4.841
 107.0  34.896   4.782
 108.0  34.871   4.510
 109.0  34.869   4.466
 110.0  34.883   4.516
 111.0  34.892   4.583
 112.0  34.898   4.598
 113.0  34.889   4.496
 114.0  34.870   4.337
 115.0  34.870   4.303
 116.0  34.871   4.293
 117.0  34.884   4.352
 118.0  34.899   4.460
 119.0  34.895   4.437
 120.0  34.891   4.380
 121.0  34.891   4.354
 122.0  34.903   4.385
 123.0  34.909   4.439
 124.0  34.903   4.398
 125.0  34.901   4.362
 126.0  34.895   4.310
 127.0  34.894   4.294
 128.0  34.888   4.243
 129.0  34.888   4.231
 130.0  34.885   4.211
 131.0  34.877   4.117
 132.0  34.866   4.017
 133.0  34.857   3.924
 134.0  34.850   3.868
 135.0  34.843   3.801
 136.0  34.833   3.708
 137.0  34.824   3.642
 138.0  34.807   3.431
 139.0  34.803   3.339
 140.0  34.802   3.332
 141.0  34.799   3.309
 142.0  34.797   3.272
 143.0  34.795   3.245
 144.0  34.794   3.220
 145.0  34.791   3.189
 146.0  34.790   3.155
 147.0  34.789   3.131
 148.0  34.789   3.104
 149.0  34.795   3.121
 150.0  34.798   3.141
 151.0  34.810   3.201
 152.0  34.807   3.200
 153.0  34.809   3.182
 154.0  34.810   3.175
 155.0  34.812   3.173
 156.0  34.812   3.175
 157.0  34.810   3.157
 158.0  34.800   3.081
 159.0  34.799   3.041
 160.0  34.791   2.969
 161.0  34.787   2.931
 162.0  34.783   2.887
 163.0  34.780   2.873
 164.0  34.767   2.758
 165.0  34.756   2.653
 166.0  34.755   2.584
 167.0  34.754   2.582
 168.0  34.753   2.560
 169.0  34.760   2.581
 170.0  34.756   2.560
 171.0  34.755   2.533
 172.0  34.760   2.548
 173.0  34.767   2.610
 174.0  34.769   2.591
 175.0  34.770   2.596
 176.0  34.773   2.602
 177.0  34.790   2.701
 178.0  34.790   2.728
 179.0  34.789   2.713
 180.0  34.787   2.694
 181.0  34.785   2.686
 182.0  34.779   2.645
 183.0  34.776   2.586
 184.0  34.778   2.581
 185.0  34.779   2.584
 186.0  34.778   2.575
 187.0  34.777   2.559
 188.0  34.777   2.541
 189.0  34.780   2.546
 190.0  34.783   2.571
 191.0  34.778   2.550
 192.0  34.772   2.470
 193.0  34.775   2.479
 194.0  34.791   2.554
 195.0  34.805   2.660
 196.0  34.805   2.677
 197.0  34.807   2.686
 198.0  34.806   2.678
 199.0  34.806   2.634
 200.0  34.808   2.631
 201.0  34.809   2.639
 202.0  34.810   2.641
 203.0  34.811   2.634
 204.0  34.813   2.620
 205.0  34.813   2.598
 206.0  34.813   2.584
 207.0  34.810   2.557
 208.0  34.805   2.501
 209.0  34.806   2.478
 210.0  34.808   2.482
 211.0  34.813   2.512
 212.0  34.816   2.534
 213.0  34.818   2.539
 214.0  34.819   2.548
 215.0  34.821   2.548
 216.0  34.821   2.542
 217.0  34.831   2.571
 218.0  34.839   2.642
 219.0  34.841   2.655
 220.0  34.841   2.639
 221.0  34.842   2.629
 222.0  34.839   2.596
 223.0  34.839   2.558
 224.0  34.837   2.541
 225.0  34.837   2.522
 226.0  34.838   2.522
 227.0  34.841   2.529
 228.0  34.842   2.529
 229.0  34.844   2.535
 230.0  34.844   2.523
 231.0  34.846   2.523
 232.0  34.848   2.534
 233.0  34.849   2.538
 234.0  34.849   2.527
 235.0  34.848   2.515
 236.0  34.849   2.506
 237.0  34.850   2.499
 238.0  34.851   2.495
