   2.0  32.444   5.475
   3.0  32.443   5.464
   4.0  33.435   5.100
   5.0  34.054   4.796
   6.0  34.404   4.754
   7.0  34.515   4.747
   8.0  34.541   4.671
   9.0  34.611   4.576
  10.0  34.688   4.635
  11.0  34.690   4.160
  12.0  34.725   4.082
  13.0  34.845   4.337
  14.0  34.863   4.218
  15.0  34.865   4.184
  16.0  34.865   4.090
  17.0  34.869   4.061
  18.0  34.880   4.015
  19.0  34.906   4.016
  20.0  34.927   4.030
  21.0  34.952   3.856
  22.0  34.938   3.621
  23.0  34.916   3.422
  24.0  34.906   3.129
  25.0  34.966   3.447
  26.0  34.979   3.444
  27.0  34.966   3.237
  28.0  34.968   3.256
  29.0  34.977   3.293
  30.0  34.986   3.325
  31.0  34.992   3.346
  32.0  34.989   3.324
  33.0  34.979   3.214
  34.0  34.972   3.155
  35.0  34.962   3.087
  36.0  34.950   2.919
  37.0  34.946   2.864
  38.0  34.942   2.795
  39.0  34.944   2.795
  40.0  34.951   2.828
  41.0  34.957   2.853
  42.0  34.965   2.890
  43.0  34.984   3.020
  44.0  34.990   3.057
  45.0  34.989   3.051
  46.0  34.987   3.027
  47.0  34.984   3.005
  48.0  34.981   2.974
  49.0  34.981   2.963
  50.0  34.978   2.936
  51.0  34.978   2.917
  52.0  34.977   2.902
  53.0  34.972   2.843
  54.0  34.970   2.813
  55.0  34.969   2.797
  56.0  34.969   2.795
  57.0  34.969   2.795
  58.0  34.971   2.802
  59.0  34.973   2.800
  60.0  34.975   2.808
  61.0  34.978   2.818
  62.0  34.984   2.842
  63.0  34.989   2.861
  64.0  34.991   2.867
  65.0  34.995   2.890
  66.0  35.000   2.922
  67.0  35.005   2.941
  68.0  35.007   2.955
  69.0  35.010   2.971
  70.0  35.012   2.996
  71.0  35.014   3.005
  72.0  35.014   3.007
  73.0  35.014   3.008
  74.0  35.013   3.005
  75.0  35.013   3.005
  76.0  35.013   3.005
  77.0  35.013   3.003
  78.0  35.013   3.003
  79.0  35.015   3.013
  80.0  35.016   3.017
  81.0  35.017   3.021
  82.0  35.023   3.042
  83.0  35.023   3.046
  84.0  35.025   3.067
  85.0  35.028   3.076
  86.0  35.031   3.089
  87.0  35.031   3.096
  88.0  35.036   3.117
  89.0  35.042   3.159
  90.0  35.044   3.164
  91.0  35.047   3.169
  92.0  35.051   3.184
  93.0  35.052   3.189
  94.0  35.053   3.193
  95.0  35.054   3.195
  96.0  35.055   3.198
  97.0  35.056   3.203
  98.0  35.056   3.206
  99.0  35.058   3.208
 100.0  35.059   3.220
 101.0  35.062   3.230
 102.0  35.061   3.226
 103.0  35.060   3.198
 104.0  35.057   3.188
 105.0  35.057   3.186
 106.0  35.055   3.173
 107.0  35.054   3.169
 108.0  35.052   3.148
 109.0  35.052   3.141
 110.0  35.053   3.139
 111.0  35.054   3.147
 112.0  35.058   3.164
 113.0  35.061   3.184
 114.0  35.064   3.211
 115.0  35.068   3.234
 116.0  35.073   3.256
 117.0  35.072   3.261
 118.0  35.074   3.277
 119.0  35.075   3.282
 120.0  35.075   3.285
 121.0  35.074   3.271
 122.0  35.073   3.261
 123.0  35.072   3.256
 124.0  35.072   3.248
 125.0  35.071   3.243
 126.0  35.070   3.236
 127.0  35.070   3.232
 128.0  35.069   3.225
 129.0  35.069   3.217
 130.0  35.069   3.209
 131.0  35.068   3.201
 132.0  35.067   3.190
 133.0  35.068   3.168
 134.0  35.070   3.099
 135.0  35.070   3.076
 136.0  35.070   3.063
 137.0  35.071   3.050
 138.0  35.074   3.027
 139.0  35.073   3.020
 140.0  35.073   3.006
 141.0  35.074   2.999
 142.0  35.074   2.992
 143.0  35.074   2.988
 144.0  35.075   2.989
 145.0  35.075   2.983
 146.0  35.075   2.974
 147.0  35.075   2.968
 148.0  35.075   2.965
 149.0  35.076   2.960
 150.0  35.076   2.957
 151.0  35.076   2.957
 152.0  35.076   2.953
 153.0  35.077   2.950
 154.0  35.077   2.946
 155.0  35.077   2.943
 156.0  35.077   2.943
 157.0  35.077   2.943
 158.0  35.078   2.945
 159.0  35.078   2.946
 160.0  35.078   2.946
 161.0  35.078   2.941
 162.0  35.078   2.931
 163.0  35.079   2.925
