   1.0  33.647   5.667
   2.0  33.720   5.596
   3.0  33.870   4.699
   4.0  33.935   4.657
   5.0  34.116   4.854
   6.0  34.314   4.794
   7.0  34.380   4.642
   8.0  34.482   4.452
   9.0  34.528   4.367
  10.0  34.538   4.348
  11.0  34.557   4.387
  12.0  34.598   4.513
  13.0  34.645   4.574
  14.0  34.669   4.602
  15.0  34.664   4.426
  16.0  34.658   4.261
  17.0  34.716   4.318
  18.0  34.804   4.505
  19.0  34.817   4.507
  20.0  34.822   4.466
  21.0  34.828   4.394
  22.0  34.844   4.327
  23.0  34.878   4.377
  24.0  34.913   4.495
  25.0  34.887   4.290
  26.0  34.842   4.115
  27.0  34.828   3.785
  28.0  34.836   3.600
  29.0  34.804   3.251
  30.0  34.802   3.086
  31.0  34.803   3.039
  32.0  34.806   3.009
  33.0  34.798   2.784
  34.0  34.787   2.640
  35.0  34.800   2.664
  36.0  34.816   2.713
  37.0  34.816   2.670
  38.0  34.821   2.659
  39.0  34.814   2.588
  40.0  34.813   2.458
  41.0  34.806   2.396
  42.0  34.811   2.380
  43.0  34.814   2.382
  44.0  34.809   2.310
  45.0  34.798   2.175
  46.0  34.795   2.123
  47.0  34.794   2.089
  48.0  34.796   2.002
  49.0  34.793   1.946
  50.0  34.797   1.910
  51.0  34.798   1.908
  52.0  34.803   1.891
  53.0  34.806   1.886
  54.0  34.810   1.878
  55.0  34.813   1.872
  56.0  34.816   1.871
  57.0  34.824   1.892
  58.0  34.839   1.986
  59.0  34.852   2.025
  60.0  34.859   2.039
  61.0  34.860   2.040
  62.0  34.860   2.038
  63.0  34.862   2.014
  64.0  34.860   2.009
  65.0  34.861   1.990
  66.0  34.861   1.987
  67.0  34.867   1.990
  68.0  34.866   1.989
  69.0  34.869   1.986
  70.0  34.871   1.980
  71.0  34.872   1.977
  72.0  34.872   1.970
  73.0  34.872   1.954
  74.0  34.873   1.952
  75.0  34.877   1.963
  76.0  34.883   1.983
  77.0  34.887   2.001
  78.0  34.890   2.011
  79.0  34.894   2.031
  80.0  34.898   2.059
  81.0  34.903   2.089
  82.0  34.906   2.103
  83.0  34.919   2.196
  84.0  34.937   2.290
  85.0  34.955   2.423
  86.0  34.960   2.463
  87.0  34.963   2.491
  88.0  34.965   2.501
  89.0  34.967   2.530
  90.0  34.965   2.507
  91.0  34.962   2.481
  92.0  34.959   2.459
  93.0  34.957   2.434
  94.0  34.956   2.417
  95.0  34.959   2.427
  96.0  34.964   2.448
  97.0  34.973   2.504
  98.0  34.980   2.559
  99.0  34.994   2.637
 100.0  35.006   2.721
 101.0  35.026   2.840
 102.0  35.044   2.977
 103.0  35.060   3.089
 104.0  35.073   3.162
 105.0  35.079   3.209
 106.0  35.080   3.217
 107.0  35.079   3.203
 108.0  35.078   3.198
 109.0  35.077   3.198
 110.0  35.077   3.198
 111.0  35.077   3.200
 112.0  35.076   3.196
 113.0  35.076   3.185
 114.0  35.081   3.210
 115.0  35.083   3.221
 116.0  35.083   3.217
 117.0  35.082   3.204
 118.0  35.081   3.183
 119.0  35.084   3.191
 120.0  35.087   3.207
 121.0  35.088   3.211
 122.0  35.088   3.202
 123.0  35.087   3.189
 124.0  35.087   3.185
 125.0  35.088   3.179
 126.0  35.088   3.175
 127.0  35.089   3.174
 128.0  35.089   3.173
 129.0  35.090   3.174
 130.0  35.092   3.180
 131.0  35.094   3.189
 132.0  35.094   3.189
 133.0  35.094   3.181
 134.0  35.094   3.174
 135.0  35.089   3.130
 136.0  35.081   3.056
 137.0  35.073   2.996
 138.0  35.067   2.949
 139.0  35.062   2.873
 140.0  35.050   2.816
 141.0  35.043   2.718
 142.0  35.034   2.648
 143.0  35.026   2.598
 144.0  35.026   2.550
 145.0  35.024   2.539
 146.0  35.024   2.514
 147.0  35.021   2.485
 148.0  35.021   2.475
 149.0  35.020   2.465
 150.0  35.021   2.458
 151.0  35.020   2.451
 152.0  35.020   2.447
 153.0  35.020   2.445
 154.0  35.022   2.453
 155.0  35.025   2.467
 156.0  35.027   2.480
 157.0  35.031   2.499
 158.0  35.031   2.543
 159.0  35.041   2.558
 160.0  35.043   2.584
 161.0  35.046   2.602
 162.0  35.049   2.627
 163.0  35.050   2.632
 164.0  35.050   2.633
 165.0  35.051   2.630
 166.0  35.049   2.609
 167.0  35.047   2.591
 168.0  35.046   2.576
 169.0  35.045   2.566
 170.0  35.044   2.560
 171.0  35.044   2.554
 172.0  35.043   2.542
 173.0  35.038   2.523
 174.0  35.039   2.496
 175.0  35.038   2.486
 176.0  35.037   2.473
 177.0  35.037   2.458
 178.0  35.036   2.452
 179.0  35.035   2.446
 180.0  35.034   2.437
 181.0  35.034   2.430
 182.0  35.034   2.425
 183.0  35.034   2.423
 184.0  35.034   2.421
 185.0  35.034   2.419
 186.0  35.034   2.418
 187.0  35.034   2.418
 188.0  35.034   2.417
 189.0  35.034   2.416
 190.0  35.035   2.417
 191.0  35.036   2.419
 192.0  35.038   2.430
 193.0  35.041   2.447
 194.0  35.041   2.451
 195.0  35.042   2.453
 196.0  35.042   2.453
 197.0  35.043   2.454
 198.0  35.043   2.454
 199.0  35.043   2.454
 200.0  35.044   2.456
 201.0  35.045   2.458
 202.0  35.045   2.453
 203.0  35.044   2.444
 204.0  35.042   2.415
 205.0  35.041   2.394
 206.0  35.041   2.375
 207.0  35.042   2.370
 208.0  35.043   2.367
 209.0  35.045   2.365
 210.0  35.046   2.364
 211.0  35.047   2.362
 212.0  35.049   2.363
 213.0  35.050   2.363
 214.0  35.051   2.363
 215.0  35.053   2.362
 216.0  35.054   2.361
 217.0  35.055   2.361
 218.0  35.056   2.360
 219.0  35.060   2.355
 220.0  35.062   2.353
 221.0  35.063   2.352
 222.0  35.064   2.350
 223.0  35.065   2.348
 224.0  35.066   2.346
 225.0  35.067   2.344
 226.0  35.067   2.340
 227.0  35.068   2.339
 228.0  35.070   2.333
 229.0  35.072   2.329
 230.0  35.073   2.327
 231.0  35.076   2.315
 232.0  35.076   2.312
 233.0  35.077   2.307
 234.0  35.079   2.305
 235.0  35.080   2.295
 236.0  35.081   2.287
 237.0  35.085   2.269
 238.0  35.089   2.251
 239.0  35.100   2.200
 240.0  35.100   2.182
 241.0  35.113   2.102
 242.0  35.114   2.093
 243.0  35.118   2.059
 244.0  35.123   2.033
 245.0  35.126   2.016
 246.0  35.127   2.007
 247.0  35.130   1.999
 248.0  35.130   1.993
 249.0  35.132   1.983
 250.0  35.133   1.974
 251.0  35.135   1.966
 252.0  35.137   1.947
 253.0  35.138   1.938
 254.0  35.139   1.928
 255.0  35.140   1.920
 256.0  35.140   1.916
 257.0  35.141   1.912
 258.0  35.142   1.907
 259.0  35.142   1.901
 260.0  35.142   1.887
 261.0  35.144   1.878
 262.0  35.144   1.871
 263.0  35.145   1.864
 264.0  35.146   1.858
 265.0  35.146   1.851
 266.0  35.148   1.837
 267.0  35.148   1.835
 268.0  35.148   1.832
 269.0  35.148   1.826
 270.0  35.148   1.821
 271.0  35.149   1.820
 272.0  35.149   1.816
 273.0  35.150   1.814
 274.0  35.150   1.813
 275.0  35.150   1.812
 276.0  35.150   1.811
 277.0  35.150   1.810
 278.0  35.150   1.810
 279.0  35.150   1.810
 280.0  35.150   1.810
 281.0  35.149   1.809
 282.0  35.151   1.808
 283.0  35.150   1.804
 284.0  35.150   1.801
 285.0  35.150   1.799
 286.0  35.151   1.798
 287.0  35.150   1.796
 288.0  35.150   1.795
 289.0  35.150   1.795
 290.0  35.151   1.792
 291.0  35.151   1.791
 292.0  35.151   1.791
 293.0  35.150   1.790
 294.0  35.132   1.784
