   1.0  31.469   4.635
   2.0  32.184   4.126
   3.0  32.842   3.760
   4.0  33.289   3.831
   5.0  33.480   4.008
   6.0  33.669   4.132
   7.0  33.886   4.438
   8.0  34.068   4.759
   9.0  34.201   4.855
  10.0  34.331   4.896
  11.0  34.457   4.640
  12.0  34.613   4.281
  13.0  34.638   4.098
  14.0  34.698   4.126
  15.0  34.719   4.082
  16.0  34.725   3.911
  17.0  34.739   3.721
  18.0  34.761   3.735
  19.0  34.806   3.836
  20.0  34.805   3.539
  21.0  34.789   3.389
  22.0  34.789   3.321
  23.0  34.807   3.411
  24.0  34.883   3.745
  25.0  34.919   3.849
  26.0  34.938   3.885
  27.0  34.940   3.869
  28.0  34.941   3.862
  29.0  34.943   3.852
  30.0  34.938   3.775
  31.0  34.916   3.478
  32.0  34.881   3.143
  33.0  34.870   3.055
  34.0  34.865   2.934
  35.0  34.853   2.770
  36.0  34.861   2.804
  37.0  34.860   2.750
  38.0  34.844   2.566
  39.0  34.839   2.485
  40.0  34.844   2.508
  41.0  34.856   2.581
  42.0  34.859   2.511
  43.0  34.850   2.411
  44.0  34.849   2.338
  45.0  34.837   2.194
  46.0  34.826   2.092
  47.0  34.820   2.029
  48.0  34.814   1.954
  49.0  34.811   1.939
  50.0  34.810   1.940
  51.0  34.809   1.943
  52.0  34.808   1.948
  53.0  34.810   1.970
  54.0  34.815   2.014
  55.0  34.815   1.998
  56.0  34.818   2.062
  57.0  34.840   2.261
  58.0  34.863   2.429
  59.0  34.931   2.851
  60.0  34.968   3.041
  61.0  34.980   3.122
  62.0  35.006   3.275
  63.0  35.028   3.399
  64.0  35.032   3.416
  65.0  35.038   3.421
  66.0  35.024   3.238
  67.0  34.986   2.961
  68.0  34.965   2.831
  69.0  34.975   2.900
  70.0  35.009   3.114
  71.0  35.028   3.253
  72.0  35.033   3.253
  73.0  35.033   3.238
  74.0  35.034   3.236
  75.0  35.035   3.230
  76.0  35.033   3.192
  77.0  35.028   3.130
  78.0  35.024   3.088
  79.0  35.022   3.063
  80.0  35.015   2.982
  81.0  35.003   2.885
  82.0  34.998   2.847
  83.0  34.992   2.781
  84.0  34.992   2.786
  85.0  34.995   2.796
  86.0  34.994   2.784
  87.0  34.993   2.771
  88.0  34.991   2.757
  89.0  34.989   2.730
  90.0  34.985   2.698
  91.0  34.982   2.665
  92.0  34.980   2.650
  93.0  34.986   2.683
  94.0  34.988   2.699
  95.0  34.994   2.733
  96.0  34.997   2.748
  97.0  34.999   2.748
  98.0  35.003   2.774
  99.0  35.008   2.824
 100.0  35.013   2.844
 101.0  35.012   2.830
 102.0  35.030   2.999
 103.0  35.049   3.116
 104.0  35.052   3.141
 105.0  35.060   3.174
 106.0  35.062   3.178
 107.0  35.058   3.140
 108.0  35.048   3.059
 109.0  35.028   2.916
 110.0  35.023   2.849
 111.0  35.018   2.815
 112.0  35.016   2.800
 113.0  35.014   2.763
 114.0  35.013   2.759
 115.0  35.015   2.770
 116.0  35.017   2.788
 117.0  35.021   2.812
 118.0  35.023   2.821
 119.0  35.023   2.819
 120.0  35.022   2.816
 121.0  35.022   2.818
 122.0  35.023   2.820
 123.0  35.022   2.816
 124.0  35.023   2.815
 125.0  35.025   2.825
 126.0  35.029   2.846
 127.0  35.033   2.861
 128.0  35.036   2.883
 129.0  35.044   2.946
 130.0  35.059   3.028
 131.0  35.061   3.029
