   1.0  33.428   5.098
   2.0  33.562   5.063
   3.0  33.602   5.073
   4.0  33.663   5.131
   5.0  33.771   5.194
   6.0  33.889   5.285
   7.0  33.977   5.306
   8.0  34.130   5.040
   9.0  34.425   4.640
  10.0  34.492   4.546
  11.0  34.538   4.426
  12.0  34.576   4.200
  13.0  34.614   4.138
  14.0  34.626   3.947
  15.0  34.646   3.943
  16.0  34.686   4.005
  17.0  34.739   4.226
  18.0  34.765   4.257
  19.0  34.804   4.321
  20.0  34.833   4.347
  21.0  34.853   4.209
  22.0  34.880   4.216
  23.0  34.909   4.280
  24.0  34.939   4.304
  25.0  34.956   4.291
  26.0  34.969   4.285
  27.0  34.967   4.217
  28.0  34.957   4.095
  29.0  34.972   4.111
  30.0  34.986   4.133
  31.0  34.985   4.050
  32.0  34.919   3.430
  33.0  34.847   2.839
  34.0  34.838   2.768
  35.0  34.870   2.924
  36.0  34.845   2.638
  37.0  34.834   2.512
  38.0  34.829   2.453
  39.0  34.827   2.443
  40.0  34.833   2.498
  41.0  34.844   2.577
  42.0  34.862   2.690
  43.0  34.867   2.664
  44.0  34.897   2.834
  45.0  34.914   2.954
  46.0  34.924   2.992
  47.0  34.923   2.971
  48.0  34.913   2.871
  49.0  34.897   2.723
  50.0  34.886   2.644
  51.0  34.888   2.682
  52.0  34.894   2.782
  53.0  34.942   3.054
  54.0  34.981   3.201
  55.0  34.964   3.038
  56.0  34.937   2.784
  57.0  34.935   2.757
  58.0  34.934   2.746
  59.0  34.942   2.806
  60.0  34.970   2.991
  61.0  34.989   3.097
  62.0  34.987   3.096
  63.0  34.989   3.117
  64.0  35.003   3.209
  65.0  35.009   3.257
  66.0  35.039   3.403
  67.0  35.040   3.405
  68.0  35.039   3.401
  69.0  35.038   3.397
  70.0  35.038   3.396
  71.0  35.037   3.393
  72.0  35.036   3.391
  73.0  35.044   3.445
  74.0  35.064   3.553
  75.0  35.069   3.569
  76.0  35.067   3.557
  77.0  35.071   3.576
  78.0  35.077   3.599
  79.0  35.053   3.372
  80.0  35.021   3.145
  81.0  35.026   3.192
  82.0  35.058   3.402
  83.0  35.058   3.390
  84.0  35.058   3.396
  85.0  35.066   3.438
  86.0  35.062   3.393
  87.0  35.059   3.349
  88.0  35.057   3.328
  89.0  35.055   3.319
  90.0  35.055   3.321
  91.0  35.056   3.320
  92.0  35.056   3.332
  93.0  35.059   3.353
  94.0  35.066   3.395
  95.0  35.069   3.412
  96.0  35.074   3.442
  97.0  35.075   3.445
  98.0  35.075   3.451
  99.0  35.076   3.457
 100.0  35.078   3.471
 101.0  35.079   3.473
 102.0  35.080   3.475
 103.0  35.080   3.474
 104.0  35.080   3.470
 105.0  35.081   3.475
 106.0  35.078   3.443
 107.0  35.074   3.396
 108.0  35.069   3.358
 109.0  35.066   3.311
 110.0  35.061   3.263
 111.0  35.055   3.174
 112.0  35.038   3.048
 113.0  35.027   2.968
 114.0  35.025   2.941
 115.0  35.021   2.913
 116.0  35.020   2.900
 117.0  35.019   2.889
 118.0  35.018   2.880
 119.0  35.016   2.869
 120.0  35.016   2.867
 121.0  35.018   2.885
 122.0  35.025   2.931
 123.0  35.027   2.946
 124.0  35.028   2.955
 125.0  35.032   2.978
 126.0  35.034   2.989
 127.0  35.035   2.991
 128.0  35.035   2.993
 129.0  35.036   2.996
 130.0  35.036   2.993
 131.0  35.036   2.991
 132.0  35.037   2.990
 133.0  35.037   2.986
 134.0  35.037   2.983
 135.0  35.037   2.982
 136.0  35.037   2.981
 137.0  35.036   2.979
 138.0  35.036   2.975
 139.0  35.036   2.976
 140.0  35.036   2.973
 141.0  35.037   2.972
 142.0  35.036   2.969
 143.0  35.036   2.962
 144.0  35.034   2.945
 145.0  35.036   2.959
 146.0  35.040   2.982
 147.0  35.044   3.002
 148.0  35.043   2.985
 149.0  35.042   2.973
 150.0  35.040   2.961
 151.0  35.040   2.951
 152.0  35.040   2.952
 153.0  35.038   2.946
 154.0  35.039   2.950
 155.0  35.038   2.952
 156.0  35.043   2.997
 157.0  35.049   3.033
 158.0  35.050   3.055
 159.0  35.073   3.216
 160.0  35.086   3.263
 161.0  35.086   3.249
 162.0  35.083   3.221
 163.0  35.082   3.224
 164.0  35.081   3.194
 165.0  35.076   3.158
 166.0  35.075   3.155
 167.0  35.076   3.160
 168.0  35.076   3.157
 169.0  35.074   3.144
 170.0  35.073   3.141
 171.0  35.073   3.132
 172.0  35.071   3.115
 173.0  35.071   3.113
 174.0  35.071   3.120
 175.0  35.073   3.119
 176.0  35.067   3.081
 177.0  35.070   3.109
 178.0  35.076   3.142
 179.0  35.078   3.157
 180.0  35.083   3.177
 181.0  35.084   3.179
 182.0  35.083   3.173
 183.0  35.083   3.173
 184.0  35.084   3.178
 185.0  35.086   3.179
 186.0  35.085   3.168
 187.0  35.083   3.143
 188.0  35.081   3.128
 189.0  35.083   3.136
 190.0  35.089   3.163
 191.0  35.092   3.167
 192.0  35.082   3.045
 193.0  35.071   2.968
 194.0  35.073   2.964
 195.0  35.062   2.821
 196.0  35.024   2.563
 197.0  35.017   2.525
 198.0  35.022   2.572
 199.0  35.031   2.620
 200.0  35.029   2.609
 201.0  35.029   2.619
 202.0  35.030   2.632
 203.0  35.050   2.757
 204.0  35.051   2.759
 205.0  35.049   2.736
 206.0  35.044   2.700
 207.0  35.053   2.752
 208.0  35.059   2.793
 209.0  35.066   2.839
 210.0  35.069   2.849
 211.0  35.070   2.851
 212.0  35.070   2.849
 213.0  35.069   2.841
 214.0  35.068   2.826
 215.0  35.065   2.792
 216.0  35.065   2.777
 217.0  35.065   2.763
 218.0  35.065   2.753
 219.0  35.064   2.737
 220.0  35.063   2.715
 221.0  35.060   2.679
 222.0  35.055   2.607
 223.0  35.053   2.565
 224.0  35.055   2.552
 225.0  35.056   2.520
 226.0  35.054   2.446
 227.0  35.054   2.409
 228.0  35.057   2.396
 229.0  35.060   2.386
 230.0  35.064   2.377
 231.0  35.066   2.377
 232.0  35.068   2.376
 233.0  35.070   2.376
 234.0  35.070   2.376
 235.0  35.070   2.374
 236.0  35.072   2.373
 237.0  35.072   2.371
 238.0  35.072   2.369
 239.0  35.073   2.366
 240.0  35.075   2.361
 241.0  35.082   2.340
 242.0  35.088   2.326
 243.0  35.093   2.298
 244.0  35.099   2.260
 245.0  35.107   2.183
 246.0  35.111   2.151
 247.0  35.112   2.147
 248.0  35.113   2.141
 249.0  35.115   2.133
 250.0  35.117   2.123
 251.0  35.118   2.116
 252.0  35.119   2.112
 253.0  35.120   2.109
 254.0  35.122   2.100
 255.0  35.124   2.080
 256.0  35.127   2.062
 257.0  35.129   2.049
 258.0  35.130   2.030
 259.0  35.131   2.019
 260.0  35.132   2.011
 261.0  35.132   2.004
 262.0  35.134   1.996
 263.0  35.134   1.984
 264.0  35.135   1.973
 265.0  35.136   1.962
 266.0  35.136   1.954
 267.0  35.138   1.950
 268.0  35.139   1.943
 269.0  35.139   1.939
 270.0  35.139   1.935
 271.0  35.140   1.932
 272.0  35.141   1.922
 273.0  35.141   1.912
 274.0  35.142   1.906
 275.0  35.142   1.902
 276.0  35.142   1.898
 277.0  35.143   1.894
 278.0  35.143   1.891
 279.0  35.143   1.889
 280.0  35.144   1.886
 281.0  35.143   1.884
 282.0  35.144   1.882
 283.0  35.144   1.879
 284.0  35.144   1.876
 285.0  35.145   1.875
 286.0  35.145   1.872
 287.0  35.145   1.870
 288.0  35.145   1.868
 289.0  35.146   1.864
 290.0  35.146   1.858
 291.0  35.147   1.853
 292.0  35.147   1.851
 293.0  35.147   1.849
 294.0  35.147   1.847
 295.0  35.147   1.846
 296.0  35.147   1.844
 297.0  35.147   1.841
 298.0  35.147   1.839
 299.0  35.148   1.836
 300.0  35.148   1.835
 301.0  35.149   1.833
 302.0  35.149   1.830
 303.0  35.149   1.827
 304.0  35.149   1.825
 305.0  35.149   1.820
 306.0  35.149   1.818
 307.0  35.150   1.816
 308.0  35.150   1.812
 309.0  35.151   1.807
 310.0  35.151   1.806
 311.0  35.151   1.804
 312.0  35.151   1.801
 313.0  35.151   1.797
 314.0  35.151   1.794
 315.0  35.152   1.792
 316.0  35.152   1.791
 317.0  35.152   1.789
 318.0  35.152   1.787
 319.0  35.152   1.785
 320.0  35.153   1.783
 321.0  35.153   1.782
 322.0  35.153   1.780
 323.0  35.153   1.778
 324.0  35.153   1.774
 325.0  35.153   1.768
 326.0  35.153   1.764
 327.0  35.154   1.763
 328.0  35.154   1.762
 329.0  35.154   1.762
 330.0  35.154   1.762
 331.0  35.154   1.760
 332.0  35.155   1.758
 333.0  35.155   1.751
 334.0  35.155   1.745
 335.0  35.155   1.745
