   1.0  31.824   4.705
   2.0  32.466   4.452
   3.0  33.679   4.220
   4.0  33.896   4.215
   5.0  33.995   4.274
   6.0  34.048   4.370
   7.0  34.198   4.651
   8.0  34.321   4.622
   9.0  34.315   4.386
  10.0  34.326   4.354
  11.0  34.359   4.367
  12.0  34.387   4.383
  13.0  34.452   4.533
  14.0  34.536   4.540
  15.0  34.597   4.557
  16.0  34.637   4.482
  17.0  34.695   4.171
  18.0  34.720   3.843
  19.0  34.720   3.834
  20.0  34.733   3.867
  21.0  34.782   4.004
  22.0  34.820   4.034
  23.0  34.834   3.942
  24.0  34.893   3.910
  25.0  34.889   3.653
  26.0  34.850   3.252
  27.0  34.832   3.115
  28.0  34.835   3.087
  29.0  34.850   3.194
  30.0  34.922   3.758
  31.0  34.939   3.697
  32.0  34.919   3.351
  33.0  34.862   2.872
