   3.0  32.973   5.459
   4.0  32.985   5.474
   5.0  32.876   4.956
   6.0  32.870   4.965
   7.0  32.853   4.867
   8.0  33.040   4.951
   9.0  33.269   5.580
  10.0  33.518   6.166
  11.0  33.765   6.601
  12.0  33.840   6.689
  13.0  33.867   6.587
  14.0  33.913   6.465
  15.0  33.969   6.466
  16.0  34.002   6.273
  17.0  34.055   5.935
  18.0  34.087   5.904
  19.0  34.124   5.879
  20.0  34.184   5.512
  21.0  34.210   5.502
  22.0  34.228   5.529
  23.0  34.272   5.606
  24.0  34.319   5.634
  25.0  34.366   5.649
  26.0  34.409   5.669
  27.0  34.510   6.047
  28.0  34.534   6.023
  29.0  34.549   5.795
  30.0  34.518   5.399
  31.0  34.547   4.736
  32.0  34.631   4.926
  33.0  34.679   5.124
  34.0  34.630   4.839
  35.0  34.647   4.555
  36.0  34.676   4.586
  37.0  34.684   4.582
  38.0  34.693   4.506
  39.0  34.701   4.527
  40.0  34.699   4.536
  41.0  34.690   4.516
  42.0  34.691   4.403
  43.0  34.712   4.475
  44.0  34.719   4.486
  45.0  34.747   4.542
  46.0  34.772   4.612
  47.0  34.778   4.612
  48.0  34.784   4.621
  49.0  34.794   4.584
  50.0  34.803   4.551
  51.0  34.808   4.530
  52.0  34.808   4.524
  53.0  34.806   4.511
  54.0  34.816   4.490
  55.0  34.820   4.510
  56.0  34.840   4.598
  57.0  34.857   4.703
  58.0  34.876   4.756
  59.0  34.898   4.848
  60.0  34.898   4.829
  61.0  34.894   4.771
  62.0  34.887   4.693
  63.0  34.883   4.541
  64.0  34.876   4.425
  65.0  34.865   4.235
  66.0  34.862   4.207
  67.0  34.859   4.148
  68.0  34.858   4.133
  69.0  34.856   4.118
  70.0  34.853   4.077
  71.0  34.853   4.044
  72.0  34.855   4.027
  73.0  34.853   4.031
  74.0  34.859   4.054
  75.0  34.853   4.004
  76.0  34.832   3.654
  77.0  34.822   3.433
  78.0  34.817   3.299
  79.0  34.814   3.298
  80.0  34.820   3.359
  81.0  34.823   3.383
  82.0  34.817   3.300
  83.0  34.814   3.239
  84.0  34.813   3.242
  85.0  34.811   3.243
  86.0  34.815   3.268
  87.0  34.829   3.345
  88.0  34.837   3.417
  89.0  34.844   3.445
  90.0  34.846   3.447
  91.0  34.852   3.487
  92.0  34.864   3.568
  93.0  34.865   3.537
  94.0  34.875   3.547
  95.0  34.879   3.572
  96.0  34.880   3.580
  97.0  34.882   3.595
  98.0  34.882   3.583
  99.0  34.880   3.554
 100.0  34.878   3.481
 101.0  34.877   3.461
 102.0  34.876   3.442
 103.0  34.875   3.404
 104.0  34.875   3.400
 105.0  34.870   3.357
 106.0  34.864   3.280
 107.0  34.861   3.207
 108.0  34.857   3.172
 109.0  34.857   3.125
 110.0  34.874   3.204
 111.0  34.881   3.278
 112.0  34.884   3.318
 113.0  34.882   3.305
 114.0  34.875   3.200
 115.0  34.871   3.126
 116.0  34.867   3.105
 117.0  34.864   3.068
 118.0  34.866   3.062
 119.0  34.866   3.068
 120.0  34.865   3.060
 121.0  34.865   3.056
 122.0  34.863   3.031
 123.0  34.866   3.037
 124.0  34.871   3.084
 125.0  34.875   3.115
 126.0  34.876   3.121
 127.0  34.877   3.129
 128.0  34.878   3.137
 129.0  34.880   3.147
 130.0  34.883   3.168
 131.0  34.884   3.176
 132.0  34.886   3.180
 133.0  34.892   3.208
 134.0  34.894   3.228
 135.0  34.894   3.228
 136.0  34.891   3.186
 137.0  34.890   3.141
 138.0  34.890   3.144
 139.0  34.892   3.151
 140.0  34.894   3.156
 141.0  34.891   3.151
 142.0  34.895   3.158
 143.0  34.896   3.171
 144.0  34.892   3.172
 145.0  34.893   3.149
 146.0  34.892   3.130
 147.0  34.893   3.117
 148.0  34.908   3.199
 149.0  34.910   3.257
 150.0  34.911   3.253
 151.0  34.911   3.249
 152.0  34.911   3.248
 153.0  34.911   3.247
 154.0  34.912   3.249
 155.0  34.915   3.264
 156.0  34.915   3.270
 157.0  34.916   3.269
 158.0  34.916   3.271
 159.0  34.916   3.273
 160.0  34.917   3.271
 161.0  34.920   3.284
 162.0  34.920   3.287
 163.0  34.921   3.285
 164.0  34.920   3.284
 165.0  34.916   3.268
 166.0  34.917   3.232
 167.0  34.915   3.219
 168.0  34.913   3.204
 169.0  34.911   3.178
 170.0  34.907   3.136
 171.0  34.900   3.063
 172.0  34.893   2.963
 173.0  34.887   2.890
 174.0  34.887   2.882
 175.0  34.890   2.907
 176.0  34.892   2.922
 177.0  34.893   2.932
 178.0  34.893   2.933
 179.0  34.893   2.930
 180.0  34.890   2.920
 181.0  34.882   2.833
 182.0  34.882   2.798
 183.0  34.880   2.761
 184.0  34.880   2.753
 185.0  34.882   2.776
 186.0  34.885   2.792
 187.0  34.898   2.890
 188.0  34.901   2.906
 189.0  34.907   2.945
 190.0  34.907   2.943
 191.0  34.913   2.968
 192.0  34.918   3.021
 193.0  34.922   3.050
 194.0  34.924   3.051
 195.0  34.925   3.055
 196.0  34.925   3.040
 197.0  34.925   3.036
 198.0  34.925   3.037
 199.0  34.925   3.038
 200.0  34.926   3.038
 201.0  34.927   3.039
 202.0  34.928   3.037
 203.0  34.928   3.036
 204.0  34.929   3.032
 205.0  34.930   3.030
 206.0  34.930   3.031
 207.0  34.930   3.012
 208.0  34.933   3.000
 209.0  34.933   2.996
 210.0  34.934   2.989
 211.0  34.934   2.979
 212.0  34.934   2.978
 213.0  34.934   2.978
 214.0  34.933   2.973
 215.0  34.934   2.952
 216.0  34.934   2.946
 217.0  34.934   2.943
 218.0  34.935   2.938
 219.0  34.933   2.927
 220.0  34.930   2.887
 221.0  34.929   2.857
 222.0  34.930   2.825
 223.0  34.930   2.805
 224.0  34.930   2.806
 225.0  34.928   2.808
 226.0  34.926   2.817
 227.0  34.928   2.794
 228.0  34.927   2.774
 229.0  34.929   2.727
 230.0  34.929   2.706
 231.0  34.928   2.686
 232.0  34.927   2.679
 233.0  34.927   2.668
 234.0  34.926   2.656
 235.0  34.926   2.641
 236.0  34.929   2.628
 237.0  34.930   2.627
 238.0  34.931   2.613
 239.0  34.932   2.602
 240.0  34.934   2.590
 241.0  34.935   2.577
 242.0  34.935   2.563
 243.0  34.936   2.556
 244.0  34.937   2.545
 245.0  34.939   2.529
 246.0  34.942   2.508
 247.0  34.944   2.475
 248.0  34.946   2.462
 249.0  34.947   2.438
 250.0  34.956   2.368
 251.0  34.961   2.349
 252.0  34.961   2.335
 253.0  34.962   2.317
 254.0  34.962   2.316
 255.0  34.963   2.309
 256.0  34.966   2.278
 257.0  34.967   2.267
 258.0  34.967   2.264
 259.0  34.966   2.258
 260.0  34.969   2.225
 261.0  34.970   2.215
 262.0  34.970   2.213
 263.0  34.971   2.181
 264.0  34.976   2.131
 265.0  34.983   2.074
 266.0  34.989   2.040
 267.0  34.989   2.037
 268.0  34.988   2.030
 269.0  34.991   2.009
 270.0  34.992   1.997
 271.0  34.992   1.988
 272.0  34.992   1.979
 273.0  34.995   1.964
 274.0  34.994   1.958
 275.0  35.003   1.949
 276.0  35.007   1.926
 277.0  35.000   1.915
 278.0  34.998   1.911
 279.0  34.999   1.910
 280.0  34.999   1.909
 281.0  35.000   1.902
 282.0  35.001   1.894
 283.0  35.001   1.892
 284.0  35.001   1.886
 285.0  35.002   1.881
 286.0  35.003   1.876
 287.0  35.003   1.867
 288.0  35.004   1.859
 289.0  35.005   1.855
 290.0  35.005   1.851
 291.0  35.005   1.849
 292.0  35.005   1.846
 293.0  35.005   1.843
 294.0  35.005   1.843
 295.0  35.005   1.842
 296.0  35.005   1.841
 297.0  35.005   1.841
 298.0  35.005   1.840
 299.0  35.005   1.838
 300.0  35.005   1.837
 301.0  35.005   1.837
 302.0  35.005   1.835
 303.0  35.006   1.832
 304.0  35.006   1.832
 305.0  35.006   1.831
 306.0  35.006   1.831
 307.0  35.006   1.831
 308.0  35.006   1.830
 309.0  35.006   1.829
 310.0  35.006   1.828
 311.0  35.006   1.827
 312.0  35.006   1.826
 313.0  35.006   1.821
 314.0  35.007   1.815
 315.0  35.008   1.809
 316.0  35.008   1.805
 317.0  35.008   1.805
 318.0  35.008   1.803
 319.0  35.008   1.803
 320.0  35.008   1.802
