   1.0  32.963   4.471
   2.0  33.605   4.230
   3.0  33.757   4.160
   4.0  33.871   4.152
   5.0  33.955   4.202
   6.0  34.038   4.410
   7.0  34.212   4.699
   8.0  34.254   4.777
   9.0  34.308   4.770
  10.0  34.339   4.605
  11.0  34.356   4.449
  12.0  34.415   4.403
  13.0  34.480   4.487
  14.0  34.537   4.551
  15.0  34.636   4.696
  16.0  34.643   4.521
  17.0  34.670   4.381
  18.0  34.707   4.263
  19.0  34.728   4.056
  20.0  34.800   4.165
  21.0  34.854   4.269
  22.0  34.865   4.247
  23.0  34.846   3.949
  24.0  34.840   3.858
  25.0  34.839   3.825
  26.0  34.836   3.771
  27.0  34.839   3.736
  28.0  34.839   3.725
  29.0  34.826   3.614
  30.0  34.824   3.461
  31.0  34.817   3.312
  32.0  34.816   3.075
  33.0  34.809   2.854
  34.0  34.818   2.726
  35.0  34.829   2.656
  36.0  34.834   2.611
  37.0  34.835   2.566
  38.0  34.837   2.514
  39.0  34.835   2.447
  40.0  34.832   2.355
  41.0  34.827   2.289
  42.0  34.826   2.227
  43.0  34.828   2.181
  44.0  34.829   2.156
  45.0  34.828   2.137
  46.0  34.829   2.122
  47.0  34.832   2.110
  48.0  34.834   2.102
  49.0  34.835   2.094
  50.0  34.835   2.087
  51.0  34.835   2.077
  52.0  34.835   2.051
  53.0  34.835   2.051
  54.0  34.838   2.048
  55.0  34.843   2.044
  56.0  34.848   2.050
  57.0  34.849   2.051
  58.0  34.852   2.050
  59.0  34.854   2.050
  60.0  34.856   2.054
  61.0  34.859   2.066
  62.0  34.862   2.087
  63.0  34.860   2.055
  64.0  34.861   2.020
  65.0  34.862   2.009
  66.0  34.864   2.010
  67.0  34.864   2.011
  68.0  34.866   2.016
  69.0  34.875   2.041
  70.0  34.882   2.086
  71.0  34.889   2.126
  72.0  34.894   2.177
  73.0  34.906   2.234
  74.0  34.913   2.298
  75.0  34.915   2.315
  76.0  34.918   2.328
  77.0  34.916   2.319
  78.0  34.914   2.293
  79.0  34.916   2.296
  80.0  34.913   2.280
  81.0  34.912   2.254
  82.0  34.910   2.233
  83.0  34.914   2.224
  84.0  34.921   2.240
  85.0  34.929   2.257
  86.0  34.932   2.272
  87.0  34.939   2.292
  88.0  34.940   2.300
  89.0  34.942   2.314
  90.0  34.943   2.326
  91.0  34.947   2.336
  92.0  34.949   2.348
  93.0  34.951   2.358
  94.0  34.951   2.358
