   1.0  32.649   2.340
   2.0  32.877   2.143
   3.0  32.971   2.141
   4.0  33.085   2.412
   5.0  33.275   2.990
   6.0  33.440   3.236
   7.0  33.573   3.325
   8.0  33.635   3.342
   9.0  33.676   3.331
  10.0  33.754   3.317
  11.0  33.824   3.377
  12.0  33.834   2.848
  13.0  33.807   2.563
  14.0  33.792   2.122
  15.0  33.885   2.125
  16.0  34.005   2.358
  17.0  34.028   2.440
  18.0  34.070   2.509
  19.0  34.163   2.653
  20.0  34.253   2.805
  21.0  34.345   3.063
  22.0  34.376   3.172
  23.0  34.397   2.855
  24.0  34.406   2.569
  25.0  34.414   2.372
  26.0  34.412   2.262
  27.0  34.418   2.323
  28.0  34.518   3.120
  29.0  34.564   3.060
  30.0  34.564   3.045
  31.0  34.599   3.215
  32.0  34.627   3.330
  33.0  34.629   3.202
  34.0  34.621   2.826
  35.0  34.599   2.719
  36.0  34.635   2.898
  37.0  34.625   2.718
  38.0  34.621   2.647
  39.0  34.688   2.950
  40.0  34.701   2.964
  41.0  34.714   2.978
  42.0  34.710   2.863
  43.0  34.713   2.895
  44.0  34.719   2.918
  45.0  34.726   2.951
  46.0  34.738   3.015
  47.0  34.742   3.027
  48.0  34.742   3.025
