   5.0  33.139   3.678
   6.0  33.198   3.795
   7.0  33.250   3.904
   8.0  33.273   3.954
   9.0  33.257   3.936
  10.0  33.386   4.065
  11.0  33.633   4.497
  12.0  33.707   4.579
  13.0  33.722   4.599
  14.0  33.742   4.614
  15.0  33.798   4.656
  16.0  33.806   4.662
  17.0  33.858   4.675
  18.0  33.882   4.683
  19.0  33.911   4.743
  20.0  33.941   4.810
  21.0  33.949   4.830
  22.0  33.960   4.854
  23.0  33.978   4.906
  24.0  34.017   4.965
  25.0  34.062   5.051
  26.0  34.093   5.112
  27.0  34.096   5.118
  28.0  34.105   5.129
  29.0  34.144   5.196
  30.0  34.198   5.267
  31.0  34.235   5.346
  32.0  34.280   5.407
  33.0  34.296   5.426
  34.0  34.304   5.437
  35.0  34.346   5.460
  36.0  34.389   5.509
  37.0  34.405   5.510
  38.0  34.420   5.522
  39.0  34.445   5.564
  40.0  34.458   5.575
  41.0  34.461   5.562
  42.0  34.496   5.581
  43.0  34.512   5.596
  44.0  34.515   5.600
  45.0  34.517   5.598
  46.0  34.535   5.590
  47.0  34.559   5.592
  48.0  34.567   5.591
  49.0  34.572   5.592
  50.0  34.575   5.592
  51.0  34.577   5.592
  52.0  34.580   5.593
  53.0  34.585   5.593
  54.0  34.592   5.582
  55.0  34.610   5.593
  56.0  34.621   5.478
  57.0  34.653   5.530
  58.0  34.675   5.597
  59.0  34.688   5.614
  60.0  34.696   5.637
  61.0  34.703   5.628
  62.0  34.708   5.630
  63.0  34.729   5.665
  64.0  34.715   5.585
  65.0  34.714   5.465
  66.0  34.731   5.527
  67.0  34.750   5.571
  68.0  34.744   5.489
  69.0  34.783   5.556
  70.0  34.800   5.600
  71.0  34.808   5.554
  72.0  34.813   5.565
  73.0  34.809   5.530
  74.0  34.805   5.500
  75.0  34.800   5.452
  76.0  34.800   5.431
  77.0  34.852   5.578
  78.0  34.872   5.701
  79.0  34.846   5.616
  80.0  34.806   5.286
  81.0  34.761   4.989
  82.0  34.757   4.846
  83.0  34.763   4.860
  84.0  34.761   4.777
  85.0  34.757   4.688
  86.0  34.752   4.588
  87.0  34.750   4.504
  88.0  34.753   4.464
  89.0  34.751   4.411
  90.0  34.776   4.460
  91.0  34.796   4.598
  92.0  34.781   4.509
  93.0  34.768   4.382
  94.0  34.765   4.244
  95.0  34.762   4.202
  96.0  34.762   4.142
  97.0  34.758   4.053
  98.0  34.771   4.042
  99.0  34.799   4.195
 100.0  34.811   4.276
 101.0  34.810   4.195
 102.0  34.813   4.181
 103.0  34.810   4.164
 104.0  34.806   4.132
 105.0  34.799   4.100
 106.0  34.780   3.921
 107.0  34.777   3.876
 108.0  34.772   3.822
 109.0  34.784   3.806
 110.0  34.801   3.918
 111.0  34.802   3.938
 112.0  34.794   3.874
 113.0  34.796   3.854
 114.0  34.786   3.794
 115.0  34.778   3.731
 116.0  34.784   3.701
 117.0  34.788   3.747
 118.0  34.782   3.701
 119.0  34.775   3.631
 120.0  34.785   3.654
 121.0  34.776   3.608
 122.0  34.777   3.544
 123.0  34.776   3.529
 124.0  34.775   3.518
 125.0  34.769   3.474
 126.0  34.770   3.422
 127.0  34.770   3.418
 128.0  34.769   3.353
 129.0  34.772   3.333
 130.0  34.770   3.281
 131.0  34.771   3.251
 132.0  34.770   3.237
 133.0  34.767   3.212
 134.0  34.767   3.174
 135.0  34.764   3.155
 136.0  34.762   3.110
 137.0  34.760   3.092
 138.0  34.752   3.018
 139.0  34.748   2.942
 140.0  34.746   2.888
 141.0  34.747   2.865
 142.0  34.746   2.862
 143.0  34.746   2.842
 144.0  34.741   2.792
 145.0  34.740   2.738
 146.0  34.735   2.670
 147.0  34.743   2.625
 148.0  34.746   2.624
 149.0  34.748   2.629
 150.0  34.751   2.667
 151.0  34.754   2.673
 152.0  34.754   2.650
 153.0  34.752   2.609
 154.0  34.752   2.583
 155.0  34.751   2.579
 156.0  34.750   2.573
 157.0  34.752   2.544
 158.0  34.755   2.518
 159.0  34.758   2.541
 160.0  34.765   2.561
 161.0  34.767   2.565
 162.0  34.763   2.549
 163.0  34.763   2.519
 164.0  34.761   2.482
 165.0  34.764   2.484
 166.0  34.767   2.500
 167.0  34.765   2.497
 168.0  34.763   2.458
 169.0  34.764   2.458
 170.0  34.767   2.451
 171.0  34.771   2.442
 172.0  34.773   2.436
 173.0  34.775   2.415
 174.0  34.777   2.405
 175.0  34.778   2.404
 176.0  34.778   2.402
 177.0  34.779   2.402
 178.0  34.779   2.401
 179.0  34.779   2.401
 180.0  34.779   2.400
 181.0  34.781   2.400
 182.0  34.785   2.398
 183.0  34.787   2.397
 184.0  34.790   2.400
 185.0  34.791   2.400
 186.0  34.792   2.401
