   1.0  32.500   3.811
   2.0  33.163   3.454
   3.0  33.457   3.388
   4.0  33.612   3.381
   5.0  33.622   3.390
   6.0  33.648   3.432
   7.0  33.669   3.456
   8.0  33.679   3.458
   9.0  33.723   3.450
  10.0  33.757   3.459
  11.0  33.765   3.461
  12.0  33.770   3.431
  13.0  33.786   3.375
  14.0  33.842   3.344
  15.0  33.853   2.465
  16.0  33.905   1.885
  17.0  33.900   1.890
  18.0  34.155   3.014
  19.0  34.289   3.033
  20.0  34.374   3.288
  21.0  34.417   3.435
  22.0  34.438   3.407
  23.0  34.480   3.482
  24.0  34.509   3.477
  25.0  34.537   3.481
  26.0  34.573   3.454
  27.0  34.591   3.463
  28.0  34.614   3.441
  29.0  34.613   3.385
  30.0  34.667   3.409
  31.0  34.678   3.426
  32.0  34.692   3.381
  33.0  34.758   3.130
  34.0  34.789   3.028
  35.0  34.809   2.828
  36.0  34.811   2.777
  37.0  34.813   2.734
  38.0  34.811   2.739
  39.0  34.812   2.736
  40.0  34.815   2.708
