   1.0  32.063   4.135
   2.0  32.089   4.146
   3.0  32.101   4.167
   4.0  32.121   4.166
   5.0  32.201   4.138
   6.0  32.457   3.946
   7.0  32.901   3.691
   8.0  33.190   3.549
   9.0  33.434   3.428
  10.0  33.474   3.387
  11.0  33.568   3.395
  12.0  33.942   3.521
  13.0  33.976   3.581
  14.0  34.040   3.658
  15.0  34.124   3.740
  16.0  34.202   3.807
  17.0  34.316   3.874
  18.0  34.402   3.933
  19.0  34.478   4.128
  20.0  34.554   4.225
  21.0  34.623   4.260
  22.0  34.631   4.231
  23.0  34.636   4.142
  24.0  34.643   4.068
  25.0  34.676   4.046
  26.0  34.687   4.041
  27.0  34.697   4.040
  28.0  34.722   4.096
  29.0  34.728   4.099
  30.0  34.739   4.063
  31.0  34.753   4.027
  32.0  34.759   3.925
  33.0  34.760   3.868
  34.0  34.772   3.801
  35.0  34.779   3.746
  36.0  34.789   3.590
  37.0  34.774   3.323
  38.0  34.770   3.292
  39.0  34.768   3.238
  40.0  34.768   3.188
  41.0  34.771   3.192
  42.0  34.778   3.216
  43.0  34.794   3.173
  44.0  34.823   3.216
