   1.0  31.663   4.644
   2.0  32.080   4.298
   3.0  32.609   3.898
   4.0  33.018   3.717
   5.0  33.739   3.762
   6.0  34.045   4.047
   7.0  34.163   4.149
   8.0  34.293   4.303
   9.0  34.407   4.473
  10.0  34.489   4.504
  11.0  34.536   4.459
  12.0  34.550   4.423
  13.0  34.575   4.355
  14.0  34.601   4.319
  15.0  34.624   4.262
  16.0  34.619   4.002
  17.0  34.655   3.941
  18.0  34.694   3.955
  19.0  34.799   4.180
  20.0  34.820   4.114
  21.0  34.828   3.857
  22.0  34.830   3.527
  23.0  34.840   3.405
  24.0  34.840   3.229
  25.0  34.833   3.141
  26.0  34.827   3.092
  27.0  34.818   3.035
  28.0  34.847   3.177
  29.0  34.869   3.252
  30.0  34.866   3.196
  31.0  34.865   3.163
  32.0  34.847   3.006
  33.0  34.843   2.934
  34.0  34.845   2.929
  35.0  34.841   2.787
  36.0  34.827   2.631
  37.0  34.828   2.633
  38.0  34.830   2.624
  39.0  34.833   2.588
  40.0  34.830   2.404
  41.0  34.814   2.167
  42.0  34.813   2.117
  43.0  34.813   2.088
  44.0  34.813   2.064
  45.0  34.815   2.042
  46.0  34.817   2.008
  47.0  34.824   2.008
  48.0  34.823   2.011
  49.0  34.824   2.010
  50.0  34.828   2.007
  51.0  34.832   2.014
  52.0  34.842   2.022
  53.0  34.846   2.031
  54.0  34.850   2.035
  55.0  34.851   2.036
  56.0  34.850   2.035
  57.0  34.850   2.033
  58.0  34.849   2.032
  59.0  34.848   2.031
  60.0  34.849   2.030
  61.0  34.851   2.030
  62.0  34.854   2.031
  63.0  34.863   2.047
  64.0  34.869   2.055
  65.0  34.877   2.070
  66.0  34.886   2.087
  67.0  34.882   2.084
  68.0  34.886   2.105
  69.0  34.896   2.143
  70.0  34.905   2.175
  71.0  34.923   2.237
  72.0  34.934   2.278
