   2.0  31.747   4.404
   3.0  31.763   4.372
   4.0  31.838   4.286
   5.0  32.060   4.063
   6.0  32.206   3.894
   7.0  32.249   3.840
   8.0  32.510   3.305
   9.0  33.189   2.681
  10.0  33.499   2.633
  11.0  33.837   2.690
  12.0  34.083   3.003
  13.0  34.187   3.157
  14.0  34.343   3.766
  15.0  34.409   4.035
  16.0  34.430   4.075
  17.0  34.441   4.077
  18.0  34.467   4.033
  19.0  34.541   4.026
  20.0  34.619   4.008
  21.0  34.642   3.974
  22.0  34.665   4.013
  23.0  34.670   4.014
  24.0  34.674   4.008
  25.0  34.679   4.019
  26.0  34.684   4.013
  27.0  34.686   4.011
  28.0  34.698   3.987
  29.0  34.716   3.970
  30.0  34.723   3.976
  31.0  34.728   3.983
  32.0  34.731   3.990
  33.0  34.743   4.017
  34.0  34.752   4.029
  35.0  34.751   4.018
  36.0  34.751   3.990
  37.0  34.750   3.937
  38.0  34.756   3.813
  39.0  34.769   3.834
  40.0  34.781   3.785
  41.0  34.777   3.689
  42.0  34.774   3.636
  43.0  34.778   3.623
  44.0  34.780   3.583
  45.0  34.787   3.576
  46.0  34.790   3.570
  47.0  34.793   3.547
  48.0  34.787   3.402
  49.0  34.779   3.310
  50.0  34.768   2.972
  51.0  34.765   2.785
  52.0  34.763   2.588
  53.0  34.763   2.503
  54.0  34.767   2.441
  55.0  34.773   2.326
  56.0  34.796   2.172
  57.0  34.816   2.033
  58.0  34.835   1.891
  59.0  34.850   1.824
  60.0  34.860   1.766
  61.0  34.876   1.677
  62.0  34.910   1.488
  63.0  34.974   1.132
  64.0  35.005   1.035
  65.0  35.027   0.950
  66.0  35.042   0.900
  67.0  35.047   0.887
  68.0  35.055   0.856
  69.0  35.059   0.842
  70.0  35.060   0.835
  71.0  35.062   0.829
  72.0  35.066   0.806
