   1.0  33.387   4.646
   2.0  33.551   4.363
   3.0  33.671   3.962
   4.0  33.864   4.485
   5.0  34.165   4.898
   6.0  34.315   4.946
   7.0  34.427   4.862
   8.0  34.467   4.723
   9.0  34.505   4.618
  10.0  34.577   4.386
  11.0  34.605   4.244
  12.0  34.618   4.165
  13.0  34.625   4.083
  14.0  34.627   4.058
  15.0  34.638   4.086
  16.0  34.680   4.189
  17.0  34.751   4.264
  18.0  34.781   4.119
  19.0  34.780   3.962
  20.0  34.790   3.836
  21.0  34.790   3.708
  22.0  34.797   3.693
  23.0  34.807   3.699
  24.0  34.821   3.723
  25.0  34.844   3.758
  26.0  34.849   3.673
  27.0  34.846   3.510
  28.0  34.829   3.276
  29.0  34.832   3.281
  30.0  34.845   3.307
  31.0  34.847   3.191
  32.0  34.852   3.173
  33.0  34.871   3.221
  34.0  34.874   3.185
  35.0  34.874   3.096
  36.0  34.867   2.990
  37.0  34.861   2.929
  38.0  34.858   2.836
  39.0  34.853   2.749
  40.0  34.846   2.656
  41.0  34.843   2.611
  42.0  34.840   2.557
  43.0  34.833   2.467
  44.0  34.821   2.315
  45.0  34.815   2.250
  46.0  34.815   2.240
  47.0  34.818   2.237
  48.0  34.820   2.219
  49.0  34.821   2.178
  50.0  34.817   2.080
  51.0  34.812   2.005
  52.0  34.810   1.973
  53.0  34.809   1.945
  54.0  34.810   1.932
  55.0  34.814   1.921
  56.0  34.818   1.914
  57.0  34.821   1.925
  58.0  34.827   1.943
  59.0  34.834   1.960
  60.0  34.842   1.977
  61.0  34.848   1.987
  62.0  34.850   1.972
  63.0  34.849   1.961
  64.0  34.849   1.935
  65.0  34.851   1.894
  66.0  34.854   1.902
  67.0  34.861   1.924
  68.0  34.867   1.946
  69.0  34.871   1.958
  70.0  34.872   1.965
  71.0  34.877   1.981
  72.0  34.886   2.010
  73.0  34.889   2.018
  74.0  34.890   2.020
  75.0  34.891   2.022
  76.0  34.892   2.022
  77.0  34.893   2.022
  78.0  34.895   2.024
  79.0  34.896   2.026
  80.0  34.898   2.028
  81.0  34.901   2.036
  82.0  34.904   2.050
  83.0  34.910   2.072
  84.0  34.913   2.083
  85.0  34.917   2.097
  86.0  34.919   2.110
  87.0  34.923   2.139
  88.0  34.933   2.204
  89.0  34.937   2.224
  90.0  34.939   2.248
  91.0  34.945   2.286
  92.0  34.946   2.304
  93.0  34.947   2.323
  94.0  34.951   2.369
  95.0  34.969   2.532
  96.0  34.993   2.706
  97.0  35.013   2.856
  98.0  35.044   3.055
  99.0  35.047   3.075
 100.0  35.049   3.084
 101.0  35.052   3.113
 102.0  35.063   3.178
 103.0  35.063   3.175
 104.0  35.071   3.218
 105.0  35.087   3.294
 106.0  35.087   3.295
 107.0  35.090   3.309
 108.0  35.094   3.334
 109.0  35.100   3.359
 110.0  35.102   3.363
 111.0  35.102   3.356
 112.0  35.100   3.333
 113.0  35.098   3.309
 114.0  35.099   3.307
 115.0  35.104   3.324
 116.0  35.105   3.321
 117.0  35.102   3.286
 118.0  35.087   3.167
 119.0  35.066   2.983
 120.0  35.062   2.957
 121.0  35.061   2.955
 122.0  35.061   2.955
 123.0  35.062   2.956
 124.0  35.061   2.955
 125.0  35.061   2.954
 126.0  35.061   2.950
 127.0  35.060   2.948
 128.0  35.058   2.938
 129.0  35.059   2.942
 130.0  35.062   2.958
 131.0  35.062   2.959
 132.0  35.062   2.959
 133.0  35.063   2.962
 134.0  35.063   2.959
 135.0  35.062   2.951
 136.0  35.060   2.933
 137.0  35.057   2.914
 138.0  35.056   2.907
 139.0  35.057   2.908
 140.0  35.057   2.909
 141.0  35.057   2.913
 142.0  35.058   2.919
 143.0  35.059   2.928
 144.0  35.062   2.940
 145.0  35.066   2.968
 146.0  35.068   2.987
 147.0  35.073   3.009
 148.0  35.074   3.010
 149.0  35.073   3.002
 150.0  35.072   2.985
 151.0  35.070   2.967
 152.0  35.068   2.958
 153.0  35.068   2.948
 154.0  35.066   2.930
 155.0  35.065   2.910
 156.0  35.064   2.895
 157.0  35.062   2.878
 158.0  35.061   2.859
 159.0  35.060   2.853
 160.0  35.059   2.846
 161.0  35.059   2.844
 162.0  35.060   2.843
 163.0  35.059   2.846
 164.0  35.059   2.846
 165.0  35.059   2.836
 166.0  35.058   2.819
 167.0  35.058   2.819
 168.0  35.058   2.817
 169.0  35.058   2.811
 170.0  35.058   2.808
 171.0  35.058   2.810
 172.0  35.058   2.809
 173.0  35.059   2.807
 174.0  35.059   2.804
 175.0  35.058   2.801
 176.0  35.059   2.798
 177.0  35.059   2.792
 178.0  35.058   2.778
 179.0  35.056   2.756
 180.0  35.055   2.736
 181.0  35.052   2.701
 182.0  35.046   2.649
 183.0  35.045   2.629
 184.0  35.044   2.612
 185.0  35.042   2.584
 186.0  35.038   2.556
 187.0  35.036   2.523
 188.0  35.034   2.493
 189.0  35.034   2.490
 190.0  35.034   2.488
 191.0  35.033   2.485
 192.0  35.034   2.476
 193.0  35.034   2.476
 194.0  35.035   2.480
 195.0  35.037   2.493
 196.0  35.038   2.500
 197.0  35.038   2.498
 198.0  35.038   2.491
 199.0  35.038   2.485
 200.0  35.038   2.476
 201.0  35.038   2.472
 202.0  35.039   2.466
 203.0  35.039   2.464
 204.0  35.040   2.458
 205.0  35.040   2.450
 206.0  35.040   2.446
 207.0  35.040   2.444
 208.0  35.042   2.438
 209.0  35.044   2.425
 210.0  35.048   2.403
 211.0  35.051   2.384
 212.0  35.053   2.376
 213.0  35.054   2.373
 214.0  35.055   2.371
 215.0  35.055   2.369
 216.0  35.057   2.364
 217.0  35.059   2.354
 218.0  35.063   2.341
 219.0  35.068   2.323
 220.0  35.073   2.305
 221.0  35.075   2.297
 222.0  35.078   2.287
 223.0  35.081   2.272
 224.0  35.087   2.250
 225.0  35.094   2.220
 226.0  35.101   2.187
 227.0  35.107   2.156
 228.0  35.106   2.147
