   1.0  31.607   4.679
   2.0  31.958   4.392
   3.0  32.387   4.042
   4.0  32.676   3.868
   5.0  33.470   3.708
   6.0  33.894   3.853
   7.0  34.136   4.043
   8.0  34.232   4.171
   9.0  34.379   4.433
  10.0  34.482   4.522
  11.0  34.516   4.454
  12.0  34.537   4.416
  13.0  34.554   4.361
  14.0  34.589   4.344
  15.0  34.613   4.336
  16.0  34.608   4.157
  17.0  34.639   3.955
  18.0  34.676   3.933
  19.0  34.741   4.013
  20.0  34.817   4.236
  21.0  34.805   4.087
  22.0  34.801   4.019
  23.0  34.806   3.796
  24.0  34.827   3.694
  25.0  34.818   3.528
  26.0  34.810   3.306
  27.0  34.821   3.179
  28.0  34.812   2.957
  29.0  34.844   3.064
  30.0  34.853   3.047
  31.0  34.850   2.964
  32.0  34.849   2.922
  33.0  34.842   2.869
  34.0  34.838   2.807
  35.0  34.841   2.810
  36.0  34.845   2.802
  37.0  34.845   2.776
  38.0  34.838   2.697
  39.0  34.832   2.627
  40.0  34.823   2.513
  41.0  34.821   2.480
  42.0  34.825   2.481
  43.0  34.829   2.499
  44.0  34.829   2.454
  45.0  34.826   2.412
  46.0  34.822   2.364
  47.0  34.818   2.322
  48.0  34.815   2.282
  49.0  34.816   2.259
  50.0  34.810   2.122
  51.0  34.811   2.086
  52.0  34.815   2.078
  53.0  34.817   2.057
  54.0  34.835   2.061
  55.0  34.853   2.071
  56.0  34.857   2.064
  57.0  34.859   2.049
  58.0  34.860   2.030
  59.0  34.862   2.026
  60.0  34.862   2.030
  61.0  34.862   2.029
  62.0  34.864   2.027
  63.0  34.867   2.028
  64.0  34.868   2.029
  65.0  34.869   2.033
  66.0  34.870   2.036
  67.0  34.871   2.039
  68.0  34.873   2.041
  69.0  34.874   2.042
  70.0  34.874   2.042
  71.0  34.875   2.042
  72.0  34.876   2.042
  73.0  34.877   2.042
  74.0  34.878   2.046
  75.0  34.879   2.049
  76.0  34.883   2.051
  77.0  34.887   2.069
  78.0  34.885   2.061
  79.0  34.891   2.100
  80.0  34.893   2.122
  81.0  34.889   2.106
  82.0  34.889   2.102
  83.0  34.890   2.105
  84.0  34.889   2.102
  85.0  34.888   2.097
  86.0  34.892   2.112
  87.0  34.892   2.112
  88.0  34.892   2.112
  89.0  34.892   2.109
  90.0  34.892   2.109
  91.0  34.894   2.111
