   1.0  32.561   3.983
   2.0  32.849   3.812
   3.0  33.312   3.583
   4.0  33.525   3.476
   5.0  33.684   3.511
   6.0  33.763   3.532
   7.0  33.837   3.538
   8.0  33.931   3.606
   9.0  34.021   3.765
  10.0  34.097   3.965
  11.0  34.166   4.122
  12.0  34.335   4.619
  13.0  34.410   4.709
  14.0  34.533   4.588
  15.0  34.554   4.396
  16.0  34.585   4.335
  17.0  34.617   4.216
  18.0  34.645   4.077
  19.0  34.657   3.864
  20.0  34.685   3.747
  21.0  34.720   3.608
  22.0  34.744   3.499
  23.0  34.837   3.744
  24.0  34.920   4.066
  25.0  34.927   4.089
  26.0  34.928   4.064
  27.0  34.917   3.963
  28.0  34.887   3.771
  29.0  34.821   3.079
  30.0  34.792   2.764
  31.0  34.789   2.624
  32.0  34.794   2.592
  33.0  34.798   2.570
  34.0  34.792   2.419
  35.0  34.791   2.350
  36.0  34.793   2.342
  37.0  34.795   2.307
  38.0  34.803   2.324
  39.0  34.809   2.306
  40.0  34.805   2.207
  41.0  34.806   2.081
  42.0  34.809   2.016
  43.0  34.815   1.984
  44.0  34.821   1.958
  45.0  34.827   1.952
  46.0  34.832   1.945
  47.0  34.831   1.918
  48.0  34.833   1.905
  49.0  34.833   1.898
  50.0  34.836   1.893
  51.0  34.838   1.893
  52.0  34.840   1.895
  53.0  34.842   1.900
  54.0  34.853   1.967
  55.0  34.855   1.982
  56.0  34.863   2.006
  57.0  34.866   2.014
  58.0  34.869   2.016
  59.0  34.871   2.023
  60.0  34.877   2.038
  61.0  34.880   2.047
  62.0  34.880   2.052
  63.0  34.880   2.051
  64.0  34.880   2.049
  65.0  34.880   2.048
  66.0  34.879   2.048
  67.0  34.880   2.051
  68.0  34.882   2.061
  69.0  34.885   2.071
  70.0  34.889   2.088
  71.0  34.892   2.096
  72.0  34.893   2.098
  73.0  34.896   2.104
  74.0  34.893   2.101
  75.0  34.892   2.099
  76.0  34.893   2.101
  77.0  34.892   2.101
  78.0  34.894   2.105
  79.0  34.895   2.108
  80.0  34.900   2.108
  81.0  34.909   2.143
  82.0  34.913   2.163
