   1.0  31.962   4.403
   2.0  31.975   4.391
   3.0  31.985   4.380
   4.0  32.204   4.180
   5.0  32.688   3.968
   6.0  33.552   3.652
   7.0  33.874   3.596
   8.0  33.920   3.619
   9.0  34.017   3.745
  10.0  34.097   3.858
  11.0  34.180   4.037
  12.0  34.303   4.247
  13.0  34.314   4.258
  14.0  34.329   4.273
  15.0  34.333   4.276
  16.0  34.376   4.332
  17.0  34.518   4.396
  18.0  34.546   4.409
  19.0  34.602   4.437
  20.0  34.642   4.252
  21.0  34.659   4.206
  22.0  34.690   4.187
  23.0  34.691   4.041
  24.0  34.728   3.997
  25.0  34.791   4.069
  26.0  34.801   3.989
  27.0  34.843   3.827
  28.0  34.837   3.310
  29.0  34.843   3.107
  30.0  34.857   3.047
  31.0  34.847   2.788
  32.0  34.821   2.515
  33.0  34.831   2.408
