   2.0  34.021   5.067
   3.0  34.230   4.761
   4.0  34.331   4.724
   5.0  34.363   4.585
   6.0  34.409   4.535
   7.0  34.472   4.523
   8.0  34.534   4.492
   9.0  34.583   4.496
  10.0  34.646   4.556
  11.0  34.668   4.446
  12.0  34.692   4.340
  13.0  34.735   4.341
  14.0  34.775   4.290
  15.0  34.783   4.244
  16.0  34.796   4.189
  17.0  34.809   4.080
  18.0  34.808   3.995
  19.0  34.812   3.913
  20.0  34.827   3.822
  21.0  34.833   3.754
  22.0  34.839   3.745
  23.0  34.835   3.606
  24.0  34.807   3.272
  25.0  34.789   2.985
  26.0  34.788   2.912
  27.0  34.789   2.870
  28.0  34.792   2.810
  29.0  34.796   2.774
  30.0  34.802   2.780
  31.0  34.814   2.778
  32.0  34.823   2.756
  33.0  34.832   2.684
  34.0  34.837   2.671
  35.0  34.839   2.618
  36.0  34.818   2.416
  37.0  34.801   2.287
  38.0  34.800   2.268
  39.0  34.800   2.261
  40.0  34.805   2.355
  41.0  34.863   2.663
  42.0  34.874   2.703
  43.0  34.876   2.680
  44.0  34.857   2.482
  45.0  34.853   2.472
  46.0  34.852   2.434
  47.0  34.846   2.392
  48.0  34.843   2.341
  49.0  34.836   2.263
  50.0  34.830   2.164
  51.0  34.824   2.108
  52.0  34.823   2.076
  53.0  34.817   2.010
  54.0  34.822   2.061
  55.0  34.827   2.115
  56.0  34.848   2.254
  57.0  34.857   2.326
  58.0  34.867   2.394
  59.0  34.877   2.458
  60.0  34.885   2.501
  61.0  34.890   2.529
  62.0  34.893   2.556
  63.0  34.911   2.654
  64.0  34.940   2.809
  65.0  34.952   2.852
  66.0  34.956   2.853
  67.0  34.957   2.852
  68.0  34.958   2.835
  69.0  34.953   2.746
  70.0  34.934   2.604
  71.0  34.934   2.593
  72.0  34.934   2.513
  73.0  34.915   2.377
  74.0  34.911   2.340
  75.0  34.911   2.332
  76.0  34.915   2.352
  77.0  34.920   2.372
  78.0  34.920   2.348
  79.0  34.910   2.216
  80.0  34.900   2.121
  81.0  34.888   2.063
  82.0  34.888   2.041
  83.0  34.888   2.053
  84.0  34.891   2.058
  85.0  34.894   2.069
  86.0  34.894   2.065
  87.0  34.897   2.083
  88.0  34.902   2.094
  89.0  34.903   2.083
  90.0  34.903   2.074
  91.0  34.903   2.074
  92.0  34.907   2.091
  93.0  34.912   2.122
  94.0  34.921   2.185
  95.0  34.925   2.203
  96.0  34.928   2.219
  97.0  34.934   2.244
  98.0  34.935   2.243
  99.0  34.938   2.247
 100.0  34.939   2.243
 101.0  34.938   2.237
 102.0  34.940   2.244
 103.0  34.943   2.267
 104.0  34.947   2.292
 105.0  34.953   2.320
 106.0  34.956   2.333
 107.0  34.955   2.330
 108.0  34.955   2.329
 109.0  34.954   2.323
 110.0  34.958   2.349
 111.0  34.963   2.371
 112.0  34.963   2.377
 113.0  34.964   2.377
 114.0  34.966   2.369
 115.0  34.967   2.376
 116.0  34.969   2.393
 117.0  34.975   2.419
 118.0  34.979   2.431
 119.0  34.982   2.447
 120.0  34.986   2.464
 121.0  34.988   2.471
 122.0  34.991   2.484
 123.0  34.994   2.497
 124.0  34.994   2.499
 125.0  34.992   2.497
 126.0  34.995   2.504
 127.0  34.995   2.505
 128.0  34.996   2.506
 129.0  34.996   2.505
 130.0  34.998   2.504
 131.0  34.999   2.501
 132.0  35.003   2.507
 133.0  35.003   2.502
 134.0  35.000   2.457
 135.0  34.992   2.391
 136.0  34.995   2.418
 137.0  35.001   2.444
 138.0  35.002   2.451
 139.0  35.005   2.468
 140.0  35.006   2.464
 141.0  35.008   2.467
 142.0  35.010   2.473
 143.0  35.011   2.474
 144.0  35.010   2.458
 145.0  35.010   2.451
 146.0  35.010   2.447
 147.0  35.010   2.444
 148.0  35.010   2.446
 149.0  35.012   2.461
 150.0  35.015   2.470
 151.0  35.016   2.472
 152.0  35.018   2.485
 153.0  35.022   2.497
 154.0  35.020   2.469
 155.0  35.018   2.451
 156.0  35.018   2.449
 157.0  35.018   2.451
 158.0  35.018   2.456
 159.0  35.021   2.480
 160.0  35.027   2.529
 161.0  35.036   2.574
 162.0  35.038   2.585
 163.0  35.039   2.591
 164.0  35.042   2.604
 165.0  35.044   2.612
 166.0  35.044   2.606
 167.0  35.044   2.591
 168.0  35.042   2.579
 169.0  35.042   2.576
 170.0  35.042   2.567
 171.0  35.041   2.557
 172.0  35.039   2.538
 173.0  35.037   2.521
 174.0  35.035   2.504
 175.0  35.035   2.500
 176.0  35.035   2.498
 177.0  35.033   2.475
 178.0  35.031   2.463
 179.0  35.030   2.455
 180.0  35.031   2.454
 181.0  35.030   2.438
 182.0  35.028   2.421
 183.0  35.029   2.416
 184.0  35.030   2.411
 185.0  35.030   2.407
 186.0  35.031   2.405
 187.0  35.030   2.404
 188.0  35.031   2.402
 189.0  35.031   2.401
 190.0  35.032   2.401
 191.0  35.032   2.402
 192.0  35.032   2.403
 193.0  35.032   2.403
 194.0  35.032   2.402
 195.0  35.032   2.401
 196.0  35.032   2.399
 197.0  35.033   2.397
 198.0  35.033   2.395
 199.0  35.033   2.392
 200.0  35.033   2.389
 201.0  35.034   2.388
 202.0  35.033   2.387
 203.0  35.033   2.386
 204.0  35.034   2.385
 205.0  35.034   2.385
 206.0  35.034   2.386
 207.0  35.035   2.386
 208.0  35.035   2.386
 209.0  35.036   2.388
 210.0  35.037   2.389
 211.0  35.037   2.387
 212.0  35.038   2.383
 213.0  35.039   2.380
 214.0  35.039   2.379
 215.0  35.041   2.380
 216.0  35.042   2.381
 217.0  35.044   2.382
 218.0  35.047   2.387
 219.0  35.052   2.394
 220.0  35.056   2.396
 221.0  35.058   2.399
 222.0  35.061   2.400
 223.0  35.064   2.395
 224.0  35.064   2.392
 225.0  35.065   2.389
 226.0  35.066   2.382
 227.0  35.068   2.377
 228.0  35.070   2.372
 229.0  35.073   2.367
 230.0  35.078   2.355
 231.0  35.085   2.338
 232.0  35.089   2.325
 233.0  35.093   2.312
 234.0  35.095   2.300
 235.0  35.097   2.290
 236.0  35.099   2.278
 237.0  35.103   2.263
 238.0  35.104   2.260
 239.0  35.105   2.257
 240.0  35.107   2.247
 241.0  35.109   2.224
 242.0  35.115   2.186
 243.0  35.118   2.154
 244.0  35.124   2.101
 245.0  35.125   2.084
 246.0  35.126   2.076
 247.0  35.128   2.061
 248.0  35.129   2.039
 249.0  35.132   2.014
 250.0  35.134   1.994
 251.0  35.135   1.981
 252.0  35.136   1.970
 253.0  35.138   1.960
 254.0  35.139   1.949
 255.0  35.140   1.937
 256.0  35.142   1.918
 257.0  35.143   1.895
 258.0  35.144   1.889
 259.0  35.145   1.885
 260.0  35.145   1.881
 261.0  35.146   1.873
 262.0  35.148   1.845
 263.0  35.149   1.826
 264.0  35.149   1.821
