   1.0  32.047   4.339
   2.0  32.055   4.332
   3.0  32.059   4.330
   4.0  32.097   4.291
   5.0  32.327   4.064
   6.0  32.830   3.728
   7.0  33.240   3.536
   8.0  33.493   3.443
   9.0  33.656   3.330
  10.0  33.741   3.306
  11.0  33.908   3.449
  12.0  33.982   3.564
  13.0  34.148   3.695
  14.0  34.219   3.772
  15.0  34.360   4.103
  16.0  34.397   4.162
  17.0  34.445   4.245
  18.0  34.471   4.254
  19.0  34.502   4.227
  20.0  34.553   4.231
  21.0  34.565   4.248
  22.0  34.592   4.242
  23.0  34.609   4.212
  24.0  34.624   4.182
  25.0  34.642   4.178
  26.0  34.650   4.179
  27.0  34.676   4.119
  28.0  34.694   4.022
  29.0  34.680   3.982
  30.0  34.705   3.974
