   5.0  33.695   4.694
   6.0  33.735   4.741
   7.0  33.723   4.728
   8.0  33.730   4.732
   9.0  33.739   4.750
  10.0  33.738   4.746
  11.0  33.732   4.735
  12.0  33.736   4.745
  13.0  33.742   4.750
  14.0  33.743   4.758
  15.0  33.741   4.748
  16.0  33.759   4.774
  17.0  33.791   4.813
  18.0  33.800   4.827
  19.0  33.804   4.825
  20.0  33.807   4.832
  21.0  33.810   4.834
  22.0  33.822   4.846
  23.0  33.826   4.853
  24.0  33.830   4.855
  25.0  33.837   4.862
  26.0  33.852   4.877
  27.0  33.861   4.884
  28.0  33.887   4.903
  29.0  33.926   4.946
  30.0  33.951   4.982
  31.0  33.969   5.009
  32.0  33.974   5.021
  33.0  33.974   5.021
  34.0  33.975   5.024
  35.0  33.975   5.024
  36.0  33.975   5.025
  37.0  33.975   5.024
  38.0  33.975   5.025
  39.0  33.976   5.029
  40.0  33.976   5.030
  41.0  33.980   5.036
  42.0  33.985   5.043
  43.0  34.001   5.064
  44.0  34.171   5.298
  45.0  34.404   5.714
  46.0  34.420   5.771
  47.0  34.422   5.774
  48.0  34.431   5.785
  49.0  34.451   5.809
  50.0  34.467   5.778
  51.0  34.499   5.672
  52.0  34.507   5.596
  53.0  34.568   5.616
  54.0  34.598   5.630
  55.0  34.602   5.629
  56.0  34.609   5.630
  57.0  34.620   5.633
  58.0  34.626   5.637
  59.0  34.629   5.638
  60.0  34.636   5.643
  61.0  34.642   5.644
  62.0  34.649   5.637
  63.0  34.678   5.681
  64.0  34.712   5.804
  65.0  34.711   5.795
  66.0  34.715   5.744
  67.0  34.765   5.846
  68.0  34.777   5.928
  69.0  34.757   5.817
  70.0  34.786   5.742
  71.0  34.812   5.844
  72.0  34.825   5.924
  73.0  34.835   5.966
  74.0  34.834   5.925
  75.0  34.831   5.888
  76.0  34.839   5.887
  77.0  34.852   5.918
  78.0  34.871   5.953
  79.0  34.880   5.987
  80.0  34.886   5.987
  81.0  34.910   6.089
  82.0  34.907   6.064
  83.0  34.902   6.008
  84.0  34.884   5.864
  85.0  34.889   5.845
  86.0  34.893   5.854
  87.0  34.900   5.888
  88.0  34.920   5.950
  89.0  34.925   5.997
  90.0  34.932   5.981
  91.0  34.935   5.997
  92.0  34.924   5.936
  93.0  34.920   5.788
  94.0  34.933   5.822
  95.0  34.928   5.787
  96.0  34.931   5.759
  97.0  34.938   5.775
  98.0  34.975   5.916
  99.0  35.006   6.074
 100.0  35.007   6.060
 101.0  35.007   6.053
 102.0  35.005   6.036
 103.0  34.994   5.973
 104.0  34.986   5.806
 105.0  34.992   5.786
 106.0  34.986   5.751
 107.0  34.985   5.733
 108.0  34.968   5.687
 109.0  34.922   5.358
 110.0  34.908   5.091
 111.0  34.888   4.973
 112.0  34.869   4.799
 113.0  34.853   4.671
 114.0  34.845   4.601
 115.0  34.841   4.546
 116.0  34.841   4.511
 117.0  34.843   4.498
 118.0  34.844   4.490
 119.0  34.849   4.484
 120.0  34.852   4.488
 121.0  34.853   4.445
 122.0  34.854   4.418
 123.0  34.854   4.396
 124.0  34.855   4.378
 125.0  34.856   4.362
 126.0  34.855   4.328
 127.0  34.849   4.242
 128.0  34.851   4.198
 129.0  34.852   4.173
 130.0  34.844   4.110
 131.0  34.840   4.010
 132.0  34.844   3.979
 133.0  34.845   3.963
 134.0  34.845   3.949
 135.0  34.846   3.941
 136.0  34.847   3.923
 137.0  34.847   3.910
 138.0  34.849   3.885
 139.0  34.852   3.863
 140.0  34.853   3.843
 141.0  34.855   3.833
 142.0  34.856   3.830
 143.0  34.856   3.818
 144.0  34.858   3.811
 145.0  34.858   3.797
 146.0  34.861   3.785
 147.0  34.867   3.804
 148.0  34.870   3.793
 149.0  34.874   3.811
 150.0  34.873   3.776
 151.0  34.872   3.767
 152.0  34.868   3.705
 153.0  34.868   3.694
 154.0  34.869   3.694
 155.0  34.867   3.683
 156.0  34.870   3.679
 157.0  34.872   3.684
 158.0  34.876   3.697
 159.0  34.873   3.686
 160.0  34.869   3.639
 161.0  34.867   3.614
 162.0  34.868   3.600
 163.0  34.868   3.596
 164.0  34.868   3.592
 165.0  34.869   3.589
 166.0  34.869   3.588
 167.0  34.869   3.587
 168.0  34.870   3.581
 169.0  34.870   3.577
 170.0  34.871   3.572
 171.0  34.873   3.571
 172.0  34.874   3.568
 173.0  34.875   3.570
 174.0  34.875   3.567
 175.0  34.876   3.562
 176.0  34.886   3.603
 177.0  34.895   3.665
 178.0  34.896   3.681
 179.0  34.891   3.650
 180.0  34.892   3.627
 181.0  34.894   3.628
 182.0  34.896   3.637
 183.0  34.895   3.634
 184.0  34.894   3.609
 185.0  34.895   3.606
 186.0  34.896   3.612
 187.0  34.897   3.616
 188.0  34.898   3.620
 189.0  34.898   3.616
 190.0  34.899   3.611
 191.0  34.898   3.605
 192.0  34.891   3.549
 193.0  34.907   3.573
 194.0  34.913   3.616
 195.0  34.918   3.636
 196.0  34.921   3.652
 197.0  34.921   3.652
 198.0  34.922   3.652
 199.0  34.924   3.644
 200.0  34.924   3.639
 201.0  34.925   3.632
 202.0  34.925   3.628
 203.0  34.926   3.611
 204.0  34.926   3.596
 205.0  34.927   3.568
 206.0  34.929   3.554
 207.0  34.929   3.543
