   1.0  31.896   4.487
   2.0  32.003   4.396
   3.0  32.227   4.215
   4.0  32.610   4.003
   5.0  32.945   3.886
   6.0  33.248   3.747
   7.0  33.716   3.591
   8.0  33.981   3.688
   9.0  34.113   3.812
  10.0  34.220   4.110
  11.0  34.255   4.185
  12.0  34.272   4.209
  13.0  34.287   4.226
  14.0  34.357   4.325
  15.0  34.463   4.405
  16.0  34.534   4.409
  17.0  34.628   4.471
  18.0  34.686   4.480
  19.0  34.663   4.362
  20.0  34.716   4.181
  21.0  34.725   3.945
  22.0  34.786   4.004
  23.0  34.794   3.944
  24.0  34.818   3.954
  25.0  34.840   3.823
  26.0  34.840   3.656
  27.0  34.838   3.361
  28.0  34.833   3.194
  29.0  34.871   3.262
  30.0  34.876   3.147
  31.0  34.840   2.662
  32.0  34.819   2.445
  33.0  34.833   2.473
  34.0  34.831   2.416
  35.0  34.830   2.390
  36.0  34.831   2.395
  37.0  34.830   2.387
  38.0  34.833   2.371
  39.0  34.831   2.305
  40.0  34.829   2.268
  41.0  34.830   2.269
  42.0  34.832   2.253
