   5.0  33.084   3.719
   6.0  33.069   3.717
   7.0  33.083   3.727
   8.0  33.123   3.753
   9.0  33.261   4.057
  10.0  33.291   4.106
  11.0  33.321   4.148
  12.0  33.375   4.229
  13.0  33.440   4.324
  14.0  33.481   4.374
  15.0  33.530   4.438
  16.0  33.538   4.454
  17.0  33.547   4.458
  18.0  33.549   4.459
  19.0  33.548   4.459
  20.0  33.547   4.457
  21.0  33.563   4.468
  22.0  33.588   4.496
  23.0  33.620   4.530
  24.0  33.686   4.642
  25.0  33.692   4.662
  26.0  33.698   4.676
  27.0  33.720   4.727
  28.0  33.727   4.743
  29.0  33.734   4.750
  30.0  33.739   4.753
  31.0  33.763   4.760
  32.0  33.812   4.828
  33.0  33.835   4.860
  34.0  33.910   4.952
  35.0  33.995   5.041
  36.0  34.020   5.078
  37.0  34.043   5.127
  38.0  34.045   5.136
  39.0  34.048   5.139
  40.0  34.054   5.152
  41.0  34.058   5.162
  42.0  34.063   5.170
  43.0  34.114   5.266
  44.0  34.180   5.408
  45.0  34.201   5.432
  46.0  34.247   5.476
  47.0  34.357   5.587
  48.0  34.405   5.528
  49.0  34.476   5.536
  50.0  34.548   5.512
  51.0  34.578   5.467
  52.0  34.611   5.462
  53.0  34.641   5.492
  54.0  34.634   5.320
  55.0  34.636   5.276
  56.0  34.638   5.273
  57.0  34.684   5.352
  58.0  34.782   5.712
  59.0  34.812   5.779
  60.0  34.846   5.862
  61.0  34.827   5.722
  62.0  34.820   5.536
  63.0  34.822   5.499
  64.0  34.836   5.531
  65.0  34.852   5.599
  66.0  34.852   5.594
  67.0  34.854   5.555
  68.0  34.865   5.526
  69.0  34.879   5.544
  70.0  34.887   5.577
  71.0  34.895   5.592
  72.0  34.895   5.565
  73.0  34.895   5.546
  74.0  34.897   5.535
  75.0  34.898   5.518
  76.0  34.899   5.513
  77.0  34.898   5.495
  78.0  34.887   5.429
  79.0  34.881   5.325
  80.0  34.880   5.274
  81.0  34.869   5.204
  82.0  34.853   5.096
  83.0  34.825   4.880
  84.0  34.819   4.803
  85.0  34.816   4.776
  86.0  34.815   4.760
  87.0  34.811   4.731
  88.0  34.805   4.674
  89.0  34.798   4.586
  90.0  34.793   4.532
  91.0  34.779   4.415
  92.0  34.779   4.345
  93.0  34.792   4.399
  94.0  34.806   4.455
  95.0  34.812   4.465
  96.0  34.813   4.454
  97.0  34.809   4.388
  98.0  34.804   4.327
  99.0  34.814   4.344
 100.0  34.809   4.317
 101.0  34.790   4.160
 102.0  34.786   4.080
 103.0  34.787   4.077
 104.0  34.786   4.080
 105.0  34.773   3.946
 106.0  34.772   3.907
 107.0  34.767   3.846
 108.0  34.779   3.882
 109.0  34.794   3.955
 110.0  34.798   3.967
 111.0  34.797   3.954
 112.0  34.794   3.924
 113.0  34.794   3.903
 114.0  34.792   3.885
 115.0  34.793   3.873
 116.0  34.785   3.814
 117.0  34.785   3.731
 118.0  34.796   3.786
 119.0  34.805   3.856
 120.0  34.804   3.841
 121.0  34.807   3.848
 122.0  34.828   3.951
 123.0  34.851   4.057
 124.0  34.873   4.193
 125.0  34.876   4.200
 126.0  34.876   4.204
 127.0  34.872   4.183
 128.0  34.865   4.101
 129.0  34.870   4.093
 130.0  34.864   4.068
 131.0  34.858   4.003
 132.0  34.856   3.990
 133.0  34.853   3.960
 134.0  34.852   3.951
 135.0  34.850   3.943
 136.0  34.850   3.939
 137.0  34.850   3.939
 138.0  34.850   3.938
 139.0  34.851   3.940
 140.0  34.851   3.944
 141.0  34.855   3.955
 142.0  34.849   3.912
 143.0  34.845   3.815
 144.0  34.843   3.787
 145.0  34.840   3.742
 146.0  34.837   3.709
 147.0  34.836   3.692
 148.0  34.835   3.687
 149.0  34.835   3.684
 150.0  34.833   3.669
 151.0  34.832   3.658
 152.0  34.832   3.652
 153.0  34.831   3.646
 154.0  34.827   3.617
 155.0  34.827   3.613
 156.0  34.825   3.609
 157.0  34.806   3.441
 158.0  34.806   3.395
 159.0  34.825   3.464
 160.0  34.834   3.566
 161.0  34.832   3.524
 162.0  34.834   3.522
 163.0  34.843   3.585
 164.0  34.834   3.519
 165.0  34.834   3.460
 166.0  34.827   3.436
 167.0  34.816   3.282
 168.0  34.819   3.264
 169.0  34.818   3.259
 170.0  34.817   3.252
 171.0  34.809   3.211
 172.0  34.808   3.151
 173.0  34.803   3.115
 174.0  34.803   3.080
 175.0  34.796   3.024
 176.0  34.794   2.987
 177.0  34.794   2.982
 178.0  34.792   2.971
 179.0  34.785   2.926
 180.0  34.770   2.762
 181.0  34.767   2.708
 182.0  34.765   2.688
 183.0  34.765   2.684
 184.0  34.766   2.685
 185.0  34.768   2.689
 186.0  34.776   2.708
 187.0  34.788   2.772
 188.0  34.791   2.781
 189.0  34.792   2.782
 190.0  34.792   2.771
 191.0  34.797   2.789
 192.0  34.800   2.796
 193.0  34.803   2.807
 194.0  34.806   2.809
 195.0  34.806   2.801
 196.0  34.808   2.801
 197.0  34.811   2.805
