   1.0  33.583   4.261
   2.0  33.722   4.197
   3.0  33.824   4.183
   4.0  33.941   4.276
   5.0  34.041   4.503
   6.0  34.202   4.636
   7.0  34.332   4.597
   8.0  34.347   4.549
   9.0  34.359   4.499
  10.0  34.389   4.439
  11.0  34.464   4.419
  12.0  34.496   4.395
  13.0  34.537   4.476
  14.0  34.586   4.556
  15.0  34.623   4.559
  16.0  34.648   4.379
  17.0  34.664   4.207
  18.0  34.693   4.195
  19.0  34.730   4.152
  20.0  34.766   4.120
  21.0  34.848   4.257
  22.0  34.878   4.224
  23.0  34.868   4.045
  24.0  34.856   3.855
  25.0  34.849   3.733
  26.0  34.851   3.679
  27.0  34.847   3.571
  28.0  34.847   3.455
  29.0  34.845   3.201
  30.0  34.836   2.956
  31.0  34.836   2.739
  32.0  34.839   2.686
  33.0  34.842   2.607
  34.0  34.835   2.490
  35.0  34.836   2.455
  36.0  34.839   2.443
  37.0  34.841   2.413
  38.0  34.839   2.362
  39.0  34.838   2.321
  40.0  34.836   2.280
  41.0  34.832   2.219
  42.0  34.834   2.203
  43.0  34.833   2.175
  44.0  34.833   2.148
  45.0  34.835   2.142
  46.0  34.834   2.118
  47.0  34.830   2.057
  48.0  34.825   2.024
  49.0  34.825   2.023
  50.0  34.827   2.025
  51.0  34.830   2.034
  52.0  34.837   2.067
  53.0  34.847   2.095
  54.0  34.852   2.088
  55.0  34.852   2.077
  56.0  34.854   2.077
  57.0  34.857   2.080
  58.0  34.859   2.081
  59.0  34.860   2.078
  60.0  34.860   2.037
  61.0  34.863   2.023
  62.0  34.869   2.057
  63.0  34.876   2.096
  64.0  34.880   2.119
  65.0  34.879   2.122
  66.0  34.880   2.123
  67.0  34.878   2.101
  68.0  34.873   2.077
  69.0  34.880   2.146
  70.0  34.900   2.287
  71.0  34.911   2.338
  72.0  34.918   2.363
  73.0  34.923   2.371
  74.0  34.922   2.348
  75.0  34.918   2.274
  76.0  34.906   2.183
  77.0  34.906   2.179
  78.0  34.908   2.182
  79.0  34.910   2.193
  80.0  34.914   2.212
  81.0  34.920   2.236
  82.0  34.929   2.273
  83.0  34.935   2.297
  84.0  34.936   2.302
  85.0  34.937   2.315
  86.0  34.943   2.346
  87.0  34.947   2.349
  88.0  34.946   2.347
  89.0  34.948   2.353
  90.0  34.950   2.363
  91.0  34.951   2.369
  92.0  34.951   2.370
  93.0  34.950   2.368
