   1.0  31.770   4.237
   2.0  31.863   4.158
   3.0  31.916   4.117
   4.0  32.054   4.021
   5.0  32.260   3.904
   6.0  32.511   3.778
   7.0  32.525   3.773
   8.0  32.701   3.716
   9.0  33.674   3.605
  10.0  34.029   3.685
  11.0  34.065   3.736
  12.0  34.093   3.791
  13.0  34.101   3.731
  14.0  34.161   3.715
  15.0  34.207   3.789
  16.0  34.275   3.716
  17.0  34.346   3.393
  18.0  34.506   4.047
  19.0  34.554   4.175
  20.0  34.571   4.185
  21.0  34.591   4.167
  22.0  34.625   4.127
  23.0  34.635   4.115
  24.0  34.643   3.978
  25.0  34.658   4.014
  26.0  34.672   4.047
  27.0  34.693   4.043
  28.0  34.717   4.069
  29.0  34.725   3.990
  30.0  34.702   3.760
  31.0  34.712   3.807
  32.0  34.741   3.912
  33.0  34.733   3.731
  34.0  34.747   3.667
  35.0  34.763   3.682
  36.0  34.771   3.664
  37.0  34.771   3.631
  38.0  34.773   3.617
  39.0  34.774   3.611
  40.0  34.775   3.598
  41.0  34.777   3.581
  42.0  34.783   3.579
  43.0  34.789   3.543
  44.0  34.787   3.435
  45.0  34.774   3.262
  46.0  34.765   3.149
  47.0  34.744   2.986
  48.0  34.768   3.073
  49.0  34.778   3.058
  50.0  34.781   3.020
  51.0  34.788   3.011
  52.0  34.791   2.870
  53.0  34.785   2.673
  54.0  34.794   2.592
  55.0  34.812   2.635
  56.0  34.817   2.618
  57.0  34.824   2.586
  58.0  34.830   2.523
  59.0  34.820   2.346
  60.0  34.833   2.255
  61.0  34.917   1.474
  62.0  34.951   1.279
  63.0  34.966   1.204
  64.0  34.978   1.158
  65.0  34.990   1.116
  66.0  35.005   1.054
  67.0  35.024   0.981
  68.0  35.036   0.933
  69.0  35.046   0.885
  70.0  35.050   0.863
  71.0  35.055   0.840
  72.0  35.059   0.823
  73.0  35.061   0.807
  74.0  35.062   0.807
  75.0  35.061   0.811
  76.0  35.062   0.809
  77.0  35.064   0.800
  78.0  35.065   0.793
  79.0  35.071   0.763
  80.0  35.072   0.750
  81.0  35.075   0.734
