   1.0  32.520   2.407
   2.0  32.692   2.254
   3.0  32.847   2.158
   4.0  33.079   2.358
   5.0  33.238   2.866
   6.0  33.402   3.188
   7.0  33.531   3.332
   8.0  33.632   3.351
   9.0  33.669   3.337
  10.0  33.728   3.297
  11.0  33.807   3.320
  12.0  33.791   2.788
  13.0  33.758   2.257
  14.0  33.803   2.083
  15.0  33.938   2.258
  16.0  34.022   2.427
  17.0  34.089   2.535
  18.0  34.183   2.689
  19.0  34.249   2.809
  20.0  34.324   3.074
  21.0  34.370   3.274
  22.0  34.405   3.419
  23.0  34.359   2.953
  24.0  34.335   2.513
  25.0  34.341   2.063
  26.0  34.366   1.843
  27.0  34.401   1.824
  28.0  34.414   1.825
  29.0  34.424   1.811
  30.0  34.424   1.775
  31.0  34.433   1.699
  32.0  34.445   1.649
  33.0  34.452   1.642
  34.0  34.456   1.648
  35.0  34.515   1.860
  36.0  34.582   2.384
  37.0  34.586   2.450
  38.0  34.569   2.290
  39.0  34.539   1.838
  40.0  34.537   1.683
  41.0  34.541   1.661
  42.0  34.546   1.641
  43.0  34.563   1.705
  44.0  34.574   1.764
  45.0  34.591   1.869
  46.0  34.662   2.423
  47.0  34.673   2.574
  48.0  34.665   2.534
  49.0  34.678   2.629
  50.0  34.672   2.586
  51.0  34.653   2.434
  52.0  34.629   2.140
  53.0  34.626   2.090
  54.0  34.628   2.066
  55.0  34.635   2.096
  56.0  34.659   2.244
  57.0  34.704   2.568
  58.0  34.713   2.647
  59.0  34.703   2.587
  60.0  34.697   2.521
  61.0  34.695   2.480
  62.0  34.694   2.457
  63.0  34.694   2.445
  64.0  34.691   2.417
  65.0  34.690   2.400
  66.0  34.692   2.407
  67.0  34.686   2.363
  68.0  34.683   2.326
  69.0  34.679   2.296
  70.0  34.682   2.295
  71.0  34.684   2.300
  72.0  34.691   2.311
  73.0  34.693   2.323
  74.0  34.698   2.347
  75.0  34.701   2.368
  76.0  34.701   2.367
  77.0  34.702   2.370
  78.0  34.703   2.371
  79.0  34.703   2.373
  80.0  34.704   2.375
  81.0  34.705   2.376
  82.0  34.705   2.378
  83.0  34.707   2.387
  84.0  34.708   2.391
  85.0  34.707   2.388
  86.0  34.707   2.387
  87.0  34.707   2.388
  88.0  34.708   2.389
  89.0  34.709   2.393
  90.0  34.712   2.406
  91.0  34.712   2.405
