   5.0  33.295   4.099
   6.0  33.292   4.039
   7.0  33.291   4.008
   8.0  33.253   3.734
   9.0  33.274   3.840
  10.0  33.280   3.941
  11.0  33.272   3.854
  12.0  33.270   3.887
  13.0  33.304   3.981
  14.0  33.374   4.134
  15.0  33.478   4.289
  16.0  33.511   4.350
  17.0  33.619   4.535
  18.0  33.634   4.555
  19.0  33.711   4.668
  20.0  33.733   4.724
  21.0  33.823   4.771
  22.0  33.831   4.778
  23.0  33.832   4.767
  24.0  33.857   4.809
  25.0  33.888   4.878
  26.0  33.988   5.090
  27.0  34.095   5.263
  28.0  34.107   5.167
  29.0  34.153   5.219
  30.0  34.194   5.350
  31.0  34.251   5.413
  32.0  34.296   5.499
  33.0  34.326   5.461
  34.0  34.373   5.461
  35.0  34.408   5.523
  36.0  34.427   5.564
  37.0  34.441   5.595
  38.0  34.455   5.637
  39.0  34.471   5.633
  40.0  34.496   5.632
  41.0  34.509   5.622
  42.0  34.538   5.654
  43.0  34.556   5.682
  44.0  34.574   5.712
  45.0  34.595   5.732
  46.0  34.608   5.726
  47.0  34.625   5.710
  48.0  34.625   5.653
  49.0  34.646   5.601
  50.0  34.630   5.463
  51.0  34.601   5.235
  52.0  34.595   5.095
  53.0  34.607   5.110
  54.0  34.626   5.134
  55.0  34.638   5.191
  56.0  34.647   5.224
  57.0  34.645   5.208
  58.0  34.630   5.092
  59.0  34.626   4.929
  60.0  34.635   4.935
  61.0  34.639   4.851
  62.0  34.654   4.855
  63.0  34.687   4.972
  64.0  34.718   5.061
  65.0  34.758   5.224
  66.0  34.767   5.219
  67.0  34.765   5.152
  68.0  34.761   5.108
  69.0  34.791   5.173
  70.0  34.818   5.350
  71.0  34.806   5.263
  72.0  34.799   5.129
  73.0  34.788   5.028
  74.0  34.778   4.883
  75.0  34.774   4.830
  76.0  34.773   4.802
  77.0  34.759   4.647
  78.0  34.763   4.570
  79.0  34.765   4.528
  80.0  34.765   4.514
  81.0  34.746   4.400
  82.0  34.742   4.268
  83.0  34.745   4.292
  84.0  34.736   4.226
  85.0  34.696   3.946
  86.0  34.694   3.813
  87.0  34.686   3.782
  88.0  34.676   3.636
  89.0  34.680   3.638
  90.0  34.682   3.638
  91.0  34.701   3.740
  92.0  34.712   3.801
  93.0  34.723   3.888
  94.0  34.722   3.884
  95.0  34.719   3.852
  96.0  34.719   3.842
  97.0  34.720   3.843
  98.0  34.734   3.870
  99.0  34.789   4.179
 100.0  34.788   4.199
 101.0  34.790   4.179
 102.0  34.793   4.173
 103.0  34.789   4.107
 104.0  34.786   4.067
 105.0  34.784   4.025
 106.0  34.782   3.998
 107.0  34.780   3.975
 108.0  34.784   3.961
 109.0  34.788   3.950
 110.0  34.786   3.946
 111.0  34.781   3.865
 112.0  34.782   3.843
 113.0  34.782   3.827
 114.0  34.800   3.868
 115.0  34.821   4.003
 116.0  34.815   3.956
 117.0  34.815   3.907
 118.0  34.815   3.909
 119.0  34.815   3.908
 120.0  34.812   3.886
 121.0  34.812   3.869
 122.0  34.811   3.859
 123.0  34.810   3.854
 124.0  34.809   3.841
 125.0  34.807   3.815
 126.0  34.805   3.795
 127.0  34.795   3.724
 128.0  34.790   3.657
 129.0  34.784   3.588
 130.0  34.788   3.582
 131.0  34.777   3.526
 132.0  34.772   3.438
 133.0  34.778   3.435
 134.0  34.806   3.587
 135.0  34.812   3.643
 136.0  34.811   3.631
 137.0  34.808   3.591
 138.0  34.803   3.535
 139.0  34.795   3.451
 140.0  34.786   3.341
 141.0  34.783   3.278
 142.0  34.779   3.241
 143.0  34.776   3.201
 144.0  34.775   3.176
 145.0  34.767   3.118
 146.0  34.763   3.023
 147.0  34.762   2.982
 148.0  34.766   2.958
 149.0  34.764   2.940
 150.0  34.757   2.853
 151.0  34.752   2.779
 152.0  34.748   2.709
 153.0  34.748   2.697
 154.0  34.746   2.672
 155.0  34.750   2.673
 156.0  34.751   2.677
 157.0  34.750   2.655
 158.0  34.751   2.640
 159.0  34.752   2.624
 160.0  34.752   2.613
 161.0  34.754   2.608
 162.0  34.755   2.605
 163.0  34.753   2.592
 164.0  34.746   2.531
 165.0  34.745   2.496
 166.0  34.745   2.459
 167.0  34.745   2.459
 168.0  34.749   2.465
 169.0  34.755   2.500
 170.0  34.756   2.487
 171.0  34.758   2.489
 172.0  34.764   2.511
 173.0  34.766   2.522
 174.0  34.767   2.526
 175.0  34.775   2.553
 176.0  34.782   2.608
 177.0  34.787   2.639
 178.0  34.790   2.662
 179.0  34.788   2.655
 180.0  34.784   2.628
 181.0  34.784   2.595
 182.0  34.786   2.605
 183.0  34.786   2.603
 184.0  34.788   2.601
 185.0  34.788   2.594
 186.0  34.791   2.601
 187.0  34.793   2.615
 188.0  34.794   2.600
 189.0  34.798   2.614
 190.0  34.799   2.614
 191.0  34.800   2.614
 192.0  34.802   2.615
 193.0  34.802   2.614
 194.0  34.802   2.606
 195.0  34.804   2.606
 196.0  34.805   2.613
 197.0  34.802   2.596
 198.0  34.799   2.542
 199.0  34.806   2.571
 200.0  34.800   2.543
 201.0  34.797   2.494
 202.0  34.798   2.472
 203.0  34.807   2.512
 204.0  34.812   2.550
 205.0  34.815   2.576
 206.0  34.818   2.590
 207.0  34.824   2.618
 208.0  34.825   2.629
 209.0  34.829   2.639
 210.0  34.832   2.652
 211.0  34.831   2.643
 212.0  34.833   2.644
 213.0  34.834   2.651
 214.0  34.836   2.650
 215.0  34.836   2.651
 216.0  34.838   2.650
 217.0  34.840   2.650
 218.0  34.841   2.653
 219.0  34.843   2.657
 220.0  34.845   2.661
 221.0  34.848   2.661
 222.0  34.848   2.651
 223.0  34.850   2.649
 224.0  34.851   2.644
 225.0  34.851   2.645
 226.0  34.849   2.626
 227.0  34.852   2.620
 228.0  34.851   2.620
 229.0  34.849   2.580
 230.0  34.852   2.587
 231.0  34.848   2.551
 232.0  34.848   2.503
 233.0  34.849   2.502
 234.0  34.849   2.499
 235.0  34.852   2.500
 236.0  34.852   2.496
 237.0  34.858   2.488
 238.0  34.863   2.492
 239.0  34.870   2.500
 240.0  34.874   2.504
 241.0  34.876   2.504
 242.0  34.881   2.506
 243.0  34.890   2.510
 244.0  34.898   2.493
 245.0  34.901   2.492
 246.0  34.906   2.445
 247.0  34.922   2.405
 248.0  34.928   2.379
 249.0  34.934   2.353
 250.0  34.936   2.333
 251.0  34.941   2.305
 252.0  34.943   2.274
 253.0  34.946   2.264
 254.0  34.950   2.255
 255.0  34.951   2.246
 256.0  34.953   2.218
 257.0  34.958   2.188
 258.0  34.959   2.181
 259.0  34.958   2.180
 260.0  34.959   2.170
 261.0  34.961   2.156
 262.0  34.962   2.141
 263.0  34.964   2.127
 264.0  34.965   2.120
 265.0  34.965   2.110
 266.0  34.967   2.092
 267.0  34.968   2.071
 268.0  34.968   2.065
 269.0  34.968   2.048
 270.0  34.969   2.038
 271.0  34.969   2.027
 272.0  34.971   2.007
 273.0  34.973   1.997
 274.0  34.974   1.976
 275.0  34.975   1.950
 276.0  34.976   1.925
 277.0  34.976   1.908
 278.0  34.977   1.899
 279.0  34.977   1.893
 280.0  34.979   1.888
 281.0  34.980   1.880
 282.0  34.980   1.854
 283.0  34.981   1.810
 284.0  34.983   1.757
 285.0  34.984   1.742
 286.0  34.984   1.729
 287.0  34.985   1.723
 288.0  34.984   1.704
 289.0  34.986   1.658
 290.0  34.986   1.636
 291.0  34.987   1.618
 292.0  34.987   1.597
 293.0  34.987   1.570
 294.0  34.988   1.534
 295.0  34.988   1.524
 296.0  34.988   1.485
 297.0  34.988   1.461
 298.0  34.987   1.425
 299.0  34.988   1.405
 300.0  34.987   1.370
 301.0  34.988   1.344
 302.0  34.989   1.338
 303.0  34.989   1.333
 304.0  34.988   1.322
 305.0  34.989   1.300
 306.0  34.989   1.284
 307.0  34.989   1.261
 308.0  34.989   1.244
 309.0  34.989   1.236
 310.0  34.989   1.207
 311.0  34.989   1.185
 312.0  34.990   1.172
 313.0  34.990   1.165
 314.0  34.990   1.159
 315.0  34.990   1.153
 316.0  34.990   1.148
 317.0  34.989   1.123
 318.0  34.990   1.101
 319.0  34.989   1.088
 320.0  34.989   1.076
 321.0  34.989   1.058
 322.0  34.989   1.037
 323.0  34.989   1.025
 324.0  34.989   1.012
 325.0  34.988   0.988
 326.0  34.988   0.963
 327.0  34.989   0.951
 328.0  34.988   0.941
 329.0  34.989   0.929
 330.0  34.989   0.926
 331.0  34.989   0.925
 332.0  34.989   0.923
 333.0  34.989   0.915
 334.0  34.990   0.906
