   1.0  31.956   4.407
   2.0  31.980   4.376
   3.0  31.990   4.362
   4.0  32.075   4.282
   5.0  32.442   4.089
   6.0  33.175   3.736
   7.0  33.588   3.611
   8.0  33.880   3.632
   9.0  34.027   3.731
  10.0  34.098   3.834
  11.0  34.187   3.993
  12.0  34.235   4.100
  13.0  34.303   4.224
  14.0  34.335   4.272
  15.0  34.393   4.324
  16.0  34.546   4.404
  17.0  34.550   4.416
  18.0  34.565   4.436
  19.0  34.580   4.458
  20.0  34.584   4.450
  21.0  34.601   4.420
  22.0  34.624   4.366
  23.0  34.629   4.263
  24.0  34.633   4.229
  25.0  34.638   4.211
  26.0  34.657   4.157
  27.0  34.688   4.074
  28.0  34.713   3.993
  29.0  34.729   3.926
  30.0  34.745   3.893
  31.0  34.756   3.876
  32.0  34.772   3.806
  33.0  34.776   3.795
  34.0  34.784   3.730
  35.0  34.799   3.626
  36.0  34.807   3.581
  37.0  34.815   3.514
  38.0  34.820   3.478
  39.0  34.827   3.386
  40.0  34.830   3.252
  41.0  34.833   3.151
  42.0  34.835   3.126
  43.0  34.837   3.123
  44.0  34.836   3.096
  45.0  34.834   3.026
  46.0  34.835   3.018
  47.0  34.835   3.014
  48.0  34.834   2.992
  49.0  34.832   2.957
  50.0  34.832   2.937
  51.0  34.831   2.910
  52.0  34.830   2.849
  53.0  34.829   2.794
  54.0  34.826   2.765
  55.0  34.824   2.710
