   1.0  31.888   4.194
   2.0  31.902   4.183
   3.0  31.912   4.180
   4.0  32.017   4.093
   5.0  32.173   3.984
   6.0  32.463   3.802
   7.0  32.946   3.664
   8.0  33.109   3.584
   9.0  33.178   3.547
  10.0  33.427   3.469
  11.0  33.869   3.501
  12.0  33.977   3.603
  13.0  33.988   3.621
  14.0  34.000   3.635
  15.0  34.212   3.913
  16.0  34.295   3.831
  17.0  34.315   3.686
  18.0  34.362   3.407
  19.0  34.357   3.107
  20.0  34.417   3.356
  21.0  34.473   3.541
  22.0  34.522   3.759
  23.0  34.528   3.459
  24.0  34.544   3.410
  25.0  34.550   3.429
  26.0  34.556   3.450
  27.0  34.583   3.549
  28.0  34.614   3.538
  29.0  34.654   3.650
  30.0  34.705   3.654
  31.0  34.710   3.638
  32.0  34.720   3.609
  33.0  34.727   3.604
  34.0  34.733   3.613
  35.0  34.739   3.617
  36.0  34.744   3.626
  37.0  34.752   3.553
  38.0  34.764   3.458
  39.0  34.767   3.366
  40.0  34.775   3.320
  41.0  34.773   3.274
  42.0  34.795   3.357
  43.0  34.788   3.293
  44.0  34.789   3.261
  45.0  34.781   3.202
  46.0  34.792   3.230
  47.0  34.795   3.172
  48.0  34.789   3.062
  49.0  34.777   2.902
  50.0  34.781   2.868
  51.0  34.782   2.740
  52.0  34.779   2.685
  53.0  34.793   2.757
  54.0  34.800   2.757
  55.0  34.804   2.742
  56.0  34.808   2.732
  57.0  34.812   2.706
  58.0  34.816   2.644
  59.0  34.813   2.502
  60.0  34.854   2.198
  61.0  34.873   1.973
  62.0  34.891   1.729
  63.0  34.948   1.394
  64.0  34.973   1.204
  65.0  34.995   1.119
  66.0  35.022   1.002
  67.0  35.034   0.942
  68.0  35.040   0.909
  69.0  35.045   0.889
  70.0  35.046   0.882
  71.0  35.047   0.879
  72.0  35.052   0.861
  73.0  35.057   0.835
