   5.0  32.938   3.002
   6.0  32.940   3.008
   7.0  32.937   3.001
   8.0  32.968   3.071
   9.0  32.970   3.077
  10.0  32.986   3.092
  11.0  33.061   3.258
  12.0  33.044   3.241
  13.0  32.992   3.114
  14.0  33.271   3.753
  15.0  33.398   4.226
  16.0  33.493   4.281
  17.0  33.481   4.035
  18.0  33.634   4.321
  19.0  33.667   4.437
  20.0  33.769   4.554
  21.0  33.888   4.637
  22.0  33.947   4.699
  23.0  33.977   4.717
  24.0  33.994   4.749
  25.0  34.025   4.791
  26.0  34.063   4.775
  27.0  34.080   4.691
  28.0  34.129   4.697
  29.0  34.166   4.825
  30.0  34.167   4.782
  31.0  34.166   4.621
  32.0  34.160   4.465
  33.0  34.161   4.397
  34.0  34.165   4.281
  35.0  34.194   4.296
  36.0  34.196   4.298
  37.0  34.207   4.156
  38.0  34.264   4.417
  39.0  34.268   4.371
  40.0  34.312   4.419
  41.0  34.337   4.519
  42.0  34.342   4.487
  43.0  34.347   4.449
  44.0  34.350   4.398
  45.0  34.361   4.290
  46.0  34.382   4.396
  47.0  34.388   4.356
  48.0  34.412   4.362
  49.0  34.410   4.340
  50.0  34.416   4.324
  51.0  34.449   4.441
  52.0  34.502   4.610
  53.0  34.504   4.680
  54.0  34.472   4.474
  55.0  34.504   4.367
  56.0  34.541   4.654
  57.0  34.529   4.601
  58.0  34.497   4.357
  59.0  34.495   4.164
  60.0  34.514   4.191
  61.0  34.574   4.417
  62.0  34.605   4.624
  63.0  34.615   4.661
  64.0  34.608   4.628
  65.0  34.578   4.440
  66.0  34.578   4.326
  67.0  34.575   4.306
  68.0  34.587   4.329
  69.0  34.633   4.573
  70.0  34.664   4.724
  71.0  34.691   4.877
  72.0  34.691   4.883
  73.0  34.682   4.766
  74.0  34.714   4.887
  75.0  34.717   4.888
  76.0  34.705   4.809
  77.0  34.684   4.699
  78.0  34.675   4.597
  79.0  34.663   4.551
  80.0  34.610   4.218
  81.0  34.563   3.740
  82.0  34.546   3.549
  83.0  34.516   3.352
  84.0  34.504   3.099
  85.0  34.526   3.149
  86.0  34.568   3.424
  87.0  34.577   3.472
  88.0  34.587   3.541
  89.0  34.604   3.609
  90.0  34.609   3.669
  91.0  34.603   3.545
  92.0  34.606   3.520
  93.0  34.620   3.570
  94.0  34.628   3.627
  95.0  34.630   3.630
  96.0  34.632   3.637
  97.0  34.633   3.642
  98.0  34.642   3.680
  99.0  34.644   3.632
 100.0  34.650   3.639
 101.0  34.671   3.738
 102.0  34.671   3.751
 103.0  34.660   3.581
 104.0  34.667   3.589
 105.0  34.672   3.613
 106.0  34.704   3.761
 107.0  34.720   3.856
 108.0  34.715   3.873
 109.0  34.700   3.672
 110.0  34.702   3.639
 111.0  34.709   3.676
 112.0  34.700   3.596
 113.0  34.694   3.505
 114.0  34.703   3.516
 115.0  34.694   3.467
 116.0  34.684   3.357
 117.0  34.652   3.273
 118.0  34.677   3.222
 119.0  34.684   3.223
 120.0  34.698   3.288
 121.0  34.700   3.302
 122.0  34.690   3.184
 123.0  34.690   3.068
 124.0  34.690   3.058
 125.0  34.694   3.027
 126.0  34.692   2.985
 127.0  34.690   2.855
 128.0  34.691   2.786
 129.0  34.691   2.740
 130.0  34.694   2.704
 131.0  34.700   2.702
 132.0  34.701   2.657
 133.0  34.708   2.669
 134.0  34.705   2.607
 135.0  34.700   2.546
 136.0  34.692   2.473
 137.0  34.694   2.423
 138.0  34.693   2.406
 139.0  34.696   2.394
 140.0  34.713   2.466
 141.0  34.716   2.457
 142.0  34.721   2.428
 143.0  34.724   2.442
 144.0  34.724   2.426
 145.0  34.726   2.400
 146.0  34.726   2.397
 147.0  34.726   2.386
 148.0  34.727   2.357
 149.0  34.733   2.336
 150.0  34.738   2.317
 151.0  34.742   2.303
