   5.0  33.560   4.428
   6.0  33.555   4.426
   7.0  33.601   4.485
   8.0  33.656   4.564
   9.0  33.672   4.583
  10.0  33.674   4.582
  11.0  33.676   4.582
  12.0  33.682   4.592
  13.0  33.687   4.599
  14.0  33.703   4.628
  15.0  33.725   4.658
  16.0  33.739   4.681
  17.0  33.757   4.725
  18.0  33.770   4.750
  19.0  33.774   4.761
  20.0  33.777   4.765
  21.0  33.784   4.776
  22.0  33.806   4.806
  23.0  33.894   4.946
  24.0  33.929   5.027
  25.0  33.944   5.054
  26.0  33.957   5.076
  27.0  33.984   5.099
  28.0  34.037   5.194
  29.0  34.066   5.258
  30.0  34.077   5.267
  31.0  34.089   5.262
  32.0  34.114   5.286
  33.0  34.146   5.333
  34.0  34.198   5.367
  35.0  34.254   5.410
  36.0  34.285   5.451
  37.0  34.335   5.506
  38.0  34.356   5.523
  39.0  34.361   5.523
  40.0  34.369   5.529
  41.0  34.387   5.537
  42.0  34.397   5.536
  43.0  34.424   5.558
  44.0  34.464   5.582
  45.0  34.490   5.598
  46.0  34.523   5.626
  47.0  34.538   5.620
  48.0  34.552   5.651
  49.0  34.578   5.694
  50.0  34.591   5.637
  51.0  34.605   5.646
  52.0  34.634   5.733
  53.0  34.649   5.731
  54.0  34.672   5.701
  55.0  34.688   5.663
  56.0  34.692   5.657
  57.0  34.692   5.662
  58.0  34.692   5.658
  59.0  34.687   5.611
  60.0  34.687   5.593
  61.0  34.696   5.616
  62.0  34.701   5.639
  63.0  34.708   5.655
  64.0  34.705   5.610
  65.0  34.717   5.592
  66.0  34.717   5.587
  67.0  34.721   5.580
  68.0  34.729   5.615
  69.0  34.729   5.546
  70.0  34.732   5.538
  71.0  34.731   5.519
  72.0  34.746   5.519
  73.0  34.769   5.630
  74.0  34.790   5.742
  75.0  34.802   5.819
  76.0  34.802   5.785
  77.0  34.804   5.742
  78.0  34.838   5.830
  79.0  34.836   5.818
  80.0  34.809   5.579
  81.0  34.809   5.531
  82.0  34.808   5.519
  83.0  34.814   5.507
  84.0  34.826   5.466
  85.0  34.830   5.458
  86.0  34.829   5.455
  87.0  34.824   5.411
  88.0  34.824   5.375
  89.0  34.828   5.354
  90.0  34.841   5.353
  91.0  34.860   5.382
  92.0  34.868   5.371
  93.0  34.858   5.222
  94.0  34.854   5.170
  95.0  34.844   5.084
  96.0  34.846   5.067
  97.0  34.854   5.063
  98.0  34.870   5.133
  99.0  34.861   5.061
 100.0  34.858   5.013
 101.0  34.856   4.985
 102.0  34.855   4.966
 103.0  34.858   4.970
 104.0  34.863   4.994
 105.0  34.865   4.985
 106.0  34.873   4.960
 107.0  34.888   4.979
 108.0  34.901   5.045
 109.0  34.899   5.038
 110.0  34.882   4.901
 111.0  34.889   4.838
 112.0  34.903   4.912
 113.0  34.900   4.900
 114.0  34.902   4.833
 115.0  34.905   4.843
 116.0  34.889   4.786
 117.0  34.880   4.608
