   1.0  31.930   5.653
   2.0  32.044   5.695
   3.0  32.156   5.449
   4.0  32.582   5.281
   5.0  32.990   6.743
   6.0  33.115   7.214
   7.0  33.249   7.236
   8.0  33.416   7.344
   9.0  33.530   7.556
  10.0  33.626   7.671
  11.0  33.717   7.746
  12.0  33.713   7.264
  13.0  33.715   6.926
  14.0  33.718   6.112
  15.0  33.731   5.519
  16.0  33.786   5.407
  17.0  33.850   5.551
  18.0  33.888   5.580
  19.0  33.944   5.479
  20.0  34.009   5.413
  21.0  34.084   5.277
  22.0  34.174   5.250
  23.0  34.256   5.150
  24.0  34.314   5.005
  25.0  34.352   4.812
  26.0  34.389   4.844
  27.0  34.452   4.909
  28.0  34.491   4.807
  29.0  34.504   4.667
  30.0  34.523   4.615
  31.0  34.542   4.596
  32.0  34.560   4.594
  33.0  34.582   4.588
  34.0  34.603   4.554
  35.0  34.627   4.513
  36.0  34.634   4.551
  37.0  34.646   4.588
  38.0  34.659   4.570
  39.0  34.667   4.462
  40.0  34.703   4.520
  41.0  34.724   4.574
  42.0  34.740   4.571
  43.0  34.753   4.537
  44.0  34.768   4.521
  45.0  34.789   4.586
  46.0  34.789   4.548
  47.0  34.796   4.463
  48.0  34.781   4.270
  49.0  34.772   4.043
  50.0  34.783   3.927
  51.0  34.786   3.944
  52.0  34.771   3.755
  53.0  34.764   3.575
  54.0  34.768   3.340
  55.0  34.770   3.335
  56.0  34.777   3.334
  57.0  34.778   3.328
  58.0  34.773   3.267
  59.0  34.780   3.154
  60.0  34.781   3.186
  61.0  34.787   3.221
  62.0  34.818   3.368
  63.0  34.832   3.497
  64.0  34.839   3.529
  65.0  34.839   3.529
  66.0  34.838   3.510
  67.0  34.837   3.468
  68.0  34.835   3.436
  69.0  34.833   3.393
  70.0  34.835   3.385
  71.0  34.836   3.390
  72.0  34.847   3.436
  73.0  34.854   3.492
  74.0  34.856   3.518
  75.0  34.857   3.514
  76.0  34.856   3.505
  77.0  34.856   3.496
  78.0  34.856   3.440
  79.0  34.848   3.367
  80.0  34.840   3.228
  81.0  34.838   3.227
  82.0  34.846   3.267
  83.0  34.856   3.332
  84.0  34.858   3.379
  85.0  34.865   3.404
  86.0  34.868   3.434
  87.0  34.863   3.375
  88.0  34.856   3.245
  89.0  34.852   3.205
  90.0  34.841   3.049
  91.0  34.845   3.021
  92.0  34.848   3.052
  93.0  34.850   3.072
  94.0  34.854   3.083
  95.0  34.855   3.085
  96.0  34.855   3.046
  97.0  34.862   3.074
  98.0  34.880   3.265
  99.0  34.890   3.355
 100.0  34.899   3.444
 101.0  34.907   3.456
 102.0  34.910   3.466
 103.0  34.907   3.440
 104.0  34.907   3.417
 105.0  34.909   3.413
 106.0  34.908   3.413
 107.0  34.911   3.394
 108.0  34.916   3.406
 109.0  34.917   3.416
 110.0  34.916   3.409
 111.0  34.911   3.297
 112.0  34.898   3.165
 113.0  34.895   3.136
 114.0  34.895   3.139
 115.0  34.896   3.158
 116.0  34.897   3.173
 117.0  34.900   3.191
 118.0  34.905   3.230
 119.0  34.905   3.238
 120.0  34.904   3.227
 121.0  34.905   3.229
 122.0  34.906   3.229
 123.0  34.897   3.161
 124.0  34.894   3.093
 125.0  34.894   3.095
 126.0  34.895   3.092
 127.0  34.895   3.092
 128.0  34.896   3.092
 129.0  34.896   3.093
 130.0  34.897   3.090
 131.0  34.898   3.084
 132.0  34.894   3.052
 133.0  34.896   3.049
 134.0  34.896   3.048
 135.0  34.898   3.049
 136.0  34.899   3.063
 137.0  34.898   3.063
 138.0  34.896   3.030
 139.0  34.894   3.014
 140.0  34.892   3.005
 141.0  34.894   3.006
 142.0  34.894   3.013
 143.0  34.898   3.034
 144.0  34.909   3.121
 145.0  34.913   3.159
 146.0  34.916   3.166
 147.0  34.919   3.195
 148.0  34.921   3.201
 149.0  34.922   3.197
 150.0  34.924   3.216
 151.0  34.930   3.253
 152.0  34.933   3.264
 153.0  34.934   3.277
 154.0  34.937   3.280
 155.0  34.939   3.285
 156.0  34.940   3.288
 157.0  34.941   3.282
 158.0  34.941   3.265
 159.0  34.945   3.272
 160.0  34.945   3.275
 161.0  34.947   3.284
 162.0  34.948   3.292
 163.0  34.948   3.289
 164.0  34.946   3.282
 165.0  34.945   3.252
 166.0  34.944   3.232
 167.0  34.943   3.222
 168.0  34.942   3.210
 169.0  34.942   3.188
 170.0  34.940   3.179
 171.0  34.938   3.161
 172.0  34.933   3.119
 173.0  34.933   3.073
 174.0  34.930   3.044
 175.0  34.929   3.036
 176.0  34.929   3.030
 177.0  34.927   3.023
 178.0  34.926   2.983
 179.0  34.923   2.950
 180.0  34.924   2.927
 181.0  34.923   2.928
 182.0  34.927   2.951
 183.0  34.932   2.987
 184.0  34.934   3.012
 185.0  34.934   3.006
 186.0  34.935   3.005
 187.0  34.935   2.991
 188.0  34.934   2.967
 189.0  34.935   2.958
 190.0  34.936   2.960
 191.0  34.936   2.958
 192.0  34.935   2.948
 193.0  34.936   2.938
 194.0  34.936   2.930
 195.0  34.934   2.918
 196.0  34.934   2.891
 197.0  34.933   2.884
 198.0  34.931   2.864
 199.0  34.931   2.853
 200.0  34.931   2.849
 201.0  34.931   2.851
 202.0  34.932   2.858
 203.0  34.933   2.861
 204.0  34.933   2.868
 205.0  34.934   2.870
 206.0  34.936   2.876
 207.0  34.936   2.878
 208.0  34.936   2.881
 209.0  34.937   2.881
 210.0  34.938   2.882
 211.0  34.938   2.883
 212.0  34.938   2.883
 213.0  34.938   2.883
 214.0  34.938   2.883
 215.0  34.938   2.883
 216.0  34.938   2.882
 217.0  34.939   2.883
 218.0  34.938   2.883
 219.0  34.938   2.883
 220.0  34.938   2.883
 221.0  34.938   2.882
 222.0  34.938   2.880
 223.0  34.938   2.872
 224.0  34.938   2.870
 225.0  34.937   2.862
 226.0  34.936   2.832
 227.0  34.937   2.814
 228.0  34.936   2.813
 229.0  34.936   2.807
 230.0  34.936   2.805
 231.0  34.935   2.799
 232.0  34.936   2.795
 233.0  34.937   2.793
 234.0  34.936   2.792
 235.0  34.935   2.785
 236.0  34.925   2.765
 237.0  34.933   2.716
 238.0  34.933   2.695
 239.0  34.932   2.663
 240.0  34.935   2.656
 241.0  34.934   2.654
 242.0  34.932   2.604
 243.0  34.935   2.577
 244.0  34.936   2.578
 245.0  34.939   2.584
 246.0  34.939   2.569
 247.0  34.942   2.528
 248.0  34.945   2.492
 249.0  34.948   2.476
 250.0  34.954   2.459
 251.0  34.958   2.428
 252.0  34.959   2.383
 253.0  34.965   2.336
 254.0  34.970   2.294
 255.0  34.975   2.246
 256.0  34.983   2.163
 257.0  34.987   2.125
 258.0  34.990   2.098
 259.0  34.990   2.088
 260.0  34.990   2.082
 261.0  34.992   2.064
 262.0  34.997   2.021
 263.0  35.002   1.975
 264.0  35.004   1.948
 265.0  35.006   1.930
 266.0  35.008   1.916
 267.0  35.008   1.906
 268.0  35.009   1.895
 269.0  35.009   1.887
 270.0  35.009   1.885
 271.0  35.009   1.884
 272.0  35.009   1.882
 273.0  35.006   1.877
 274.0  35.010   1.875
 275.0  35.010   1.871
 276.0  35.010   1.870
 277.0  35.010   1.869
 278.0  35.009   1.869
 279.0  35.010   1.866
 280.0  35.010   1.859
 281.0  35.011   1.854
 282.0  35.011   1.852
 283.0  35.011   1.851
 284.0  35.011   1.850
