   1.0  32.253   3.714
   2.0  32.812   3.258
   3.0  33.252   3.430
   4.0  33.365   3.421
   5.0  33.550   3.361
   6.0  33.665   3.367
   7.0  33.719   3.372
   8.0  33.747   3.391
   9.0  33.752   3.409
  10.0  33.757   3.416
  11.0  33.774   3.412
  12.0  33.792   3.420
  13.0  33.817   3.358
  14.0  33.907   3.058
  15.0  34.016   2.857
  16.0  34.076   2.740
  17.0  34.297   2.934
  18.0  34.450   3.415
  19.0  34.542   3.661
  20.0  34.602   3.714
  21.0  34.619   3.716
  22.0  34.627   3.730
  23.0  34.631   3.732
  24.0  34.653   3.749
  25.0  34.657   3.721
  26.0  34.661   3.706
  27.0  34.675   3.655
  28.0  34.682   3.622
  29.0  34.681   3.579
  30.0  34.687   3.572
  31.0  34.693   3.559
  32.0  34.708   3.494
  33.0  34.732   3.192
  34.0  34.769   3.131
  35.0  34.791   3.029
  36.0  34.797   2.957
  37.0  34.804   2.858
  38.0  34.808   2.867
