   1.0  32.686   2.118
   2.0  32.745   2.156
   3.0  32.765   2.165
   4.0  32.852   2.221
   5.0  33.181   2.666
   6.0  33.401   3.054
   7.0  33.548   3.261
   8.0  33.627   3.304
   9.0  33.669   3.302
  10.0  33.698   3.002
  11.0  33.717   2.171
  12.0  33.744   2.277
  13.0  33.763   2.154
  14.0  33.831   2.180
  15.0  33.954   2.170
  16.0  33.962   2.095
  17.0  33.957   2.029
  18.0  33.998   1.856
  19.0  34.032   1.790
  20.0  34.067   1.743
  21.0  34.135   1.701
  22.0  34.191   1.677
  23.0  34.205   1.694
  24.0  34.251   1.723
  25.0  34.342   1.602
  26.0  34.392   1.668
  27.0  34.407   1.701
  28.0  34.413   1.693
  29.0  34.419   1.679
  30.0  34.424   1.674
  31.0  34.437   1.672
  32.0  34.475   1.682
  33.0  34.490   1.632
  34.0  34.494   1.630
  35.0  34.497   1.645
  36.0  34.496   1.641
  37.0  34.497   1.593
  38.0  34.510   1.640
  39.0  34.525   1.715
  40.0  34.530   1.721
  41.0  34.529   1.684
  42.0  34.526   1.664
  43.0  34.523   1.618
  44.0  34.524   1.596
  45.0  34.531   1.620
  46.0  34.545   1.703
  47.0  34.546   1.720
  48.0  34.555   1.782
  49.0  34.559   1.802
  50.0  34.558   1.800
  51.0  34.574   1.909
  52.0  34.582   1.980
  53.0  34.589   2.046
  54.0  34.598   2.119
  55.0  34.616   2.235
  56.0  34.671   2.531
  57.0  34.679   2.579
  58.0  34.676   2.543
  59.0  34.673   2.505
  60.0  34.675   2.509
  61.0  34.675   2.516
  62.0  34.674   2.511
  63.0  34.680   2.539
  64.0  34.684   2.558
  65.0  34.689   2.586
  66.0  34.697   2.630
  67.0  34.693   2.615
  68.0  34.699   2.637
  69.0  34.698   2.604
  70.0  34.697   2.555
  71.0  34.699   2.530
  72.0  34.707   2.503
  73.0  34.707   2.490
  74.0  34.705   2.493
  75.0  34.703   2.478
  76.0  34.702   2.458
  77.0  34.700   2.451
  78.0  34.701   2.464
  79.0  34.705   2.494
  80.0  34.707   2.501
  81.0  34.709   2.510
  82.0  34.709   2.509
  83.0  34.706   2.474
