   1.0  32.801   3.671
   2.0  33.284   3.436
   3.0  33.687   3.347
   4.0  33.571   3.382
   5.0  33.599   3.384
   6.0  33.624   3.407
   7.0  33.656   3.428
   8.0  33.686   3.447
   9.0  33.719   3.473
  10.0  33.748   3.483
  11.0  33.754   3.470
  12.0  33.754   3.434
  13.0  33.816   3.433
  14.0  33.829   3.394
  15.0  33.797   2.475
  16.0  33.872   2.080
  17.0  34.024   2.371
  18.0  34.174   2.917
  19.0  34.279   3.307
  20.0  34.355   3.413
  21.0  34.429   3.440
  22.0  34.479   3.525
  23.0  34.518   3.538
  24.0  34.543   3.544
  25.0  34.569   3.505
  26.0  34.584   3.527
  27.0  34.585   3.462
  28.0  34.601   3.447
  29.0  34.637   3.491
  30.0  34.656   3.448
  31.0  34.660   3.338
  32.0  34.655   3.085
  33.0  34.690   3.056
  34.0  34.759   3.053
  35.0  34.774   3.005
  36.0  34.801   2.791
  37.0  34.805   2.767
  38.0  34.808   2.752
  39.0  34.810   2.744
  40.0  34.810   2.741
  41.0  34.813   2.710
