   1.0  33.614   5.699
   2.0  33.733   5.163
   3.0  33.801   4.662
   4.0  33.872   4.769
   5.0  34.115   4.786
   6.0  34.208   4.729
   7.0  34.349   4.595
   8.0  34.408   4.566
   9.0  34.447   4.560
  10.0  34.471   4.550
  11.0  34.512   4.479
  12.0  34.551   4.366
  13.0  34.575   4.163
  14.0  34.628   4.271
  15.0  34.666   4.402
  16.0  34.709   4.474
  17.0  34.748   4.503
  18.0  34.779   4.524
  19.0  34.811   4.548
  20.0  34.852   4.668
  21.0  34.894   4.831
  22.0  34.889   4.677
  23.0  34.855   4.308
  24.0  34.814   3.852
  25.0  34.821   3.913
  26.0  34.832   3.887
  27.0  34.822   3.647
  28.0  34.808   3.525
  29.0  34.807   3.465
  30.0  34.818   3.443
  31.0  34.829   3.397
  32.0  34.840   3.404
  33.0  34.847   3.300
  34.0  34.854   3.164
  35.0  34.849   3.144
  36.0  34.835   2.993
  37.0  34.843   2.981
  38.0  34.843   2.914
  39.0  34.844   2.844
  40.0  34.844   2.818
  41.0  34.845   2.798
  42.0  34.841   2.692
  43.0  34.825   2.577
  44.0  34.818   2.412
  45.0  34.820   2.396
  46.0  34.824   2.397
  47.0  34.827   2.381
  48.0  34.829   2.355
  49.0  34.836   2.295
  50.0  34.811   2.120
  51.0  34.806   2.033
  52.0  34.802   1.941
  53.0  34.804   1.906
  54.0  34.805   1.881
  55.0  34.808   1.875
  56.0  34.815   1.876
  57.0  34.819   1.886
  58.0  34.834   1.957
  59.0  34.848   2.008
  60.0  34.849   2.038
  61.0  34.858   2.061
  62.0  34.869   2.087
  63.0  34.869   2.072
  64.0  34.870   2.071
  65.0  34.871   2.062
  66.0  34.870   2.056
  67.0  34.869   2.026
  68.0  34.867   1.973
  69.0  34.867   1.945
  70.0  34.866   1.938
  71.0  34.868   1.935
  72.0  34.870   1.939
  73.0  34.873   1.950
  74.0  34.877   1.959
  75.0  34.886   1.990
  76.0  34.889   1.998
  77.0  34.891   2.006
  78.0  34.895   2.014
  79.0  34.898   2.026
  80.0  34.902   2.042
  81.0  34.905   2.055
  82.0  34.906   2.057
  83.0  34.908   2.070
  84.0  34.909   2.077
  85.0  34.911   2.084
  86.0  34.911   2.084
  87.0  34.912   2.082
  88.0  34.913   2.077
  89.0  34.913   2.078
  90.0  34.918   2.101
  91.0  34.925   2.146
  92.0  34.932   2.191
  93.0  34.948   2.287
  94.0  34.966   2.486
  95.0  35.006   2.677
  96.0  35.013   2.751
  97.0  35.007   2.721
  98.0  35.000   2.640
  99.0  34.994   2.612
 100.0  34.994   2.610
 101.0  35.004   2.680
 102.0  35.013   2.732
 103.0  35.024   2.803
 104.0  35.035   2.857
 105.0  35.046   2.933
 106.0  35.046   2.943
 107.0  35.048   2.950
 108.0  35.048   2.947
 109.0  35.048   2.950
 110.0  35.047   2.957
 111.0  35.052   2.981
 112.0  35.082   3.164
 113.0  35.103   3.314
 114.0  35.105   3.326
 115.0  35.105   3.332
 116.0  35.104   3.334
 117.0  35.100   3.311
 118.0  35.100   3.307
 119.0  35.100   3.309
 120.0  35.101   3.315
 121.0  35.101   3.318
 122.0  35.099   3.298
 123.0  35.091   3.218
 124.0  35.089   3.208
 125.0  35.081   3.158
 126.0  35.076   3.099
 127.0  35.070   3.057
 128.0  35.066   3.020
 129.0  35.064   3.002
 130.0  35.063   2.984
 131.0  35.062   2.974
 132.0  35.063   2.974
 133.0  35.065   2.979
 134.0  35.067   2.992
 135.0  35.069   2.999
 136.0  35.070   3.000
 137.0  35.074   3.015
 138.0  35.075   3.021
 139.0  35.075   3.025
 140.0  35.075   3.026
 141.0  35.076   3.025
 142.0  35.075   3.022
 143.0  35.075   3.018
 144.0  35.073   3.005
 145.0  35.070   2.985
 146.0  35.069   2.970
 147.0  35.066   2.951
 148.0  35.064   2.934
 149.0  35.063   2.911
 150.0  35.060   2.892
 151.0  35.058   2.865
 152.0  35.058   2.846
 153.0  35.058   2.838
 154.0  35.057   2.828
 155.0  35.058   2.818
 156.0  35.057   2.811
 157.0  35.057   2.804
 158.0  35.057   2.801
 159.0  35.057   2.795
 160.0  35.057   2.793
 161.0  35.057   2.793
 162.0  35.057   2.793
 163.0  35.058   2.794
 164.0  35.058   2.795
 165.0  35.058   2.796
 166.0  35.058   2.796
 167.0  35.058   2.794
 168.0  35.058   2.793
 169.0  35.058   2.792
 170.0  35.058   2.792
 171.0  35.059   2.792
 172.0  35.058   2.791
 173.0  35.059   2.786
 174.0  35.058   2.786
 175.0  35.056   2.773
 176.0  35.050   2.713
 177.0  35.049   2.697
 178.0  35.047   2.678
 179.0  35.044   2.656
 180.0  35.043   2.632
 181.0  35.043   2.619
 182.0  35.041   2.599
 183.0  35.040   2.588
 184.0  35.037   2.554
 185.0  35.035   2.531
 186.0  35.035   2.518
 187.0  35.034   2.500
 188.0  35.035   2.499
 189.0  35.036   2.506
 190.0  35.038   2.514
 191.0  35.040   2.518
 192.0  35.040   2.521
 193.0  35.040   2.524
 194.0  35.041   2.525
 195.0  35.040   2.520
 196.0  35.040   2.517
 197.0  35.040   2.512
 198.0  35.039   2.507
 199.0  35.039   2.500
 200.0  35.038   2.493
 201.0  35.038   2.484
 202.0  35.037   2.481
 203.0  35.038   2.477
 204.0  35.038   2.475
 205.0  35.039   2.479
 206.0  35.040   2.482
 207.0  35.040   2.477
 208.0  35.039   2.462
 209.0  35.039   2.453
 210.0  35.039   2.451
 211.0  35.039   2.446
 212.0  35.041   2.439
 213.0  35.042   2.430
 214.0  35.044   2.416
 215.0  35.048   2.396
 216.0  35.050   2.383
 217.0  35.052   2.373
 218.0  35.053   2.367
 219.0  35.054   2.362
 220.0  35.057   2.356
 221.0  35.058   2.348
 222.0  35.064   2.330
 223.0  35.067   2.319
 224.0  35.070   2.306
 225.0  35.075   2.285
 226.0  35.080   2.266
 227.0  35.084   2.252
 228.0  35.092   2.212
 229.0  35.102   2.177
