   2.0  31.509   3.241
   3.0  31.502   3.248
   4.0  32.085   3.448
   5.0  32.426   3.464
   6.0  32.722   3.505
   7.0  33.167   3.382
   8.0  33.279   3.324
   9.0  33.440   3.342
  10.0  33.519   3.361
  11.0  33.578   3.371
  12.0  33.625   3.380
  13.0  33.672   3.387
  14.0  33.702   3.382
  15.0  33.814   3.392
  16.0  34.089   3.536
  17.0  34.141   3.490
  18.0  34.236   3.614
  19.0  34.302   3.825
  20.0  34.328   3.906
  21.0  34.364   3.815
  22.0  34.384   3.767
  23.0  34.431   3.847
  24.0  34.459   3.816
  25.0  34.462   3.752
  26.0  34.475   3.680
  27.0  34.547   3.639
  28.0  34.555   3.614
  29.0  34.560   3.621
  30.0  34.582   3.708
