   5.0  33.427   4.282
   6.0  33.425   4.269
   7.0  33.485   4.362
   8.0  33.496   4.379
   9.0  33.511   4.395
  10.0  33.535   4.427
  11.0  33.555   4.453
  12.0  33.579   4.483
  13.0  33.654   4.569
  14.0  33.689   4.619
  15.0  33.697   4.628
  16.0  33.708   4.646
  17.0  33.714   4.654
  18.0  33.726   4.671
  19.0  33.733   4.682
  20.0  33.747   4.703
  21.0  33.765   4.733
  22.0  33.771   4.746
  23.0  33.783   4.765
  24.0  33.793   4.785
  25.0  33.798   4.797
  26.0  33.814   4.811
  27.0  33.897   4.889
  28.0  33.956   4.967
  29.0  33.967   4.984
  30.0  34.002   5.041
  31.0  34.058   5.114
  32.0  34.081   5.133
  33.0  34.089   5.138
  34.0  34.099   5.146
  35.0  34.132   5.179
  36.0  34.155   5.220
  37.0  34.161   5.235
  38.0  34.166   5.246
  39.0  34.173   5.260
  40.0  34.190   5.288
  41.0  34.200   5.299
  42.0  34.320   5.434
  43.0  34.377   5.495
  44.0  34.388   5.505
  45.0  34.405   5.522
  46.0  34.429   5.539
  47.0  34.452   5.539
  48.0  34.466   5.541
  49.0  34.487   5.550
  50.0  34.519   5.586
  51.0  34.520   5.597
  52.0  34.524   5.616
  53.0  34.528   5.621
  54.0  34.530   5.622
  55.0  34.532   5.623
  56.0  34.548   5.625
  57.0  34.568   5.577
  58.0  34.571   5.570
  59.0  34.585   5.541
  60.0  34.596   5.532
  61.0  34.608   5.550
  62.0  34.637   5.607
  63.0  34.671   5.761
  64.0  34.700   5.801
  65.0  34.729   5.827
  66.0  34.747   5.835
  67.0  34.765   5.847
  68.0  34.783   5.837
  69.0  34.773   5.715
  70.0  34.809   5.744
  71.0  34.855   5.950
  72.0  34.891   6.114
  73.0  34.887   6.084
  74.0  34.884   6.046
  75.0  34.883   6.026
  76.0  34.886   6.031
  77.0  34.913   6.119
  78.0  34.930   6.188
  79.0  34.952   6.267
  80.0  34.880   5.787
  81.0  34.911   5.731
  82.0  34.919   5.821
  83.0  34.905   5.702
  84.0  34.930   5.745
  85.0  34.877   5.527
  86.0  34.839   5.072
  87.0  34.830   4.966
  88.0  34.832   4.937
  89.0  34.835   4.886
  90.0  34.831   4.823
  91.0  34.827   4.763
  92.0  34.817   4.633
  93.0  34.817   4.493
  94.0  34.818   4.475
  95.0  34.820   4.455
  96.0  34.824   4.457
  97.0  34.825   4.458
  98.0  34.826   4.457
  99.0  34.827   4.459
 100.0  34.837   4.488
 101.0  34.847   4.532
 102.0  34.857   4.554
 103.0  34.862   4.555
 104.0  34.865   4.568
 105.0  34.867   4.565
 106.0  34.876   4.596
 107.0  34.880   4.617
 108.0  34.880   4.611
 109.0  34.864   4.525
 110.0  34.823   4.230
 111.0  34.803   3.987
 112.0  34.803   3.917
 113.0  34.800   3.896
 114.0  34.797   3.849
 115.0  34.797   3.829
 116.0  34.795   3.782
 117.0  34.792   3.729
 118.0  34.792   3.706
 119.0  34.790   3.683
 120.0  34.800   3.704
 121.0  34.796   3.675
 122.0  34.790   3.575
 123.0  34.788   3.532
 124.0  34.785   3.503
 125.0  34.783   3.458
 126.0  34.782   3.436
 127.0  34.781   3.421
 128.0  34.781   3.404
 129.0  34.779   3.386
 130.0  34.776   3.349
 131.0  34.773   3.310
 132.0  34.769   3.268
 133.0  34.762   3.200
 134.0  34.758   3.108
 135.0  34.763   3.120
 136.0  34.767   3.142
 137.0  34.767   3.130
 138.0  34.773   3.148
 139.0  34.776   3.162
 140.0  34.776   3.161
 141.0  34.772   3.123
 142.0  34.769   3.067
 143.0  34.766   3.028
 144.0  34.766   2.990
 145.0  34.765   2.967
 146.0  34.764   2.948
 147.0  34.762   2.915
 148.0  34.760   2.878
 149.0  34.758   2.846
 150.0  34.757   2.820
 151.0  34.759   2.812
 152.0  34.760   2.823
 153.0  34.759   2.797
 154.0  34.759   2.779
 155.0  34.758   2.763
 156.0  34.754   2.733
 157.0  34.751   2.684
 158.0  34.748   2.649
 159.0  34.751   2.646
 160.0  34.793   2.859
 161.0  34.790   2.893
 162.0  34.791   2.895
 163.0  34.795   2.911
 164.0  34.796   2.921
 165.0  34.795   2.912
 166.0  34.792   2.886
 167.0  34.788   2.837
 168.0  34.785   2.793
 169.0  34.785   2.783
 170.0  34.785   2.780
 171.0  34.783   2.764
 172.0  34.780   2.736
 173.0  34.777   2.692
 174.0  34.776   2.659
 175.0  34.779   2.658
 176.0  34.782   2.664
 177.0  34.783   2.653
 178.0  34.783   2.645
 179.0  34.786   2.647
 180.0  34.791   2.668
 181.0  34.791   2.675
 182.0  34.781   2.612
 183.0  34.780   2.534
 184.0  34.781   2.517
 185.0  34.782   2.519
 186.0  34.783   2.508
 187.0  34.782   2.493
 188.0  34.783   2.484
 189.0  34.785   2.494
 190.0  34.785   2.491
 191.0  34.782   2.466
 192.0  34.788   2.461
 193.0  34.791   2.481
 194.0  34.791   2.477
 195.0  34.789   2.456
 196.0  34.793   2.457
 197.0  34.798   2.496
 198.0  34.797   2.487
 199.0  34.797   2.479
 200.0  34.795   2.461
 201.0  34.795   2.445
 202.0  34.792   2.423
 203.0  34.791   2.409
 204.0  34.791   2.406
 205.0  34.797   2.427
 206.0  34.800   2.458
 207.0  34.801   2.463
 208.0  34.801   2.463
 209.0  34.801   2.463
 210.0  34.800   2.445
 211.0  34.800   2.435
 212.0  34.801   2.436
 213.0  34.802   2.442
 214.0  34.803   2.444
 215.0  34.803   2.443
 216.0  34.810   2.480
 217.0  34.814   2.498
 218.0  34.815   2.503
 219.0  34.817   2.501
 220.0  34.818   2.494
 221.0  34.818   2.489
 222.0  34.818   2.489
 223.0  34.819   2.490
 224.0  34.820   2.491
 225.0  34.820   2.491
 226.0  34.821   2.487
 227.0  34.823   2.487
 228.0  34.830   2.518
 229.0  34.840   2.566
 230.0  34.846   2.619
 231.0  34.846   2.608
 232.0  34.846   2.602
 233.0  34.846   2.582
 234.0  34.846   2.573
 235.0  34.846   2.573
 236.0  34.848   2.572
 237.0  34.851   2.571
 238.0  34.851   2.561
 239.0  34.852   2.554
 240.0  34.852   2.554
 241.0  34.852   2.554
 242.0  34.855   2.554
 243.0  34.858   2.542
 244.0  34.859   2.536
 245.0  34.859   2.535
 246.0  34.859   2.534
 247.0  34.860   2.529
 248.0  34.861   2.527
 249.0  34.864   2.523
 250.0  34.865   2.522
 251.0  34.867   2.522
 252.0  34.869   2.521
 253.0  34.870   2.517
 254.0  34.871   2.514
 255.0  34.874   2.509
