   5.0  33.492   3.948
   6.0  33.568   4.104
   7.0  33.611   4.164
   8.0  33.621   4.034
   9.0  33.615   3.993
  10.0  33.621   3.975
  11.0  33.636   3.981
  12.0  33.659   3.999
  13.0  33.665   3.994
  14.0  33.670   3.990
  15.0  33.694   3.993
  16.0  33.752   4.181
  17.0  33.742   4.046
  18.0  33.856   4.113
  19.0  33.973   4.266
  20.0  34.154   4.665
  21.0  34.206   4.850
  22.0  34.225   4.909
  23.0  34.206   4.745
  24.0  34.200   4.514
  25.0  34.211   4.478
  26.0  34.236   4.566
  27.0  34.256   4.633
  28.0  34.266   4.638
  29.0  34.278   4.637
  30.0  34.291   4.660
  31.0  34.296   4.662
  32.0  34.298   4.669
  33.0  34.303   4.684
  34.0  34.324   4.733
  35.0  34.346   4.784
  36.0  34.375   4.832
  37.0  34.420   4.924
  38.0  34.431   4.946
  39.0  34.438   4.958
  40.0  34.445   4.949
  41.0  34.461   4.946
  42.0  34.471   4.952
  43.0  34.487   4.985
  44.0  34.503   5.012
  45.0  34.525   4.982
  46.0  34.537   4.950
  47.0  34.540   4.938
  48.0  34.545   4.917
  49.0  34.545   4.908
  50.0  34.547   4.903
  51.0  34.561   4.861
  52.0  34.569   4.836
  53.0  34.579   4.803
  54.0  34.588   4.772
  55.0  34.592   4.733
  56.0  34.614   4.532
  57.0  34.626   4.432
