   1.0  33.587   4.285
   2.0  33.722   4.210
   3.0  33.834   4.142
   4.0  33.917   4.181
   5.0  34.005   4.356
   6.0  34.165   4.643
   7.0  34.247   4.769
   8.0  34.291   4.752
   9.0  34.359   4.517
  10.0  34.395   4.399
  11.0  34.438   4.451
  12.0  34.511   4.524
  13.0  34.588   4.567
  14.0  34.656   4.554
  15.0  34.683   4.433
  16.0  34.717   4.271
  17.0  34.743   4.121
  18.0  34.786   4.119
  19.0  34.846   4.203
  20.0  34.864   4.144
  21.0  34.861   3.971
  22.0  34.857   3.923
  23.0  34.856   3.865
  24.0  34.850   3.776
  25.0  34.844   3.673
  26.0  34.835   3.536
  27.0  34.833   3.399
  28.0  34.827   3.241
  29.0  34.827   3.075
  30.0  34.825   2.911
  31.0  34.817   2.720
  32.0  34.825   2.638
  33.0  34.830   2.634
  34.0  34.835   2.654
  35.0  34.848   2.687
  36.0  34.850   2.626
  37.0  34.850   2.554
  38.0  34.847   2.508
  39.0  34.845   2.446
  40.0  34.840   2.333
  41.0  34.836   2.279
  42.0  34.834   2.228
  43.0  34.832   2.193
  44.0  34.832   2.176
  45.0  34.831   2.128
  46.0  34.833   2.109
  47.0  34.835   2.050
  48.0  34.832   2.005
  49.0  34.833   1.998
  50.0  34.836   2.005
  51.0  34.841   2.035
  52.0  34.845   2.042
  53.0  34.843   2.012
  54.0  34.842   1.985
  55.0  34.840   1.974
  56.0  34.841   1.976
  57.0  34.839   1.963
  58.0  34.838   1.954
  59.0  34.838   1.944
  60.0  34.838   1.943
  61.0  34.839   1.943
  62.0  34.843   1.944
  63.0  34.848   1.952
  64.0  34.854   1.980
  65.0  34.855   1.985
  66.0  34.855   1.985
  67.0  34.856   1.986
  68.0  34.857   1.991
  69.0  34.862   2.010
  70.0  34.873   2.061
  71.0  34.879   2.068
  72.0  34.881   2.055
  73.0  34.883   2.062
  74.0  34.882   2.053
  75.0  34.884   2.049
  76.0  34.890   2.058
