   1.0  32.034   4.279
   2.0  32.047   4.264
   3.0  32.101   4.233
   4.0  32.253   4.159
   5.0  32.722   3.857
   6.0  33.041   3.746
   7.0  33.346   3.706
   8.0  33.953   3.755
   9.0  33.996   3.802
  10.0  34.016   3.812
  11.0  34.058   3.805
  12.0  34.075   3.838
  13.0  34.104   3.894
  14.0  34.207   4.045
  15.0  34.220   4.068
  16.0  34.356   4.237
  17.0  34.431   4.332
  18.0  34.441   4.342
  19.0  34.487   4.369
  20.0  34.616   4.426
  21.0  34.678   4.458
  22.0  34.668   4.413
  23.0  34.672   4.404
  24.0  34.682   4.397
  25.0  34.692   4.298
  26.0  34.691   4.100
  27.0  34.756   3.976
  28.0  34.823   3.718
  29.0  34.837   3.469
  30.0  34.840   3.500
  31.0  34.844   3.323
  32.0  34.846   3.287
  33.0  34.848   3.289
  34.0  34.844   3.315
