   1.0  33.678   4.317
   2.0  33.764   4.322
   3.0  33.942   4.468
   4.0  34.206   4.756
   5.0  34.316   4.771
   6.0  34.401   4.719
   7.0  34.411   4.370
   8.0  34.461   4.332
   9.0  34.526   4.317
  10.0  34.590   4.338
  11.0  34.622   4.262
  12.0  34.633   4.088
  13.0  34.639   4.013
  14.0  34.648   3.969
  15.0  34.653   3.956
  16.0  34.662   3.957
  17.0  34.682   3.974
  18.0  34.717   4.018
  19.0  34.748   4.055
  20.0  34.776   4.124
  21.0  34.827   4.248
  22.0  34.858   4.312
  23.0  34.875   4.329
  24.0  34.891   4.265
  25.0  34.883   4.026
  26.0  34.859   3.756
  27.0  34.843   3.525
  28.0  34.826   3.292
  29.0  34.811   3.118
  30.0  34.812   3.108
  31.0  34.853   3.333
  32.0  34.876   3.346
  33.0  34.862   3.110
  34.0  34.863   3.061
  35.0  34.860   2.966
  36.0  34.856   2.853
  37.0  34.855   2.788
  38.0  34.856   2.772
  39.0  34.858   2.741
  40.0  34.857   2.682
  41.0  34.852   2.582
  42.0  34.847   2.443
  43.0  34.837   2.320
  44.0  34.835   2.287
  45.0  34.835   2.279
  46.0  34.834   2.254
  47.0  34.833   2.234
  48.0  34.834   2.216
  49.0  34.832   2.188
  50.0  34.831   2.183
  51.0  34.832   2.184
  52.0  34.832   2.183
  53.0  34.831   2.169
  54.0  34.830   2.160
  55.0  34.831   2.158
  56.0  34.842   2.202
  57.0  34.871   2.329
  58.0  34.888   2.429
  59.0  34.904   2.533
  60.0  34.945   2.776
  61.0  34.963   2.895
  62.0  34.975   2.950
  63.0  34.987   2.999
  64.0  34.993   3.025
  65.0  34.996   3.047
  66.0  34.997   3.059
  67.0  34.998   3.071
  68.0  35.004   3.115
  69.0  35.017   3.192
  70.0  35.035   3.306
  71.0  35.039   3.314
  72.0  35.043   3.346
  73.0  35.053   3.389
  74.0  35.053   3.364
  75.0  35.050   3.334
  76.0  35.053   3.344
  77.0  35.055   3.347
  78.0  35.052   3.311
  79.0  35.051   3.291
  80.0  35.051   3.282
  81.0  35.051   3.280
  82.0  35.053   3.280
  83.0  35.053   3.280
  84.0  35.055   3.281
  85.0  35.057   3.279
  86.0  35.059   3.276
  87.0  35.061   3.264
  88.0  35.060   3.221
  89.0  35.047   3.090
  90.0  35.025   2.869
  91.0  34.996   2.684
  92.0  34.969   2.476
  93.0  34.963   2.425
  94.0  34.963   2.425
  95.0  34.963   2.418
  96.0  34.960   2.405
  97.0  34.962   2.413
  98.0  34.964   2.426
  99.0  34.964   2.423
 100.0  34.964   2.417
 101.0  34.963   2.414
 102.0  34.962   2.412
 103.0  34.962   2.414
 104.0  34.962   2.416
 105.0  34.962   2.418
 106.0  34.962   2.423
 107.0  34.963   2.429
 108.0  34.966   2.444
 109.0  34.973   2.483
 110.0  34.983   2.520
 111.0  34.985   2.530
 112.0  34.986   2.535
 113.0  34.986   2.537
 114.0  34.986   2.545
 115.0  34.988   2.560
 116.0  34.993   2.601
 117.0  35.000   2.648
 118.0  35.002   2.649
 119.0  35.000   2.624
 120.0  35.001   2.622
 121.0  35.006   2.630
 122.0  35.005   2.627
 123.0  35.005   2.625
 124.0  35.004   2.618
 125.0  35.004   2.619
 126.0  35.002   2.606
 127.0  35.002   2.605
 128.0  35.002   2.604
 129.0  35.003   2.608
 130.0  35.004   2.617
 131.0  35.004   2.617
 132.0  35.003   2.609
 133.0  35.003   2.611
 134.0  35.004   2.612
 135.0  35.004   2.607
 136.0  35.001   2.586
