   1.0  33.713   5.022
   2.0  33.848   5.060
   3.0  34.024   4.989
   4.0  34.212   4.800
   5.0  34.296   4.781
   6.0  34.322   4.614
   7.0  34.368   4.543
   8.0  34.415   4.481
   9.0  34.472   4.506
  10.0  34.536   4.442
  11.0  34.635   4.638
  12.0  34.643   4.562
  13.0  34.657   4.430
  14.0  34.674   4.420
  15.0  34.730   4.457
  16.0  34.752   4.342
  17.0  34.766   4.301
  18.0  34.778   4.229
  19.0  34.782   4.141
  20.0  34.778   3.996
  21.0  34.778   3.799
  22.0  34.791   3.756
  23.0  34.794   3.688
  24.0  34.801   3.625
  25.0  34.798   3.540
  26.0  34.780   3.266
  27.0  34.778   3.046
  28.0  34.771   2.947
  29.0  34.773   2.868
  30.0  34.776   2.813
  31.0  34.779   2.775
  32.0  34.790   2.790
  33.0  34.806   2.850
  34.0  34.821   2.859
  35.0  34.824   2.827
  36.0  34.823   2.784
  37.0  34.818   2.661
  38.0  34.818   2.615
  39.0  34.819   2.568
  40.0  34.819   2.523
  41.0  34.818   2.461
  42.0  34.818   2.450
  43.0  34.851   2.551
  44.0  34.865   2.699
  45.0  34.875   2.733
  46.0  34.873   2.653
  47.0  34.856   2.492
  48.0  34.853   2.456
  49.0  34.833   2.302
  50.0  34.822   2.157
  51.0  34.816   2.127
  52.0  34.816   2.083
  53.0  34.818   2.057
  54.0  34.817   2.054
  55.0  34.817   2.044
  56.0  34.818   2.025
  57.0  34.818   2.023
  58.0  34.820   2.013
  59.0  34.822   2.005
  60.0  34.824   2.007
  61.0  34.828   2.050
  62.0  34.844   2.110
  63.0  34.860   2.198
  64.0  34.874   2.293
  65.0  34.881   2.331
  66.0  34.886   2.351
  67.0  34.901   2.414
  68.0  34.901   2.414
  69.0  34.902   2.405
  70.0  34.898   2.370
  71.0  34.900   2.364
  72.0  34.900   2.375
  73.0  34.916   2.455
  74.0  34.923   2.517
  75.0  34.928   2.565
  76.0  34.935   2.574
  77.0  34.938   2.552
  78.0  34.934   2.546
  79.0  34.936   2.548
  80.0  34.943   2.576
  81.0  34.946   2.587
  82.0  34.948   2.601
  83.0  34.953   2.622
  84.0  34.955   2.641
  85.0  34.959   2.664
  86.0  34.961   2.651
  87.0  34.960   2.643
  88.0  34.959   2.631
  89.0  34.952   2.586
  90.0  34.950   2.565
  91.0  34.947   2.520
  92.0  34.938   2.451
  93.0  34.934   2.405
  94.0  34.928   2.337
  95.0  34.950   2.448
  96.0  34.956   2.600
  97.0  34.980   2.663
  98.0  34.987   2.689
  99.0  34.987   2.692
 100.0  34.985   2.658
 101.0  34.982   2.644
 102.0  34.982   2.646
 103.0  34.982   2.644
 104.0  34.980   2.629
 105.0  34.973   2.605
 106.0  34.963   2.509
 107.0  34.954   2.391
 108.0  34.951   2.358
 109.0  34.948   2.336
 110.0  34.942   2.268
 111.0  34.939   2.227
 112.0  34.941   2.249
 113.0  34.940   2.232
 114.0  34.941   2.229
 115.0  34.944   2.234
 116.0  34.945   2.235
 117.0  34.946   2.240
 118.0  34.948   2.253
 119.0  34.949   2.253
 120.0  34.950   2.258
 121.0  34.950   2.261
 122.0  34.954   2.265
 123.0  34.957   2.293
 124.0  34.963   2.319
 125.0  34.964   2.326
 126.0  34.967   2.347
 127.0  34.972   2.371
 128.0  34.974   2.378
 129.0  34.974   2.374
 130.0  34.973   2.367
 131.0  34.974   2.361
 132.0  34.976   2.360
 133.0  34.978   2.358
 134.0  34.979   2.358
 135.0  34.981   2.359
 136.0  34.981   2.357
 137.0  34.982   2.353
 138.0  34.983   2.352
 139.0  34.983   2.350
 140.0  34.985   2.357
 141.0  34.990   2.366
 142.0  34.991   2.373
 143.0  34.993   2.380
 144.0  34.997   2.392
 145.0  35.001   2.413
 146.0  35.001   2.413
 147.0  35.002   2.412
 148.0  34.999   2.392
 149.0  35.000   2.385
 150.0  34.999   2.383
 151.0  34.998   2.362
 152.0  34.999   2.354
 153.0  35.000   2.352
 154.0  35.001   2.354
 155.0  35.003   2.359
 156.0  35.003   2.358
 157.0  35.006   2.364
 158.0  35.005   2.364
 159.0  35.004   2.363
 160.0  35.006   2.365
 161.0  35.007   2.367
 162.0  35.008   2.368
 163.0  35.011   2.376
 164.0  35.017   2.392
 165.0  35.019   2.402
 166.0  35.021   2.409
 167.0  35.024   2.424
 168.0  35.024   2.426
 169.0  35.025   2.429
 170.0  35.025   2.429
 171.0  35.025   2.429
 172.0  35.026   2.428
 173.0  35.026   2.426
 174.0  35.026   2.425
 175.0  35.026   2.424
 176.0  35.026   2.422
 177.0  35.027   2.419
 178.0  35.027   2.418
 179.0  35.027   2.417
 180.0  35.027   2.416
 181.0  35.028   2.416
 182.0  35.028   2.415
 183.0  35.029   2.412
 184.0  35.028   2.411
 185.0  35.029   2.409
 186.0  35.029   2.408
 187.0  35.030   2.407
 188.0  35.030   2.406
 189.0  35.030   2.403
 190.0  35.030   2.403
 191.0  35.030   2.398
 192.0  35.030   2.398
 193.0  35.030   2.396
 194.0  35.030   2.396
 195.0  35.031   2.393
 196.0  35.031   2.392
 197.0  35.034   2.399
 198.0  35.035   2.399
 199.0  35.036   2.399
 200.0  35.035   2.397
 201.0  35.036   2.394
 202.0  35.036   2.389
 203.0  35.037   2.389
 204.0  35.037   2.385
 205.0  35.038   2.383
 206.0  35.038   2.382
 207.0  35.039   2.384
 208.0  35.040   2.385
 209.0  35.040   2.385
 210.0  35.040   2.384
 211.0  35.041   2.384
 212.0  35.042   2.384
 213.0  35.045   2.384
 214.0  35.045   2.383
 215.0  35.045   2.383
 216.0  35.046   2.383
 217.0  35.048   2.383
 218.0  35.050   2.384
 219.0  35.052   2.386
 220.0  35.053   2.388
 221.0  35.057   2.393
 222.0  35.058   2.395
 223.0  35.059   2.394
 224.0  35.061   2.395
 225.0  35.061   2.394
 226.0  35.062   2.394
 227.0  35.062   2.393
 228.0  35.063   2.389
 229.0  35.064   2.388
 230.0  35.065   2.384
 231.0  35.067   2.378
 232.0  35.070   2.376
 233.0  35.070   2.375
 234.0  35.074   2.374
 235.0  35.074   2.374
 236.0  35.078   2.365
 237.0  35.082   2.354
 238.0  35.084   2.343
 239.0  35.087   2.323
 240.0  35.092   2.296
 241.0  35.096   2.267
 242.0  35.099   2.252
 243.0  35.103   2.217
 244.0  35.108   2.193
 245.0  35.112   2.180
 246.0  35.118   2.122
 247.0  35.122   2.108
 248.0  35.122   2.104
 249.0  35.126   2.070
 250.0  35.126   2.072
 251.0  35.128   2.063
 252.0  35.127   2.059
 253.0  35.132   2.029
 254.0  35.132   2.008
 255.0  35.136   1.972
 256.0  35.137   1.949
 257.0  35.140   1.920
 258.0  35.141   1.909
 259.0  35.142   1.905
 260.0  35.144   1.885
 261.0  35.145   1.878
 262.0  35.145   1.875
 263.0  35.146   1.867
 264.0  35.147   1.863
 265.0  35.147   1.859
 266.0  35.147   1.856
 267.0  35.147   1.854
 268.0  35.147   1.853
 269.0  35.147   1.849
 270.0  35.149   1.843
 271.0  35.149   1.841
 272.0  35.149   1.838
 273.0  35.149   1.836
 274.0  35.149   1.832
 275.0  35.149   1.827
 276.0  35.149   1.823
 277.0  35.149   1.821
 278.0  35.150   1.815
 279.0  35.152   1.803
 280.0  35.150   1.801
 281.0  35.150   1.798
 282.0  35.151   1.792
