   1.0  32.520   3.462
   2.0  32.997   3.417
   3.0  33.106   3.439
   4.0  33.167   3.454
   5.0  33.260   3.427
   6.0  33.430   3.324
   7.0  33.545   3.295
   8.0  33.620   3.275
   9.0  33.676   3.269
  10.0  33.733   3.268
  11.0  33.754   3.222
  12.0  33.775   3.203
  13.0  33.807   3.141
  14.0  33.843   2.991
  15.0  33.909   2.831
  16.0  34.033   2.778
  17.0  34.352   2.986
  18.0  34.488   3.318
  19.0  34.512   3.345
  20.0  34.538   3.357
  21.0  34.574   3.401
  22.0  34.578   3.340
  23.0  34.584   3.326
  24.0  34.610   3.296
  25.0  34.619   3.309
  26.0  34.641   3.336
  27.0  34.660   3.346
  28.0  34.667   3.351
  29.0  34.669   3.355
  30.0  34.673   3.359
  31.0  34.678   3.347
  32.0  34.682   3.335
  33.0  34.686   3.352
  34.0  34.695   3.347
  35.0  34.689   3.249
  36.0  34.690   3.128
  37.0  34.710   3.059
  38.0  34.692   2.674
  39.0  34.713   2.536
  40.0  34.752   2.334
  41.0  34.771   2.082
  42.0  34.787   2.011
  43.0  34.795   1.970
  44.0  34.798   1.947
  45.0  34.808   1.942
  46.0  34.815   1.913
  47.0  34.816   1.865
