,year,month,day,discharge,src_radius,src_vel,vol_flux,ent_flux,nb_depth
0,2007,6,1,0.4,1.028124864270476,0.24090642881247182,16.891561950598263,16.491561950598264,42.0
1,2007,6,2,1.8,1.9588179832914014,0.2986513368409125,31.949429418812784,30.149429418812783,42.1
2,2007,6,3,2.8,2.3671770224194377,0.3181095308336188,38.92580084448808,36.12580084448808,42.1
3,2007,6,4,3.7,2.6675133702682405,0.3310309780960643,44.22583987194609,40.52583987194609,42.1
4,2007,6,5,4.4,2.873141486051622,0.3393272779869907,47.97019111017529,43.570191110175294,42.1
5,2007,6,6,4.8,2.982305370582109,0.3435715064519829,49.97861162823654,45.178611628236546,42.1
6,2007,6,7,5.6,3.185984010469208,0.3512213971930948,53.796238698583174,48.19623869858317,42.1
7,2007,6,8,6.2,3.328036024248924,0.3563656002066497,56.546098277016135,50.34609827701613,42.1
8,2007,6,9,5.7,3.2102432909167633,0.35211058805502077,54.276108578489804,48.5761085784898,42.1
9,2007,6,10,7.8,3.6721282327210156,0.36824685671189145,63.33405388275572,55.53405388275572,42.1
10,2007,6,11,8.6,3.829048934177811,0.37341928334009333,66.47704132153547,57.877041321535465,42.1
11,2007,6,12,7.4,3.590206758893411,0.36548783161705,61.62765922853101,54.22765922853101,42.1
12,2007,6,13,11.9,4.400887613637104,0.39115287644012836,78.45110512551018,66.55110512551018,42.1
13,2007,6,14,9.7,4.0317514621929,0.3798956782489502,70.65897252761889,60.95897252761888,42.1
14,2007,6,15,10.8,4.221701040340025,0.38577042317396026,74.6962663908534,63.8962663908534,42.1
15,2007,6,16,16.8,5.1018082248893,0.410904734676359,94.38828470282213,77.58828470282214,42.1
16,2007,6,17,24.5,5.99719918908391,0.4336598948208332,116.3348458613133,91.8348458613133,42.1
17,2007,6,18,47.9,7.993470412227142,0.47724885251574667,172.53605828046227,124.63605828046227,42.2
18,2007,6,19,53.4,8.374644967619954,0.4847173559802653,184.42593136776554,131.02593136776554,42.2
19,2007,6,20,61.3,8.884767538297314,0.4943658454266361,200.9446430283352,139.64464302833522,42.2
20,2007,6,21,66.4,9.194344182606224,0.5000422354094748,211.35455739713777,144.95455739713776,42.2
21,2007,6,22,52.2,8.293466248753107,0.4831460828430722,181.86315017761225,129.66315017761224,42.2
22,2007,6,23,72.7,9.558550568719246,0.5065594826522971,223.74377624813485,151.04377624813486,42.300000000000004
23,2007,6,24,81.1,10.017131498693482,0.5145341769766443,240.00079467656442,158.90079467656443,42.300000000000004
24,2007,6,25,88.5,10.399102027470393,0.5209927926083248,254.0547251832254,165.5547251832254,42.300000000000004
25,2007,6,26,94.9,10.714980515060475,0.5262154125189192,266.015006430787,171.11500643078702,42.300000000000004
26,2007,6,27,79.8,9.947997709241438,0.5133477479732756,237.5929589696195,157.79295896961952,42.300000000000004
27,2007,6,28,89.9,10.469288373144764,0.522162272476761,256.70061945464676,166.80061945464675,42.300000000000004
28,2007,6,29,7.4,3.590206758893411,0.36548783161705,61.38259359651772,53.982593596517724,42.1
29,2007,6,30,6.8,3.4624308952537692,0.3610994334568071,58.970365986422095,52.1703659864221,42.1
30,2007,7,1,5.3,3.1116842697272413,0.3484696376322807,52.31381671375097,47.01381671375097,42.1
31,2007,7,2,6.7,3.4405164495002163,0.3603359960434601,58.58338249720909,51.883382497209084,42.1
32,2007,7,3,9.9,4.067170491779881,0.38100490048002333,71.3156402683982,61.4156402683982,42.1
33,2007,7,4,22.6,5.793269985200539,0.4286877022606189,111.03346351707208,88.43346351707208,42.2
34,2007,7,5,48.0,8.000618077900768,0.47739106021002176,172.55533604247802,124.55533604247802,42.2
35,2007,7,6,58.7,8.721262088795488,0.49131446238954013,195.3317919486478,136.6317919486478,42.2
36,2007,7,7,75.2,9.698061649540927,0.5090120720478385,228.52927748113547,153.32927748113548,42.300000000000004
37,2007,7,8,61.7,8.909568077424256,0.4948254015999309,201.46991080667232,139.76991080667233,42.300000000000004
38,2007,7,9,76.3,9.758606605998278,0.5100691287364506,230.53473998792367,154.23473998792366,42.300000000000004
39,2007,7,10,82.6,10.096118927681221,0.5158830452992575,242.65955324895012,160.05955324895012,42.300000000000004
40,2007,7,11,89.5,10.449299251384383,0.5218297374537801,255.66654823632987,166.16654823632987,42.300000000000004
41,2007,7,12,75.9,9.736648327521584,0.509686264950603,229.69808643486758,153.79808643486757,42.300000000000004
42,2007,7,13,69.2,9.358548123564024,0.503001478474301,216.5780202539744,147.3780202539744,42.300000000000004
43,2007,7,14,76.1,9.747635710914933,0.5098779124607149,230.23156849085441,154.13156849085442,42.300000000000004
44,2007,7,15,78.7,9.888995514015505,0.5123308356824625,235.31299148243735,156.61299148243734,42.300000000000004
45,2007,7,16,75.4,9.70910728314721,0.5092052456209827,228.94685821275252,153.5468582127525,42.2
46,2007,7,17,62.0,8.928108248792043,0.49516839583671873,202.1521987320019,140.1521987320019,42.2
47,2007,7,18,24.7,6.018131915794741,0.4341638602317963,116.53105734489311,91.83105734489311,42.1
48,2007,7,19,23.8,5.923155486947528,0.4318677891208942,114.09825782297443,90.29825782297443,42.2
49,2007,7,20,32.1,6.733433792090043,0.4507253316932543,135.59584872098964,103.49584872098964,42.2
50,2007,7,21,41.4,7.509166370149933,0.4674089360610611,157.67849484240492,116.27849484240491,42.2
51,2007,7,22,58.3,8.695742586861115,0.4908347783899126,194.44316943696887,136.1431694369689,42.1
52,2007,7,23,71.0,9.462110499190947,0.5048500931897216,220.1805568586113,149.1805568586113,42.2
53,2007,7,24,53.9,8.408161621366522,0.48536313375152057,185.0947715531474,131.1947715531474,42.2
54,2007,7,25,58.8,8.727626426286346,0.491433945506905,195.3561918053707,136.5561918053707,42.2
55,2007,7,26,74.0,9.631432576268203,0.5078436952800991,225.9808496515212,151.9808496515212,42.300000000000004
56,2007,7,27,65.2,9.122760304876257,0.4987411362038106,208.4469007596474,143.24690075964742,42.2
57,2007,7,28,58.5,8.708514801592763,0.49107497180730236,194.66878994005523,136.16878994005523,42.2
58,2007,7,29,52.0,8.279833139894246,0.4828811998036606,180.93701222137827,128.93701222137827,42.2
59,2007,7,30,46.5,7.892494254191686,0.47523074232644696,168.8226525966235,122.3226525966235,42.2
60,2007,7,31,53.8,8.40147254929567,0.48523439017847875,184.57030422135543,130.77030422135545,42.2
61,2007,8,1,53.5,8.381362598873338,0.48484692494431264,183.94210313450142,130.44210313450142,42.2
62,2007,8,2,60.9,8.859874351074929,0.4939037116811385,199.4504558782122,138.5504558782122,42.300000000000004
63,2007,8,3,46.8,7.914276728402926,0.4756675367634461,169.39260597006094,122.59260597006094,42.2
64,2007,8,4,57.0,8.61210617836735,0.4892560756235273,191.24912722723656,134.24912722723656,42.300000000000004
65,2007,8,5,72.0,9.518997694323984,0.5058598095156325,221.65562950342016,149.65562950342016,42.300000000000004
66,2007,8,6,46.7,7.907024792675389,0.47552220596161227,169.03604815960813,122.33604815960813,42.2
67,2007,8,7,61.8,8.915753846691203,0.4949398915368925,200.90685861267409,139.1068586126741,42.300000000000004
68,2007,8,8,30.5,6.587491728058318,0.4474451413230972,130.90013285149948,100.40013285149948,42.2
69,2007,8,9,30.2,6.55964399729649,0.44681374615699515,129.98273276772156,99.78273276772155,42.2
70,2007,8,10,24.5,5.99719918908391,0.4336598948208332,115.24843745799458,90.74843745799458,42.2
71,2007,8,11,30.6,6.596739500449013,0.4476544236115816,131.03102407173293,100.43102407173293,42.2
72,2007,8,12,35.3,7.013319059927728,0.456885772824686,142.52247837424466,107.22247837424466,42.2
73,2007,8,13,20.9,5.602328363134083,0.42392525391006486,105.4503090950713,84.5503090950713,42.1
74,2007,8,14,42.2,7.571014174639996,0.46868867030371036,158.47059299988396,116.27059299988396,42.2
75,2007,8,15,28.7,6.417976277090289,0.4435737166970177,126.05594294144302,97.35594294144302,42.2
76,2007,8,16,13.2,4.600844453908629,0.39698943812651294,81.97144119563917,68.77144119563917,42.1
77,2007,8,17,6.0,3.2815949396079356,0.35470019457856267,54.8384966374273,48.8384966374273,42.1
78,2007,8,18,1.3,1.7038228786154537,0.2850851424523981,27.03968324463967,25.739683244639668,42.1
79,2007,8,19,0.5,1.1313024431218952,0.24870967344596343,17.947515409548693,17.447515409548693,42.0
80,2007,8,20,0.0,0.0,,,,0.0
81,2007,8,21,0.0,0.0,,,,0.0
82,2007,8,22,0.4,1.028124864270476,0.24090642881247182,16.485871147918928,16.08587114791893,42.0
83,2007,8,23,0.8,1.3837534528717486,0.26598226182845686,22.05476288073815,21.25476288073815,42.0
84,2007,8,24,1.1,1.5861026930253947,0.27836216339056075,25.33258637109221,24.232586371092207,42.1
85,2007,8,25,1.1,1.5861026930253947,0.27836216339056075,25.229232675469348,24.129232675469346,42.1
86,2007,8,26,1.8,1.9588179832914014,0.2986513368409125,31.297921924667808,29.497921924667807,42.1
87,2007,8,27,1.3,1.7038228786154537,0.2850851424523981,27.113214244818515,25.813214244818514,42.1
88,2007,8,28,1.4,1.7588057683457452,0.28811932990389744,28.103187598305727,26.70318759830573,42.1
89,2007,8,29,0.7,1.30678766373145,0.2609564952258194,20.86561300334467,20.16561300334467,42.0
90,2007,8,30,0.7,1.30678766373145,0.2609564952258194,20.881657741760446,20.181657741760446,42.0
91,2007,8,31,1.1,1.5861026930253947,0.27836216339056075,25.47644281887198,24.37644281887198,42.1
92,2007,9,1,0.4,1.028124864270476,0.24090642881247182,16.759891313438914,16.359891313438915,42.0
93,2007,9,2,0.0,0.0,,,,0.0
94,2007,9,3,0.7,1.30678766373145,0.2609564952258194,21.151439751475536,20.451439751475537,42.1
95,2007,9,4,0.3,0.9088677419367324,0.23120647835835628,14.902323368705577,14.602323368705576,42.0
96,2007,9,5,0.9,1.4553961683148884,0.2704955831408655,23.462810610871603,22.562810610871605,42.1
97,2007,9,6,0.1,0.567570940694172,0.19762406104440772,,,38.7
98,2007,9,7,0.8,1.3837534528717486,0.26598226182845686,22.44627480915503,21.64627480915503,42.1
99,2007,9,8,0.9,1.4553961683148884,0.2704955831408655,23.61536303686819,22.71536303686819,42.1
100,2007,9,9,0.4,1.028124864270476,0.24090642881247182,16.91703005381964,16.517030053819642,42.0
101,2007,9,10,0.8,1.3837534528717486,0.26598226182845686,22.367657483630413,21.567657483630413,42.1
102,2007,9,11,0.5,1.1313024431218952,0.24870967344596343,18.473413756131478,17.973413756131478,42.0
103,2007,9,12,0.0,0.0,,,,0.0
104,2007,9,13,0.0,0.0,,,,0.0
105,2007,9,14,0.0,0.0,,,,0.0
106,2007,9,15,0.0,0.0,,,,0.0
107,2007,9,16,0.0,0.0,,,,0.0
108,2007,9,17,0.5,1.1313024431218952,0.24870967344596343,18.580937709441123,18.080937709441123,42.1
109,2007,9,18,0.6,1.2232452689499826,0.2552726482489124,20.010526201091494,19.410526201091493,42.0
110,2007,9,19,0.4,1.028124864270476,0.24090642881247182,16.98383723557568,16.583837235575682,42.0
111,2007,9,20,0.2,0.7638938384128138,0.21819465344876393,12.9602145258192,12.760214525819201,42.0
112,2007,9,21,0.0,0.0,,,,0.0
113,2007,9,22,0.0,0.0,,,,0.0
114,2007,9,23,0.0,0.0,,,,0.0
115,2007,9,24,0.0,0.0,,,,0.0
116,2007,9,25,0.0,0.0,,,,0.0
117,2007,9,26,0.0,0.0,,,,0.0
118,2007,9,27,0.0,0.0,,,,0.0
119,2007,9,28,0.0,0.0,,,,0.0
120,2007,9,29,0.0,0.0,,,,0.0
121,2007,9,30,0.0,0.0,,,,0.0
